I
1130 Generated by WorldEditor 2.4.1r2

1      6 0 0 SKCG rafael nuñez
1302 city Cartagena
1302 country Colombia
1302 datum_lat 10.442041667
1302 datum_lon -75.512777778
1302 faa_code 
1302 gui_label 3D
1302 iata_code CTG
1302 icao_code SKCG
1302 region_code SK
1302 state Bolívar Department
1302 transition_alt 18000
1302 transition_level 19000
100 45.00 1 1 0.80 1 2 1  01  10.43088294 -075.51337342 35 35 3 12 1 0 19  10.45246551 -075.51249035 35 120 3 12 0 0
102 H32  10.44409617 -075.51360181 2.2 11.80 13.00 1 0 0 0.00 1
102 H33  10.44421251 -075.51359814 2.2 11.80 13.00 1 0 0 0.00 1
110 2 0.00 0.0 New Taxiway 2
111  10.44715241 -075.51659205
111  10.44700362 -075.51659685
111  10.44452146 -075.51669077
111  10.44450873 -075.51624119
113  10.44713826 -075.51622651
110 2 0.00 0.0 New Taxiway 1
111  10.44752258 -075.51480527
111  10.44755649 -075.51480527
111  10.44757577 -075.51506119
113  10.44753379 -075.51506858
110 2 0.00 0.0 New Taxiway 58
111  10.44434048 -075.51444767
111  10.44413531 -075.51447517
111  10.44406448 -075.51390090
111  10.44406210 -075.51384950
111  10.44392813 -075.51385973
111  10.44392702 -075.51377458
111  10.44391407 -075.51375235
111  10.44388478 -075.51374666
111  10.44387909 -075.51374600
111  10.44388844 -075.51392120
111  10.44362717 -075.51394759
111  10.44351495 -075.51381002
111  10.44367695 -075.51380211
111  10.44368020 -075.51378333
111  10.44367161 -075.51373962
111  10.44365442 -075.51372464
111  10.44360898 -075.51371755
111  10.44358039 -075.51371395
111  10.44352584 -075.51370705
111  10.44346649 -075.51371225
111  10.44341840 -075.51371850
111  10.44340509 -075.51374347
111  10.44340252 -075.51377952
111  10.44335086 -075.51378509
111  10.44334267 -075.51374243
111  10.44333551 -075.51373306
111  10.44331422 -075.51372904
111  10.44326942 -075.51373159
111  10.44319470 -075.51373759
111  10.44318201 -075.51374763
111  10.44317360 -075.51376837
111  10.44317701 -075.51379906
111  10.44312061 -075.51380382
111  10.44311169 -075.51375983
111  10.44309037 -075.51375146
111  10.44307150 -075.51374608
111  10.44288492 -075.51376337
111  10.44287387 -075.51371081
111  10.44335061 -075.51366665
111  10.44352592 -075.51365088
111  10.44358363 -075.51365712
111  10.44361310 -075.51364089
111  10.44361013 -075.51361248
111  10.44360557 -075.51360751
111  10.44360307 -075.51355324
111  10.44424837 -075.51353095
111  10.44425678 -075.51360911
111  10.44426343 -075.51363672
111  10.44426466 -075.51367543
111  10.44428654 -075.51369062
111  10.44421072 -075.51384309
111  10.44411608 -075.51384899
111  10.44412713 -075.51405752
111  10.44428799 -075.51421609
113  10.44430712 -075.51421783
111  10.44377708 -075.51374354
111  10.44374128 -075.51373565
111  10.44373063 -075.51374070
111  10.44372162 -075.51375563
111  10.44372566 -075.51379248
111  10.44372707 -075.51380501
113  10.44378145 -075.51379905
110 2 0.00 0.0 New Taxiway 234
111  10.44609680 -075.51117088
111  10.44604138 -075.51117458
111  10.44603705 -075.51110748
113  10.44609246 -075.51110378
110 2 0.00 0.0 New Taxiway 233
111  10.44610553 -075.51096240
111  10.44604879 -075.51096497
111  10.44604580 -075.51089675
113  10.44610255 -075.51089418
110 1 0.00 0.0 New Taxiway 56
111  10.44463205 -075.51583607
111  10.44456386 -075.51583657
111  10.44437786 -075.51450104
111  10.44423574 -075.51452453
111  10.44422558 -075.51446268
111  10.44434048 -075.51444767
111  10.44426606 -075.51403677
111  10.44423626 -075.51393459
111  10.44421015 -075.51388050
111  10.44421015 -075.51383303
111  10.44428654 -075.51369062
111  10.44432700 -075.51367567
111  10.44430776 -075.51311100
111  10.44442571 -075.51310669
111  10.44444239 -075.51366897
111  10.44449661 -075.51364531
111  10.44452583 -075.51362090
113  10.44453999 -075.51360593
110 2 0.00 0.0 New Taxiway 231
111  10.44584996 -075.51097275
111  10.44579603 -075.51097687
111  10.44579252 -075.51090824
113  10.44584620 -075.51090517
110 2 0.00 0.0 New Taxiway 232
111  10.44582341 -075.51118440
111  10.44576961 -075.51118686
111  10.44576665 -075.51112029
113  10.44582045 -075.51111782
110 1 0.40 0.0 New Taxiway 21
111  10.43263759 -075.51358219
111  10.43058927 -075.51366687
111  10.43058115 -075.51362708
111  10.43006876 -075.51365242 106
111  10.43005493 -075.51314865
111  10.43052747 -075.51312984 102
111  10.43052021 -075.51272850 102
111  10.43053412 -075.51247028 102
111  10.43058804 -075.51235356 102
111  10.43071675 -075.51222268 102
111  10.43085068 -075.51215548 102
111  10.43108375 -075.51213426 102
111  10.43128030 -075.51212895 102
111  10.43140205 -075.51214664 102
111  10.43150119 -075.51219262 102
111  10.43154642 -075.51222622 102
111  10.43165773 -075.51231996 102
111  10.43196212 -075.51260470 102
111  10.43232738 -075.51294603 102
111  10.43248982 -075.51303384
113  10.43257398 -075.51310413
111  10.43191067 -075.51299953 102
111  10.43138572 -075.51258666 102
111  10.43125353 -075.51254775 102
111  10.43097176 -075.51259904 102
111  10.43088827 -075.51283426 102
111  10.43089871 -075.51286963 102
111  10.43097002 -075.51293330 102
111  10.43153141 -075.51304791
113  10.43193370 -075.51302740
110 1 0.20 0.0 New Taxiway 20
111  10.45154585 -075.51225351 102
111  10.45189441 -075.51202004 102
111  10.45353145 -075.51195672 102
111  10.45359493 -075.51196173
111  10.45359989 -075.51222177
111  10.45410107 -075.51221611 106
111  10.45411861 -075.51268831
111  10.45360823 -075.51271322
111  10.45360515 -075.51285955
111  10.45360098 -075.51290412 102
111  10.45358011 -075.51292110 102
111  10.45194684 -075.51299761 102
113  10.45157821 -075.51279282
110 2 0.00 0.0 New Taxiway 83
111  10.44691621 -075.51548503
111  10.44680849 -075.51548955
111  10.44680527 -075.51541027
113  10.44691299 -075.51540574
110 2 0.00 0.0 New Taxiway 83
111  10.44730983 -075.51547291
111  10.44720110 -075.51547537
111  10.44719933 -075.51539491
113  10.44730806 -075.51539245
110 2 0.00 0.0 New Taxiway 82
111  10.44653206 -075.51545311
111  10.44642147 -075.51545632
111  10.44641905 -075.51537008
113  10.44652964 -075.51536687
110 2 0.00 0.0 New Taxiway 81
111  10.44614149 -075.51547180
111  10.44603773 -075.51547538
111  10.44603418 -075.51536896
113  10.44613794 -075.51536538
110 2 0.00 0.0 New Taxiway 80
111  10.44574274 -075.51547562
111  10.44564614 -075.51547808
111  10.44564342 -075.51536828
113  10.44574002 -075.51536581
110 2 0.00 0.0 New Taxiway 79
111  10.44497446 -075.51550161
111  10.44486646 -075.51550526
111  10.44486329 -075.51540797
113  10.44497129 -075.51540433
110 2 0.00 0.0 New Taxiway 79
111  10.44536505 -075.51549854
111  10.44525381 -075.51550095
111  10.44525150 -075.51539109
113  10.44536274 -075.51538868
110 2 0.00 0.0 New Taxiway 78
111  10.44496249 -075.51409643
111  10.44487826 -075.51409915
111  10.44487474 -075.51398644
113  10.44495897 -075.51398371
110 2 0.00 0.0 New Taxiway 78
111  10.44498826 -075.51460861
111  10.44489564 -075.51461276
111  10.44489082 -075.51450150
113  10.44498344 -075.51449736
110 2 0.00 0.0 New Taxiway 77
111  10.44559434 -075.51383035
111  10.44545832 -075.51383538
111  10.44545537 -075.51375280
113  10.44559138 -075.51374777
110 2 0.00 0.0 New Taxiway 32
111  10.44513074 -075.51594538
111  10.44516704 -075.51605785
111  10.44510387 -075.51605955
113  10.44507549 -075.51594850
110 2 0.00 0.0 New Taxiway 31
111  10.44543631 -075.51593665
111  10.44535439 -075.51605056
111  10.44523867 -075.51605396
111  10.44520792 -075.51594319
111  10.44526010 -075.51594111
111  10.44528677 -075.51600686
111  10.44532872 -075.51600790
113  10.44537682 -075.51593763
110 1 0.20 0.0 New Taxiway 5
111  10.44685672 -075.51291742
111  10.44677075 -075.51296383
111  10.44672388 -075.51299280
111  10.44667700 -075.51306667
111  10.44664665 -075.51314349
111  10.44663345 -075.51322910
111  10.44663635 -075.51332693
111  10.44664147 -075.51340987
111  10.44665334 -075.51341930
111  10.44667291 -075.51342970
111  10.44671797 -075.51342727
111  10.44737194 -075.51340223
111  10.44746275 -075.51340036
111  10.44756405 -075.51579192
111  10.44463117 -075.51591822
111  10.44453772 -075.51360043
111  10.44453519 -075.51351163
111  10.44483957 -075.51351654
111  10.44489393 -075.51350917
111  10.44492654 -075.51347724
111  10.44495070 -075.51343793
111  10.44496640 -075.51337652
111  10.44496761 -075.51332248
111  10.44496036 -075.51327212
111  10.44491446 -075.51320211
111  10.44485286 -075.51314193
111  10.44475865 -075.51307806
111  10.44470067 -075.51304367
111  10.44464510 -075.51300437
111  10.44584573 -075.51296015
111  10.44580708 -075.51297980
111  10.44576360 -075.51300437
111  10.44573099 -075.51302770
111  10.44568871 -075.51308789
111  10.44565127 -075.51317386
111  10.44563315 -075.51327458
111  10.44563073 -075.51334950
111  10.44563798 -075.51343056
111  10.44564764 -075.51346127
111  10.44568267 -075.51346987
111  10.44630505 -075.51344268
111  10.44631319 -075.51342737
111  10.44632259 -075.51340029
111  10.44631961 -075.51336335
111  10.44630956 -075.51325861
111  10.44630437 -075.51320721
111  10.44627719 -075.51311202
111  10.44624196 -075.51305265
111  10.44621277 -075.51301888
111  10.44616884 -075.51297592
111  10.44612919 -075.51296123
113  10.44610546 -075.51295341
111  10.44646728 -075.51373311
111  10.44634729 -075.51367091
111  10.44631176 -075.51374318
113  10.44642767 -075.51380655
111  10.44574106 -075.51547452
111  10.44573740 -075.51536792
111  10.44564430 -075.51537016
113  10.44564760 -075.51547601
111  10.44536413 -075.51549798
111  10.44536031 -075.51539031
111  10.44525239 -075.51539161
113  10.44525519 -075.51549980
111  10.44497228 -075.51549914
111  10.44497045 -075.51540559
111  10.44486599 -075.51541043
113  10.44486819 -075.51550398
111  10.44498571 -075.51460722
111  10.44498174 -075.51449976
111  10.44489194 -075.51450256
113  10.44489652 -075.51461095
111  10.44496089 -075.51409454
111  10.44495707 -075.51398506
111  10.44487562 -075.51398816
113  10.44488071 -075.51409739
111  10.44559162 -075.51382951
111  10.44558948 -075.51374968
111  10.44545722 -075.51375496
113  10.44546120 -075.51383354
111  10.44614018 -075.51547101
111  10.44613687 -075.51536723
111  10.44603760 -075.51537214
113  10.44604040 -075.51547283
111  10.44653071 -075.51544979
111  10.44652704 -075.51537078
111  10.44642258 -075.51537227
113  10.44642442 -075.51545464
111  10.44691429 -075.51548322
111  10.44691031 -075.51540775
111  10.44680769 -075.51541241
113  10.44681074 -075.51548726
111  10.44730785 -075.51547124
111  10.44730601 -075.51539545
111  10.44720186 -075.51539763
113  10.44720369 -075.51547310
110 1 0.20 0.0 New Taxiway 4
111  10.44619347 -075.51256033
111  10.44633262 -075.51247779
111  10.44639640 -075.51244390
111  10.44646017 -075.51237610
111  10.44650221 -075.51231125
111  10.44653120 -075.51223630
111  10.44654714 -075.51215524
111  10.44653699 -075.51195752
111  10.44651511 -075.51174059
111  10.44648770 -075.51161544
111  10.44639495 -075.51149030
111  10.44633407 -075.51144461
111  10.44627029 -075.51141513
111  10.44620942 -075.51140481
111  10.44603113 -075.51138565
111  10.44588329 -075.51137976
111  10.44566471 -075.51138536
111  10.44511331 -075.51141543
111  10.44505910 -075.51021655
111  10.44659764 -075.51015311
111  10.44660405 -075.51014695
111  10.44660153 -075.51010516
111  10.44659180 -075.50994530
111  10.44670205 -075.50994218
111  10.44671645 -075.51014577
111  10.44674860 -075.51014449
111  10.44676811 -075.51062063
111  10.44681401 -075.51165358
111  10.44682850 -075.51169166
111  10.44684903 -075.51170271
111  10.44686715 -075.51213382
111  10.44688979 -075.51224552
111  10.44694052 -075.51233150
111  10.44700333 -075.51239045
111  10.44708305 -075.51244572
111  10.44713499 -075.51247643
113  10.44722558 -075.51252679
111  10.44610427 -075.51096170
111  10.44610180 -075.51089556
111  10.44604665 -075.51089825
113  10.44605036 -075.51096404
111  10.44584451 -075.51090809
111  10.44579462 -075.51090964
111  10.44579705 -075.51097393
113  10.44584873 -075.51097180
111  10.44581847 -075.51112009
111  10.44576905 -075.51112246
111  10.44577117 -075.51118479
113  10.44582187 -075.51118285
111  10.44609072 -075.51110766
111  10.44603930 -075.51110844
111  10.44604236 -075.51117315
113  10.44609454 -075.51117004
110 2 0.00 0.0 New Taxiway 76
111  10.44634729 -075.51367091
111  10.44646728 -075.51373311
111  10.44642767 -075.51380655
113  10.44631176 -075.51374318
110 2 0.00 0.0 New Taxiway 14
111  10.44749714 -075.51423478
111  10.44756596 -075.51423283
111  10.44756227 -075.51412295
111  10.44749217 -075.51412795
111  10.44747588 -075.51368436
111  10.44764038 -075.51366710
111  10.44772096 -075.51466335
111  10.44758239 -075.51465787
113  10.44751537 -075.51469120
110 2 0.00 0.0 New Taxiway 11
111  10.44705327 -075.51594598
111  10.44703906 -075.51598934
111  10.44682356 -075.51599925
111  10.44681688 -075.51587400
111  10.44693009 -075.51587131
111  10.44693483 -075.51589901
111  10.44696681 -075.51592490
113  10.44699760 -075.51594116
110 2 0.00 0.0 New Taxiway 8
111  10.44755635 -075.51578669
111  10.44770971 -075.51576457
111  10.44771313 -075.51589145
111  10.44764405 -075.51589376
111  10.44758674 -075.51590104
111  10.44754376 -075.51591665
111  10.44753148 -075.51593226
111  10.44752841 -075.51595827
111  10.44759800 -075.51603423
111  10.44761846 -075.51602591
111  10.44763484 -075.51601238
111  10.44766144 -075.51601134
111  10.44770544 -075.51602487
111  10.44776172 -075.51605609
111  10.44783122 -075.51607886
111  10.44793262 -075.51609227
111  10.44806084 -075.51609193
111  10.44809103 -075.51647333
111  10.44795555 -075.51648884
111  10.44795820 -075.51632663
111  10.44777866 -075.51621996
111  10.44764791 -075.51628716
111  10.44753759 -075.51610673
111  10.44750206 -075.51610673
111  10.44750206 -075.51615129
111  10.44736881 -075.51615309
111  10.44736834 -075.51604634
111  10.44739740 -075.51604799
111  10.44740553 -075.51604711
111  10.44741441 -075.51603908
111  10.44741619 -075.51602543
111  10.44741264 -075.51599834
111  10.44740849 -075.51597485
111  10.44739606 -075.51595799
111  10.44738480 -075.51594836
111  10.44734394 -075.51594836
111  10.44714201 -075.51595438
111  10.44710233 -075.51596281
111  10.44710223 -075.51598293
111  10.44703956 -075.51598328
111  10.44704193 -075.51595859
111  10.44705496 -075.51594414
111  10.44707864 -075.51593089
111  10.44709937 -075.51592788
111  10.44723202 -075.51592126
111  10.44738480 -075.51591403
111  10.44739606 -075.51590440
111  10.44739606 -075.51586345
113  10.44737659 -075.51579793
111  10.44741762 -075.51580341
111  10.44742192 -075.51582461
111  10.44743284 -075.51583739
111  10.44744839 -075.51583201
111  10.44745533 -075.51582090
113  10.44745997 -075.51580005
110 1 0.00 0.0 New Taxiway 26
111  10.44750327 -075.51614781
111  10.44757485 -075.51680544
111  10.44756994 -075.51690158
111  10.44755398 -075.51694778
111  10.44752651 -075.51698143
111  10.44746395 -075.51691159
111  10.44749095 -075.51684332
111  10.44746680 -075.51666808
111  10.44745329 -075.51663187
111  10.44741645 -075.51660815
111  10.44737593 -075.51658068
111  10.44715241 -075.51659205
111  10.44712843 -075.51605048
111  10.44726301 -075.51605083
113  10.44726519 -075.51615365
111  10.44742711 -075.51625951
111  10.44733661 -075.51626408
111  10.44733869 -075.51636890
113  10.44743367 -075.51636342
110 1 0.00 0.0 New Taxiway 21
111  10.44778158 -075.51621800
111  10.44780457 -075.51631510
111  10.44784347 -075.51643018
111  10.44788768 -075.51647333
111  10.44794957 -075.51648951
111  10.44809103 -075.51647333
111  10.44810703 -075.51666695
111  10.44826785 -075.51665494
111  10.44828929 -075.51685207
111  10.44814530 -075.51687042
111  10.44814431 -075.51691989
111  10.44797995 -075.51692685
111  10.44799906 -075.51707353
111  10.44782514 -075.51709450
111  10.44779042 -075.51685093
111  10.44761360 -075.51687250
111  10.44755023 -075.51630419
113  10.44753052 -075.51610310
111  10.44786960 -075.51703707
111  10.44782914 -075.51708173
111  10.44783457 -075.51709055
111  10.44790152 -075.51708115
111  10.44792980 -075.51703236
111  10.44793326 -075.51698940
113  10.44788293 -075.51698137
110 1 0.00 0.0 New Taxiway 47
111  10.44674699 -075.51014483
111  10.44700322 -075.51014199
111  10.44705000 -075.51015042
111  10.44709205 -075.51016607
111  10.44713232 -075.51020702
111  10.44730962 -075.51047679
111  10.44726438 -075.51052015
111  10.44710043 -075.51025985
111  10.44705879 -075.51021443
111  10.44702800 -075.51020359
113  10.44674986 -075.51021001
110 2 0.00 0.0 New Taxiway 46
111  10.44700517 -075.51014254
111  10.44679767 -075.51014470
111  10.44680549 -075.51012664
111  10.44682041 -075.51009629
111  10.44682041 -075.51005366
111  10.44680335 -075.50999223
111  10.44680478 -075.50994093
111  10.44681614 -075.50990119
111  10.44697319 -075.50989974
111  10.44697390 -075.51005799
113  10.44700375 -075.51005727
110 2 0.00 0.0 New Taxiway 45
111  10.44726438 -075.51052015
111  10.44689107 -075.51053118
111  10.44688056 -075.51037600
111  10.44685190 -075.51037558
111  10.44684904 -075.51030357
111  10.44679289 -075.51029826
111  10.44678355 -075.51029109
111  10.44677990 -075.51025589
111  10.44677697 -075.51022987
111  10.44676596 -075.51021581
111  10.44674986 -075.51021001
111  10.44702850 -075.51020359
111  10.44705879 -075.51021443
113  10.44710071 -075.51026014
110 1 0.00 0.0 New Taxiway 43
111  10.44659599 -075.50990018
111  10.44655210 -075.50987340
111  10.44651427 -075.50986509
111  10.44646574 -075.50986860
111  10.44643340 -075.50987964
111  10.44641703 -075.50991502
111  10.44641600 -075.50995560
111  10.44635460 -075.50995872
111  10.44634232 -075.50978391
113  10.44659303 -075.50976934
110 2 0.00 0.0 New Taxiway 40
111  10.44659406 -075.50994825
111  10.44635255 -075.50995973
111  10.44632648 -075.50950458
111  10.44669228 -075.50949060
113  10.44670536 -075.50994477
110 2 0.00 0.0 New Taxiway 34
111  10.44500304 -075.51595450
111  10.44495726 -075.51599957
111  10.44492739 -075.51601978
111  10.44492519 -075.51604023
111  10.44498285 -075.51606201
111  10.44464966 -075.51607146
111  10.44464182 -075.51591217
113  10.44477776 -075.51590822
111  10.44478042 -075.51596399
111  10.44478110 -075.51605885
111  10.44480100 -075.51605746
113  10.44488948 -075.51596190
110 2 0.00 0.0 New Taxiway 35
111  10.44540440 -075.51604680
111  10.44550863 -075.51594684
113  10.44551336 -075.51604258
110 2 0.00 0.0 New Taxiway 119
111  10.44449683 -075.51510933
111  10.44460184 -075.51511199
111  10.44462555 -075.51566546
113  10.44456346 -075.51566005
130 Airport Boundary 15
111  10.45506167 -075.51173655
111  10.45366643 -075.51325174
111  10.44790522 -075.51354157
111  10.44800339 -075.51474309
111  10.44764384 -075.51478572
111  10.44768934 -075.51572965
111  10.44787684 -075.51572904
111  10.44789352 -075.51597492
111  10.44807085 -075.51598970
111  10.44807804 -075.51608655
111  10.44820519 -075.51608782
111  10.44829989 -075.51691729
111  10.44798239 -075.51692912
111  10.44800248 -075.51707634
111  10.44768827 -075.51711242
111  10.44767598 -075.51702935
111  10.44742643 -075.51706113
111  10.44733436 -075.51671947
111  10.44727877 -075.51665454
111  10.44717988 -075.51661562
111  10.44712053 -075.51661446
111  10.44699693 -075.51660912
111  10.44451781 -075.51669622
111  10.44446475 -075.51609823
111  10.44435430 -075.51533526
111  10.44422230 -075.51447199
111  10.44412620 -075.51448068
111  10.44405527 -075.51391439
111  10.44195292 -075.51408956
111  10.44192080 -075.51390545
111  10.44138972 -075.51393805
111  10.44137490 -075.51365576
111  10.43867197 -075.51374385
111  10.43387331 -075.51393562
111  10.43033786 -075.51409069
111  10.42946702 -075.51386254
111  10.42818032 -075.51342717
111  10.42815030 -075.51309792
111  10.42848909 -075.51288103
111  10.42892050 -075.51217240
111  10.42930946 -075.51196098
111  10.42954635 -075.51168281
111  10.43189171 -075.51161933
111  10.43245213 -075.51259477
111  10.44451883 -075.51207092
111  10.44445773 -075.50918771
111  10.44671988 -075.50925518
111  10.44711891 -075.51016409
111  10.44731623 -075.51047895
111  10.44726855 -075.51052564
111  10.44819297 -075.51192691
111  10.44825662 -075.51195928
111  10.44835208 -075.51195727
111  10.45183096 -075.51182467
111  10.45471919 -075.51171001
113  10.45500928 -075.51170960
120 Linear Feature 117
111  10.44594168 -075.51072441 24
115  10.44593936 -075.51066891
120 Linear Feature 116
111  10.44558272 -075.51074214 24
115  10.44557994 -075.51068725
120 Linear Feature 115
111  10.44521998 -075.51076167 24
115  10.44521855 -075.51070549
120 Linear Feature 114
111  10.44509308 -075.51077614 24
111  10.44564318 -075.51074992 24
111  10.44630364 -075.51071837 24
115  10.44674731 -075.51069525
120 Linear Feature 113
111  10.44509312 -075.51078122 24
111  10.44600946 -075.51073966 24
115  10.44674713 -075.51070287
120 Linear Feature 112
111  10.44419024 -075.51374143 10
115  10.44419051 -075.51370247
120 Linear Feature 104
111  10.44465886 -075.51586947 1
115  10.44474458 -075.51580600
120 Linear Feature 103
111  10.44474610 -075.51586647 1
115  10.44465894 -075.51581024
120 Linear Feature 102
111  10.44474683 -075.51586693 1
111  10.44474523 -075.51580573 1
111  10.44465831 -075.51580958 1
111  10.44465818 -075.51587013 1
115  10.44474683 -075.51586693
120 Linear Feature 101
111  10.44468644 -075.51607139 22
115  10.44468065 -075.51589892
120 Linear Feature 100
111  10.44472220 -075.51607170 24
115  10.44471580 -075.51589691
120 Linear Feature 99
111  10.44465511 -075.51607619 24
115  10.44464988 -075.51589974
120 Linear Feature 96
111  10.44746297 -075.51366833 23
111  10.44748058 -075.51408571 23
111  10.44751554 -075.51497441 23
111  10.44754628 -075.51576072 23
111  10.44738084 -075.51576909 23
111  10.44686309 -075.51579085 23
115  10.44632682 -075.51581368
120 Linear Feature 95
111  10.44632698 -075.51582928 20
111  10.44755970 -075.51577519 20
111  10.44747520 -075.51366089 20
115  10.44746389 -075.51366157
120 Linear Feature 92
111  10.44647621 -075.51022022 23
111  10.44647889 -075.51026499 23
111  10.44638165 -075.51036003 23
113  10.44637617 -075.51022514 23
120 Linear Feature 91
111  10.44584006 -075.51091959 24
115  10.44579626 -075.51092141
120 Linear Feature 90
112  10.44584083 -075.51094225  10.44584134 -075.51094225 24
115  10.44579780 -075.51094433
120 Linear Feature 89
111  10.44584288 -075.51096413 24
115  10.44579908 -075.51096569
120 Linear Feature 88
111  10.44609573 -075.51091170 24
115  10.44605169 -075.51091314
120 Linear Feature 87
111  10.44609649 -075.51093020 24
115  10.44605257 -075.51093158
120 Linear Feature 86
111  10.44609756 -075.51094809 24
115  10.44605194 -075.51094970
120 Linear Feature 85
111  10.44528030 -075.51057513 1
111  10.44526882 -075.51057519 1
113  10.44527443 -075.51056479 1
120 Linear Feature 84
112  10.44534158 -075.51075707  10.44534143 -075.51075723 1
111  10.44533104 -075.51075754 1
113  10.44533662 -075.51076627 1
120 Linear Feature 83
111  10.44556078 -075.51074666 1
111  10.44555393 -075.51074687 1
113  10.44555752 -075.51075443 1
120 Linear Feature 82
111  10.44552142 -075.51056264 1
111  10.44551320 -075.51056275 1
113  10.44551757 -075.51055500 1
120 Linear Feature 81
111  10.44576614 -075.51055371 1
111  10.44575713 -075.51055383 1
113  10.44576136 -075.51054566 1
120 Linear Feature 80
111  10.44581504 -075.51073423 1
111  10.44580678 -075.51073432 1
113  10.44581083 -075.51074264 1
120 Linear Feature 79
111  10.44601019 -075.51053939 1
111  10.44600215 -075.51053983 1
113  10.44600608 -075.51053219 1
120 Linear Feature 78
111  10.44606985 -075.51072318 1
111  10.44606179 -075.51072358 1
113  10.44606630 -075.51073070 1
120 Linear Feature 77
111  10.44625478 -075.51054875 1
111  10.44624529 -075.51054905 1
113  10.44624986 -075.51053878 1
120 Linear Feature 76
111  10.44627758 -075.51074970 1
111  10.44626893 -075.51075022 1
113  10.44627387 -075.51075734 1
120 Linear Feature 71
111  10.44636164 -075.51130344 1
111  10.44635416 -075.51130366 1
113  10.44635749 -075.51129594 1
120 Linear Feature 70
111  10.44621127 -075.51129295 1
111  10.44620356 -075.51129330 1
113  10.44620740 -075.51128741 1
120 Linear Feature 69
111  10.44607520 -075.51128554 1
111  10.44606854 -075.51128577 1
113  10.44607158 -075.51127988 1
120 Linear Feature 68
111  10.44594020 -075.51127718 1
111  10.44593346 -075.51127763 1
113  10.44593615 -075.51127066 1
120 Linear Feature 67
111  10.44580392 -075.51126562 1
111  10.44579801 -075.51126591 1
113  10.44580060 -075.51125945 1
120 Linear Feature 66
111  10.44565915 -075.51126020 1
111  10.44565422 -075.51126043 1
113  10.44565634 -075.51125531 1
120 Linear Feature 65
111  10.44552465 -075.51126716 1
111  10.44551850 -075.51126748 1
113  10.44552101 -075.51126050 1
120 Linear Feature 64
111  10.44539082 -075.51127478 1
111  10.44538398 -075.51127487 1
113  10.44538724 -075.51126720 1
120 Linear Feature 61
111  10.44696885 -075.51570560 23
115  10.44718446 -075.51569648
120 Linear Feature 63
111  10.44525673 -075.51128300 1
111  10.44524956 -075.51128334 1
113  10.44525279 -075.51127588 1
120 Linear Feature 60
111  10.44658106 -075.51572192 23
115  10.44679688 -075.51571247
120 Linear Feature 59
111  10.44645192 -075.51426217 1
111  10.44645209 -075.51425655 1
113  10.44645747 -075.51425981 1
120 Linear Feature 58
111  10.44542422 -075.51402782 1
111  10.44542370 -075.51401868 1
113  10.44541645 -075.51402365 1
120 Linear Feature 57
111  10.44544342 -075.51453963 1
111  10.44544301 -075.51453002 1
113  10.44543684 -075.51453521 1
120 Linear Feature 51
111  10.44645509 -075.51439900 1
111  10.44645496 -075.51439156 1
113  10.44646207 -075.51439535 1
120 Linear Feature 52
111  10.44646357 -075.51382085 1
111  10.44646377 -075.51380938 1
113  10.44647259 -075.51381501 1
120 Linear Feature 49
111  10.44646564 -075.51450779 1
111  10.44646538 -075.51449765 1
113  10.44647402 -075.51450289 1
120 Linear Feature 48
111  10.44724373 -075.51504362 1
111  10.44723194 -075.51504414 1
113  10.44723894 -075.51505631 1
120 Linear Feature 47
111  10.44685430 -075.51506063 1
111  10.44684738 -075.51506080 1
113  10.44685141 -075.51506968 1
120 Linear Feature 46
111  10.44645623 -075.51481609 1
111  10.44644865 -075.51481617 1
113  10.44645260 -075.51482547 1
120 Linear Feature 45
111  10.44606144 -075.51467998 1
111  10.44605550 -075.51468032 1
113  10.44605913 -075.51468819 1
120 Linear Feature 40
111  10.44464343 -075.51579607 23
111  10.44462049 -075.51521276 23
111  10.44458168 -075.51421755 23
115  10.44456850 -075.51387268
120 Linear Feature 39
111  10.44463237 -075.51583088 20
111  10.44460246 -075.51508687 20
115  10.44454164 -075.51360507
120 Linear Feature 44
111  10.44579067 -075.51470703 1
111  10.44578391 -075.51470728 1
114  10.44578812 -075.51471667  10.44578812 -075.51471634 1
120 Linear Feature 42
111  10.44530968 -075.51511314 1
111  10.44529693 -075.51511384 1
113  10.44530415 -075.51512490 1
120 Linear Feature 43
111  10.44566795 -075.51471164 1
111  10.44565971 -075.51471206 1
113  10.44566408 -075.51471951 1
120 Linear Feature 41
111  10.44491969 -075.51514988 1
111  10.44490654 -075.51514998 1
113  10.44491277 -075.51515853 1
120 Linear Feature 38
111  10.44464381 -075.51386777 24
115  10.44455403 -075.51387288
120 Linear Feature 12
111  10.44467145 -075.51445228 23
111  10.44466678 -075.51432490 23
111  10.44494046 -075.51431514 23
113  10.44482166 -075.51444684 23
120 Linear Feature 11
111  10.44493783 -075.51427973 23
111  10.44466608 -075.51429012 23
111  10.44466023 -075.51414308 23
113  10.44479629 -075.51413655 23
120 Linear Feature 10
111  10.44496166 -075.51479497 23
111  10.44481564 -075.51464883 23
111  10.44468026 -075.51465640 23
113  10.44468593 -075.51480992 23
120 Linear Feature 9
111  10.44735912 -075.51568922 23
111  10.44735638 -075.51558251 23
111  10.44745466 -075.51547163 23
111  10.44746098 -075.51567218 23
111  10.44745175 -075.51568226 23
113  10.44744269 -075.51568583 23
120 Linear Feature 6
111  10.44617651 -075.51573911 23
111  10.44617387 -075.51564637 23
111  10.44626027 -075.51556001 23
111  10.44634418 -075.51563643 23
113  10.44634689 -075.51573220 23
120 Linear Feature 164
111  10.43202738 -075.51312102 10
111  10.43202929 -075.51312232 10
111  10.43202785 -075.51305986 10
111  10.43155338 -075.51263184 10
111  10.43142851 -075.51254591 10
111  10.43132987 -075.51249386 10
111  10.43127743 -075.51248243 10
111  10.43121749 -075.51248370 10
111  10.43114507 -075.51249132 10
111  10.43096152 -075.51253829 10
111  10.43090908 -075.51257511 10
111  10.43087537 -075.51263479 10
111  10.43081668 -075.51282396 10
111  10.43084415 -075.51293442 10
111  10.43089909 -075.51299409 10
111  10.43096277 -075.51302837 10
111  10.43148720 -075.51312486 10
115  10.43157460 -075.51314009
120 Linear Feature 37
111  10.44747038 -075.51516994 24
111  10.44745418 -075.51517057 24
113  10.44746423 -075.51519789 24
120 Linear Feature 36
111  10.44743277 -075.51421284 24
111  10.44741671 -075.51421423 24
113  10.44742645 -075.51423804 24
120 Linear Feature 35
111  10.44745585 -075.51406802 24
111  10.44744293 -075.51406865 24
113  10.44744929 -075.51404383 24
120 Linear Feature 34
111  10.44742048 -075.51394886 24
111  10.44740800 -075.51394921 24
113  10.44741484 -075.51397476 24
120 Linear Feature 33
111  10.44744587 -075.51384600 24
111  10.44743495 -075.51384672 24
113  10.44744018 -075.51381969 24
120 Linear Feature 32
111  10.44745921 -075.51385966 24
115  10.44742803 -075.51386091
120 Linear Feature 31
111  10.44740122 -075.51393598 24
115  10.44742850 -075.51393494
120 Linear Feature 30
111  10.44746819 -075.51408003 24
115  10.44743816 -075.51408128
120 Linear Feature 29
111  10.44741163 -075.51419968 24
115  10.44743850 -075.51419780
120 Linear Feature 28
111  10.44744829 -075.51463037 24
111  10.44743505 -075.51463124 24
113  10.44744217 -075.51465876 24
120 Linear Feature 27
111  10.44742807 -075.51461893 24
115  10.44744815 -075.51461820
120 Linear Feature 26
111  10.44749709 -075.51506491 24
111  10.44748394 -075.51506491 24
113  10.44748938 -075.51503605 24
120 Linear Feature 25
111  10.44750609 -075.51508201 24
115  10.44747642 -075.51508362
120 Linear Feature 24
111  10.44744847 -075.51515389 24
115  10.44747617 -075.51515239
120 Linear Feature 23
111  10.44751774 -075.51564082 24
111  10.44750564 -075.51564125 24
113  10.44751148 -075.51561127 24
120 Linear Feature 22
111  10.44752828 -075.51565342 24
115  10.44749980 -075.51565414
120 Linear Feature 21
111  10.44734663 -075.51571964 24
111  10.44734643 -075.51570566 24
113  10.44732289 -075.51571371 24
120 Linear Feature 20
111  10.44735810 -075.51569731 24
115  10.44735879 -075.51572507
120 Linear Feature 19
111  10.44578218 -075.51582207 24
115  10.44578135 -075.51579383
120 Linear Feature 18
111  10.44572586 -075.51576633 24
115  10.44572707 -075.51579484
120 Linear Feature 15
111  10.44465975 -075.51528551 24
111  10.44464522 -075.51528655 24
113  10.44465308 -075.51531557 24
120 Linear Feature 17
111  10.44470960 -075.51575071 24
111  10.44469463 -075.51575071 24
113  10.44470017 -075.51572485 24
120 Linear Feature 16
111  10.44471747 -075.51576877 24
115  10.44469146 -075.51576961
120 Linear Feature 14
111  10.44468236 -075.51518184 24
111  10.44467026 -075.51518213 24
113  10.44467724 -075.51515664 24
120 Linear Feature 13
111  10.44463487 -075.51527065 24
115  10.44466563 -075.51526955
120 Linear Feature 8
111  10.44696866 -075.51570695 23
111  10.44696649 -075.51560534 23
111  10.44705945 -075.51550081 23
111  10.44718178 -075.51561368 23
115  10.44718418 -075.51569698
120 Linear Feature 5
111  10.44588702 -075.51575102 23
111  10.44588327 -075.51562243 23
111  10.44593818 -075.51558248 23
111  10.44600152 -075.51563046 23
113  10.44600472 -075.51574658 23
120 Linear Feature 4
111  10.44540422 -075.51577309 23
111  10.44540266 -075.51567214 23
111  10.44550571 -075.51555614 23
111  10.44562594 -075.51566654 23
113  10.44562964 -075.51576299 23
120 Linear Feature 3
111  10.44484248 -075.51579632 23
111  10.44484149 -075.51570608 23
115  10.44472080 -075.51570799
120 Linear Feature 7
111  10.44658129 -075.51572285 23
111  10.44657924 -075.51561998 23
111  10.44667451 -075.51551710 23
111  10.44679405 -075.51561874 23
115  10.44679688 -075.51571247
120 Linear Feature 2
111  10.44501412 -075.51578916 23
111  10.44501343 -075.51568332 23
111  10.44511415 -075.51557646 23
111  10.44522895 -075.51568131 23
113  10.44523336 -075.51577994 23
120 Linear Feature 165
111  10.43087735 -075.51358059 10
111  10.43061214 -075.51359126 10
111  10.43057768 -075.51263905 10
111  10.43058667 -075.51254154 10
111  10.43062413 -075.51244708 10
111  10.43068706 -075.51235262 10
111  10.43074843 -075.51229083 10
111  10.43082358 -075.51224895 10
111  10.43091752 -075.51221809 10
111  10.43107793 -075.51221074 10
111  10.43128002 -075.51220362 10
111  10.43135286 -075.51221208 10
111  10.43142050 -075.51223536 10
111  10.43147044 -075.51225969 10
111  10.43153183 -075.51230096 10
111  10.43159323 -075.51236126 10
111  10.43179925 -075.51255382 10
111  10.43228277 -075.51299610 10
111  10.43232667 -075.51302994 10
111  10.43240013 -075.51307709 10
115  10.43243928 -075.51310280
120 Linear Feature 163
111  10.43068018 -075.51270530 10
111  10.43069887 -075.51305435 10
111  10.43071489 -075.51311984 10
111  10.43074610 -075.51318713 10
111  10.43081852 -075.51326966 10
111  10.43091467 -075.51333060 10
111  10.43102205 -075.51335726 10
111  10.43122183 -075.51334837 10
115  10.43161262 -075.51333415
120 Linear Feature 162
111  10.43057965 -075.51269495 12 103
115  10.43085409 -075.51268434
120 Linear Feature 161
111  10.43315871 -075.51327662 10
111  10.43254352 -075.51329937 10
111  10.43239263 -075.51325903 10
111  10.43229683 -075.51318269 10
111  10.43213630 -075.51302473 10
111  10.43162882 -075.51254031 10
111  10.43142428 -075.51235866 10
111  10.43131553 -075.51230864 10
111  10.43115760 -075.51230600 10
111  10.43101260 -075.51231127 10
111  10.43093752 -075.51231917 10
111  10.43086761 -075.51234286 10
112  10.43080547 -075.51238498  10.43080547 -075.51239025 10
111  10.43074382 -075.51244625 10
111  10.43070636 -075.51250973 10
111  10.43068638 -075.51259479 10
115  10.43067971 -075.51267567
120 Linear Feature 160
111  10.45147772 -075.51253115 10
111  10.45167551 -075.51253298 10
111  10.45170787 -075.51254029 10
111  10.45179777 -075.51257320 10
111  10.45218075 -075.51276884 10
111  10.45259970 -075.51275056 10
111  10.45264824 -075.51270485 10
111  10.45269140 -075.51261709 10
111  10.45270039 -075.51252750 10
111  10.45267881 -075.51238854 10
111  10.45261588 -075.51229712 10
111  10.45254755 -075.51223313 10
111  10.45248282 -075.51219473 10
111  10.45240371 -075.51218376 10
111  10.45231381 -075.51218559 10
111  10.45221312 -075.51221850 10
111  10.45213580 -075.51227701 10
111  10.45207827 -075.51235014 10
111  10.45201174 -075.51243425 10
111  10.45193442 -075.51248727 10
111  10.45188947 -075.51249641 10
115  10.45156583 -075.51252384
120 Linear Feature 159
111  10.45159389 -075.51273113 10
111  10.45195703 -075.51296285 10
111  10.45280982 -075.51292222 10
111  10.45277348 -075.51206519 10
111  10.45191619 -075.51209333 10
115  10.45156557 -075.51232340
120 Linear Feature 144
111  10.44635876 -075.51133850 1
115  10.44635801 -075.51130387
120 Linear Feature 143
111  10.44620867 -075.51132924 1
115  10.44620751 -075.51129233
120 Linear Feature 142
111  10.44607329 -075.51132029 1
115  10.44607204 -075.51128587
120 Linear Feature 141
111  10.44593822 -075.51131174 1
115  10.44593685 -075.51127759
120 Linear Feature 140
111  10.44580288 -075.51130267 1
115  10.44580085 -075.51126576
120 Linear Feature 139
111  10.44565814 -075.51129707 1
115  10.44565674 -075.51126052
120 Linear Feature 138
111  10.44552319 -075.51130198 1
115  10.44552155 -075.51126757
120 Linear Feature 137
111  10.44538838 -075.51130707 1
115  10.44538768 -075.51127545
120 Linear Feature 136
111  10.44525415 -075.51131294 1
115  10.44525353 -075.51128388
120 Linear Feature 135
111  10.44641802 -075.51381584 2
115  10.44646452 -075.51381527
120 Linear Feature 134
111  10.44635379 -075.51381901 2
115  10.44638063 -075.51381795
120 Linear Feature 133
111  10.44641116 -075.51425941 2
115  10.44645161 -075.51425936
120 Linear Feature 132
111  10.44634408 -075.51426531 2
115  10.44636761 -075.51426383
120 Linear Feature 131
111  10.44641334 -075.51439645 2
115  10.44645473 -075.51439560
120 Linear Feature 130
111  10.44634879 -075.51439807 2
115  10.44637282 -075.51439757
120 Linear Feature 129
111  10.44637249 -075.51462503 2
115  10.44637493 -075.51469803
120 Linear Feature 128
111  10.44578762 -075.51466537 2
115  10.44578783 -075.51470701
120 Linear Feature 127
111  10.44578329 -075.51457880 2
115  10.44578588 -075.51462656
120 Linear Feature 126
111  10.44530213 -075.51507075 1
115  10.44530332 -075.51511384
120 Linear Feature 125
111  10.44530078 -075.51500607 1
115  10.44530189 -075.51503136
120 Linear Feature 124
111  10.44600784 -075.51058270 1
115  10.44600667 -075.51053979
120 Linear Feature 123
111  10.44600953 -075.51063660 1
115  10.44600891 -075.51061313
120 Linear Feature 122
111  10.44576277 -075.51059437 1
115  10.44576193 -075.51055347
120 Linear Feature 121
111  10.44576471 -075.51064874 1
115  10.44576389 -075.51062492
120 Linear Feature 120
111  10.44551856 -075.51060687 1
115  10.44551755 -075.51056229
120 Linear Feature 119
111  10.44552176 -075.51066067 1
115  10.44552060 -075.51063691
120 Linear Feature 118
111  10.44527589 -075.51061909 1
115  10.44527455 -075.51057545
120 Linear Feature 117
111  10.44527743 -075.51067245 1
115  10.44527657 -075.51064809
120 Linear Feature 116
111  10.44533525 -075.51072535 1
115  10.44533608 -075.51075742
120 Linear Feature 115
111  10.44533340 -075.51067155 1
115  10.44533437 -075.51069426
120 Linear Feature 114
111  10.44555624 -075.51071536 1
115  10.44555733 -075.51074660
120 Linear Feature 113
111  10.44555400 -075.51066032 1
115  10.44555486 -075.51068433
120 Linear Feature 112
112  10.44581028 -075.51070242  10.44580987 -075.51070283 1
115  10.44581072 -075.51073408
120 Linear Feature 111
111  10.44580762 -075.51064825 1
115  10.44580871 -075.51067097
120 Linear Feature 110
111  10.44606473 -075.51068828 1
115  10.44606571 -075.51072413
120 Linear Feature 109
111  10.44606301 -075.51063539 1
115  10.44606367 -075.51066024
120 Linear Feature 108
111  10.44625150 -075.51059410 1
115  10.44624997 -075.51054876
120 Linear Feature 107
111  10.44625448 -075.51064969 1
115  10.44625356 -075.51062367
120 Linear Feature 106
111  10.44627198 -075.51071748 1
115  10.44627316 -075.51074937
120 Linear Feature 105
111  10.44627038 -075.51065796 1
115  10.44627131 -075.51068616
120 Linear Feature 104
111  10.44491224 -075.51510432 1
115  10.44491301 -075.51515020
120 Linear Feature 103
111  10.44548732 -075.51453267 1
115  10.44544331 -075.51453477
120 Linear Feature 102
111  10.44555268 -075.51452955 1
115  10.44552821 -075.51453080
120 Linear Feature 101
111  10.44546816 -075.51402147 1
115  10.44542421 -075.51402351
120 Linear Feature 100
111  10.44553299 -075.51401901 1
115  10.44550928 -075.51401934
120 Linear Feature 99
111  10.44639831 -075.51408484 1
115  10.44643988 -075.51408400
120 Linear Feature 98
111  10.44633630 -075.51408679 1
115  10.44636114 -075.51408615
120 Linear Feature 97
111  10.44642359 -075.51450397 1
115  10.44646494 -075.51450311
120 Linear Feature 96
111  10.44636077 -075.51450631 1
115  10.44638933 -075.51450510
120 Linear Feature 95
111  10.44723715 -075.51500769 1
115  10.44723838 -075.51504377
120 Linear Feature 94
111  10.44685038 -075.51501828 1
115  10.44685109 -075.51506044
120 Linear Feature 93
111  10.44684778 -075.51495242 1
115  10.44684854 -075.51498084
120 Linear Feature 73
111  10.44628893 -075.51097851 10
115  10.44628090 -075.51082392
120 Linear Feature 74
111  10.44635380 -075.51126029 10
115  10.44634485 -075.51104092
120 Linear Feature 86
111  10.44624706 -075.51050188 10
115  10.44623733 -075.51026568
120 Linear Feature 85
111  10.44600434 -075.51051585 10
115  10.44599348 -075.51027647
120 Linear Feature 84
111  10.44527390 -075.51054878 10
115  10.44526326 -075.51031177
120 Linear Feature 83
111  10.44551705 -075.51053965 10
115  10.44550721 -075.51030146
120 Linear Feature 82
111  10.44576049 -075.51052732 10
115  10.44575078 -075.51028939
120 Linear Feature 72
111  10.44608183 -075.51103227 10
115  10.44606894 -075.51075393
120 Linear Feature 71
111  10.44582760 -075.51104491 10
115  10.44581264 -075.51076809
120 Linear Feature 70
111  10.44557047 -075.51102035 10
115  10.44555854 -075.51077705
120 Linear Feature 69
111  10.44535164 -075.51102955 10
115  10.44533988 -075.51079702
120 Linear Feature 68
111  10.44521609 -075.51082186 2
115  10.44522601 -075.51106691
120 Linear Feature 66
111  10.44538466 -075.51122406 10
115  10.44538001 -075.51109639
120 Linear Feature 67
111  10.44524970 -075.51123818 10
115  10.44524495 -075.51108174
120 Linear Feature 65
111  10.44551895 -075.51122222 10
115  10.44551533 -075.51108917
120 Linear Feature 64
111  10.44565383 -075.51121181 10
115  10.44564901 -075.51107649
120 Linear Feature 63
111  10.44579835 -075.51122957 10
115  10.44579452 -075.51113448
120 Linear Feature 62
111  10.44593296 -075.51122887 10
115  10.44593045 -075.51112886
120 Linear Feature 61
111  10.44607083 -075.51124400 10
115  10.44606839 -075.51111253
120 Linear Feature 60
111  10.44620562 -075.51125138 10
115  10.44620102 -075.51111617
120 Linear Feature 50
111  10.44672854 -075.51020254 24
111  10.44678162 -075.51020246 24
111  10.44694821 -075.51019882 24
111  10.44702174 -075.51019781 24
111  10.44704889 -075.51020434 24
111  10.44706862 -075.51021889 24
111  10.44710662 -075.51026355 24
111  10.44720039 -075.51041259 24
115  10.44726405 -075.51051496
120 Linear Feature 72
111  10.44386742 -075.51371425 25
111  10.44353710 -075.51367929 25
115  10.44297595 -075.51373049
120 Linear Feature 71
111  10.44428392 -075.51369148 24
111  10.44420919 -075.51384184 24
111  10.44411311 -075.51384416 24
111  10.44411438 -075.51390052 24
111  10.44406685 -075.51390069 24
111  10.44406490 -075.51384748 24
111  10.44393039 -075.51385737 24
111  10.44393075 -075.51379143 24
111  10.44392739 -075.51376735 24
111  10.44391442 -075.51374925 24
111  10.44387500 -075.51374159 24
111  10.44374432 -075.51373236 24
111  10.44373135 -075.51373565 24
111  10.44371886 -075.51375542 24
111  10.44372097 -075.51377998 24
115  10.44372371 -075.51380796
120 Linear Feature 70
111  10.44296949 -075.51375341 24
111  10.44307749 -075.51374345 24
111  10.44311316 -075.51375911 24
111  10.44312290 -075.51380159 24
111  10.44317501 -075.51379906 24
111  10.44317113 -075.51376427 24
111  10.44318341 -075.51374180 24
111  10.44319911 -075.51373413 24
111  10.44331337 -075.51372644 24
112  10.44333731 -075.51373104  10.44333672 -075.51373165 24
111  10.44334600 -075.51374471 24
111  10.44335174 -075.51377843 24
111  10.44340186 -075.51377362 24
111  10.44340386 -075.51373925 24
111  10.44341691 -075.51371739 24
111  10.44342398 -075.51371460 24
111  10.44352637 -075.51370486 24
111  10.44365489 -075.51372227 24
111  10.44367353 -075.51373569 24
111  10.44368225 -075.51377686 24
115  10.44368133 -075.51380708
120 Linear Feature 69
111  10.44428508 -075.51369190 24
111  10.44426286 -075.51367793 24
111  10.44425565 -075.51360846 24
111  10.44424557 -075.51353280 24
111  10.44360550 -075.51355565 24
111  10.44361556 -075.51364101 24
111  10.44358578 -075.51366014 24
111  10.44352398 -075.51365331 24
111  10.44338699 -075.51366796 24
115  10.44296212 -075.51370417
120 Linear Feature 49
111  10.44698393 -075.51014745 24
111  10.44700515 -075.51014826 24
111  10.44703405 -075.51015080 24
111  10.44707023 -075.51016251 24
111  10.44709244 -075.51017254 24
111  10.44712740 -075.51020767 24
111  10.44717839 -075.51028294 24
115  10.44730497 -075.51047602
120 Linear Feature 237
111  10.44677393 -075.51017290 25
111  10.44526932 -075.51024745 25
111  10.44518778 -075.51025359 25
111  10.44515557 -075.51026076 25
111  10.44512336 -075.51028020 25
111  10.44510827 -075.51031910 25
111  10.44510122 -075.51037641 25
111  10.44510223 -075.51042759 25
115  10.44514595 -075.51139024
120 Linear Feature 236
111  10.44672858 -075.51020241 24
111  10.44552940 -075.51026036 24
111  10.44522541 -075.51027403 24
111  10.44520374 -075.51027673 24
111  10.44515535 -075.51030859 24
111  10.44513524 -075.51034170 24
111  10.44512840 -075.51037344 24
115  10.44517249 -075.51139115
120 Linear Feature 235
111  10.44517358 -075.51139071 24
111  10.44512134 -075.51139438 24
111  10.44506626 -075.51023145 24
111  10.44674788 -075.51014930 24
115  10.44698435 -075.51014807
120 Linear Feature 226
111  10.44613748 -075.51097834 32
111  10.44612175 -075.51099462 32
111  10.44610967 -075.51100348 32
111  10.44608917 -075.51100777 32
111  10.44606276 -075.51100862 32
111  10.44604085 -075.51100177 32
111  10.44602568 -075.51099063 32
111  10.44601388 -075.51097634 32
111  10.44600208 -075.51095549 32
111  10.44599857 -075.51092739 32
111  10.44600498 -075.51089481 32
111  10.44601779 -075.51087882 32
111  10.44603760 -075.51086046 32
111  10.44606148 -075.51085216 32
111  10.44608536 -075.51084979 32
111  10.44611358 -075.51085682 32
111  10.44613734 -075.51087820 32
111  10.44615042 -075.51090399 32
111  10.44615410 -075.51093864 32
113  10.44614833 -075.51096144 32
120 Linear Feature 221
111  10.44541129 -075.51052230 32
111  10.44537558 -075.51052376 32
111  10.44536552 -075.51027459 32
113  10.44540192 -075.51027283 32
120 Linear Feature 220
111  10.44565050 -075.51051023 32
111  10.44562197 -075.51051168 32
111  10.44561252 -075.51026237 32
113  10.44564117 -075.51026100 32
120 Linear Feature 219
111  10.44589655 -075.51049825 32
111  10.44586956 -075.51049948 32
111  10.44585963 -075.51025067 32
113  10.44588500 -075.51024945 32
120 Linear Feature 217
111  10.44614963 -075.51048607 32
111  10.44611216 -075.51048764 32
111  10.44609653 -075.51023910 32
113  10.44613404 -075.51023741 32
120 Linear Feature 216
111  10.44638486 -075.51053040 82
115  10.44637406 -075.51022447
120 Linear Feature 215
111  10.44634784 -075.51048886 82
111  10.44634424 -075.51040032 82
111  10.44648190 -075.51026568 82
115  10.44647921 -075.51021896
120 Linear Feature 214
111  10.44532388 -075.51106459 32
111  10.44532998 -075.51120973 32
111  10.44530169 -075.51121096 32
115  10.44529593 -075.51106568
120 Linear Feature 213
111  10.44546011 -075.51105721 32
111  10.44546625 -075.51120497 32
111  10.44543876 -075.51120606 32
115  10.44543275 -075.51105820
120 Linear Feature 212
111  10.44544202 -075.51105774 32
115  10.44516426 -075.51107094
120 Linear Feature 211
111  10.44556990 -075.51105155 32
111  10.44544202 -075.51105774 32
111  10.44543196 -075.51081075 32
111  10.44545984 -075.51080979 32
115  10.44547098 -075.51105705
120 Linear Feature 210
111  10.44566832 -075.51104751 32
111  10.44556789 -075.51105175 32
111  10.44557128 -075.51120008 32
111  10.44559932 -075.51119897 32
115  10.44559544 -075.51105140
120 Linear Feature 209
111  10.44571009 -075.51104599 32
111  10.44566832 -075.51104751 32
111  10.44565739 -075.51080043 32
111  10.44568502 -075.51079909 32
115  10.44569484 -075.51104733
120 Linear Feature 207
111  10.44627281 -075.51101182 32
111  10.44628434 -075.51123109 32
111  10.44625764 -075.51122912 32
111  10.44625163 -075.51108370 32
111  10.44614600 -075.51108844 32
111  10.44615153 -075.51122260 32
111  10.44612338 -075.51122043 32
111  10.44611687 -075.51108992 32
111  10.44601105 -075.51109485 32
111  10.44601445 -075.51121367 32
111  10.44598726 -075.51121170 32
111  10.44598484 -075.51109880 32
111  10.44587610 -075.51110127 32
111  10.44587934 -075.51120493 32
111  10.44585070 -075.51120345 32
111  10.44584649 -075.51110423 32
111  10.44573485 -075.51110966 32
111  10.44573734 -075.51119555 32
111  10.44571744 -075.51119457 32
111  10.44571009 -075.51104599 32
111  10.44572925 -075.51104553 32
111  10.44573145 -075.51108103 32
111  10.44592125 -075.51107116 32
111  10.44590931 -075.51078725 32
111  10.44597367 -075.51078408 32
111  10.44598629 -075.51106820 32
111  10.44624989 -075.51105606 32
115  10.44624902 -075.51101246
120 Linear Feature 206
111  10.44642280 -075.51100512 32
111  10.44621059 -075.51101309 32
111  10.44620211 -075.51079491 32
111  10.44622948 -075.51081472 32
115  10.44623631 -075.51101194
120 Linear Feature 205
111  10.44674333 -075.51063084 82
111  10.44648818 -075.51064450 82
111  10.44634021 -075.51047971 82
115  10.44514114 -075.51053773
120 Linear Feature 204
111  10.44645221 -075.51252575 3 102
111  10.44652468 -075.51249038 3 102
111  10.44657687 -075.51243290 3 102
111  10.44660151 -075.51235478 3 102
111  10.44660066 -075.51220670 3 102
111  10.44657680 -075.51192156 3 102
111  10.44653996 -075.51172328 3 102
111  10.44651097 -075.51160537 3 102
111  10.44645154 -075.51151399 3
111  10.44638341 -075.51145061 3
111  10.44628340 -075.51139166 3
111  10.44620948 -075.51137397 3
111  10.44602540 -075.51135776 3
111  10.44590655 -075.51135481 3
111  10.44576595 -075.51135923 3
111  10.44517457 -075.51138871 3
111  10.44513191 -075.51037596 3
111  10.44513996 -075.51034218 3
111  10.44515707 -075.51031250 3
111  10.44517620 -075.51029817 3
111  10.44520438 -075.51028077 3
111  10.44524867 -075.51027667 3
111  10.44672743 -075.51020455 3
111  10.44678180 -075.51144789 3 102
111  10.44678695 -075.51165379 3 102
111  10.44678009 -075.51191411 3 102
111  10.44680260 -075.51233119 3 102
111  10.44682348 -075.51240370 3 102
111  10.44685826 -075.51244969 3 102
111  10.44690348 -075.51247445 3 102
115  10.44699393 -075.51250629
120 Linear Feature 203
111  10.44515404 -075.51082335 82
111  10.44609549 -075.51077503 82
111  10.44618774 -075.51078121 82
111  10.44640587 -075.51094092 82
111  10.44644094 -075.51106612 82
115  10.44645010 -075.51124613
120 Linear Feature 200
111  10.44654305 -075.51029514 60
115  10.44654082 -075.51025142
120 Linear Feature 199
111  10.44661153 -075.51085938 10
111  10.44657808 -075.51079674 10
111  10.44656415 -075.51074414 10
115  10.44655960 -075.51065791
120 Linear Feature 198
111  10.44665288 -075.51100944 10 101
111  10.44664646 -075.51095898 10 101
111  10.44663869 -075.51091554 10 101
115  10.44662741 -075.51089161
120 Linear Feature 196
111  10.44645436 -075.51079483 2
115  10.44645144 -075.51076817
120 Linear Feature 195
111  10.44645144 -075.51076817 2
115  10.44643434 -075.51040097
120 Linear Feature 194
111  10.44663419 -075.51083938 2
115  10.44661243 -075.51039165
120 Linear Feature 193
111  10.44668559 -075.51090821 2
111  10.44666340 -075.51039721 2
111  10.44663824 -075.51036548 2
111  10.44658992 -075.51034399 2
111  10.44654563 -075.51034603 2
111  10.44652047 -075.51035422 2
111  10.44650034 -075.51037265 2
111  10.44647719 -075.51039619 2
111  10.44646813 -075.51042485 2
111  10.44646511 -075.51046681 2
111  10.44647016 -075.51049183 2
111  10.44647946 -075.51051076 2
111  10.44648755 -075.51051898 2
111  10.44645762 -075.51055025 2
111  10.44645843 -075.51057945 2
111  10.44647380 -075.51060660 2
111  10.44649382 -075.51062490 2
115  10.44655991 -075.51066422
120 Linear Feature 192
111  10.44665539 -075.51102762 2
111  10.44667552 -075.51096962 2
111  10.44668391 -075.51093294 2
115  10.44668559 -075.51090821
120 Linear Feature 191
111  10.44666750 -075.51139422 2
111  10.44666217 -075.51135370 2
111  10.44665476 -075.51132490 2
111  10.44662143 -075.51123551 2
111  10.44656103 -075.51116216 2
111  10.44650567 -075.51113231 2
111  10.44647967 -075.51111951 2
111  10.44641844 -075.51110757 2
111  10.44624480 -075.51111610 2
115  10.44569666 -075.51114324
120 Linear Feature 189
111  10.44651362 -075.51134892 10 101
111  10.44569417 -075.51129639 10 101
115  10.44525443 -075.51131234
120 Linear Feature 188
111  10.44666955 -075.51145642 10 101
111  10.44666868 -075.51143753 10 101
111  10.44665810 -075.51142052 10 101
111  10.44663868 -075.51138893 10 101
111  10.44662364 -075.51137314 10 101
111  10.44658383 -075.51135586 10 101
111  10.44655811 -075.51135093 10 101
115  10.44651270 -075.51134913
120 Linear Feature 187
111  10.44656369 -075.51087687 10 101
111  10.44627509 -075.51066034 10 101
111  10.44624465 -075.51064560 10 101
111  10.44620117 -075.51063086 10 101
111  10.44614609 -075.51063086 10 101
115  10.44523918 -075.51067516
120 Linear Feature 186
111  10.44667064 -075.51148142 10 101
111  10.44665263 -075.51100773 10 101
111  10.44663814 -075.51097383 10 101
115  10.44656369 -075.51087687
120 Linear Feature 185
111  10.44668554 -075.51191360 11
115  10.44667064 -075.51148142
120 Linear Feature 223
111  10.44587101 -075.51100383 32
111  10.44584529 -075.51101617 32
112  10.44581519 -075.51102062  10.44581422 -075.51101963 32
111  10.44577927 -075.51100778 32
111  10.44575986 -075.51099051 32
111  10.44574432 -075.51096188 32
111  10.44574286 -075.51093374 32
111  10.44574820 -075.51091202 32
111  10.44576228 -075.51088981 32
111  10.44577879 -075.51087599 32
111  10.44579578 -075.51086513 32
111  10.44582085 -075.51086053 32
111  10.44584933 -075.51086373 32
111  10.44587085 -075.51087829 32
111  10.44588995 -075.51090166 32
111  10.44589820 -075.51092387 32
111  10.44590063 -075.51095201 32
111  10.44589432 -075.51097372 32
113  10.44588170 -075.51099297 32
120 Linear Feature 182
111  10.44513624 -075.51403362 60
115  10.44522767 -075.51402935
120 Linear Feature 181
111  10.44515218 -075.51454538 60
115  10.44527147 -075.51454222
120 Linear Feature 180
111  10.44588464 -075.51575284 32
111  10.44588032 -075.51562176 32
115  10.44593851 -075.51557849
120 Linear Feature 179
111  10.44492586 -075.51380119 31
111  10.44480528 -075.51394098 31
115  10.44465033 -075.51394608
120 Linear Feature 178
111  10.44494439 -075.51431342 31
111  10.44482222 -075.51444874 31
115  10.44467011 -075.51445350
120 Linear Feature 177
111  10.44465891 -075.51414084 32
111  10.44479767 -075.51413387 32
111  10.44494304 -075.51428198 32
111  10.44520224 -075.51427295 32
111  10.44520449 -075.51430233 32
111  10.44466730 -075.51432320 32
111  10.44466606 -075.51429266 32
115  10.44494304 -075.51428198
120 Linear Feature 176
111  10.44496685 -075.51479724 32
111  10.44481670 -075.51464633 32
115  10.44467885 -075.51465416
120 Linear Feature 175
111  10.44468461 -075.51481320 82
111  10.44503246 -075.51479426 82
111  10.44523683 -075.51464807 82
111  10.44518175 -075.51400694 82
111  10.44512378 -075.51379175 82
115  10.44464587 -075.51381000
120 Linear Feature 174
111  10.44477712 -075.51404762 60
115  10.44469168 -075.51405205
120 Linear Feature 173
111  10.44479566 -075.51456001 60
115  10.44471208 -075.51456229
120 Linear Feature 172
111  10.44695349 -075.51406335 60
115  10.44667994 -075.51407360
120 Linear Feature 171
111  10.44696861 -075.51448206 60
115  10.44669600 -075.51449288
120 Linear Feature 166
111  10.44531160 -075.51565499 60
115  10.44531159 -075.51573919
120 Linear Feature 165
111  10.44570547 -075.51563031 60
115  10.44570828 -075.51572309
120 Linear Feature 164
111  10.44609804 -075.51561420 60
115  10.44610005 -075.51570551
120 Linear Feature 163
111  10.44648778 -075.51560643 60
115  10.44648974 -075.51568897
120 Linear Feature 162
111  10.44687540 -075.51560150 60
115  10.44687775 -075.51567791
120 Linear Feature 161
111  10.44726487 -075.51566056 60
115  10.44726163 -075.51557992
120 Linear Feature 159
111  10.44579701 -075.51501448 2
115  10.44582116 -075.51571580
120 Linear Feature 135
111  10.44712812 -075.51398980 32
115  10.44726444 -075.51413624
120 Linear Feature 134
111  10.44674458 -075.51400276 32
111  10.44719615 -075.51398706 32
111  10.44730586 -075.51384581 32
111  10.44739142 -075.51384274 32
111  10.44738672 -075.51371746 32
111  10.44729378 -075.51372197 32
111  10.44721225 -075.51369843 32
111  10.44718695 -075.51368822 32
115  10.44684591 -075.51369983
120 Linear Feature 133
111  10.44715711 -075.51471624 32
111  10.44728464 -075.51455327 32
111  10.44741848 -075.51455018 32
111  10.44741211 -075.51437983 32
111  10.44727345 -075.51438126 32
111  10.44713016 -075.51423341 32
111  10.44672798 -075.51424949 32
111  10.44672243 -075.51431564 32
111  10.44713607 -075.51429800 32
111  10.44726444 -075.51413624 32
111  10.44740188 -075.51413130 32
111  10.44739523 -075.51396044 32
111  10.44725530 -075.51396336 32
111  10.44711961 -075.51381292 32
115  10.44679614 -075.51382394
120 Linear Feature 201
111  10.44645145 -075.51124462 82
111  10.44570773 -075.51119687 82
115  10.44517044 -075.51121768
120 Linear Feature 132
111  10.44683198 -075.51343522 82
111  10.44684394 -075.51369997 82
111  10.44674621 -075.51394898 82
111  10.44672075 -075.51432543 82
111  10.44671234 -075.51448931 82
111  10.44707567 -075.51472206 82
115  10.44742515 -075.51470512
120 Linear Feature 126
111  10.44472499 -075.51526205 24
115  10.44472431 -075.51523461
120 Linear Feature 125
111  10.44743810 -075.51512318 25
111  10.44720355 -075.51512878 25
111  10.44690521 -075.51514106 25
111  10.44666242 -075.51515089 25
111  10.44664831 -075.51514395 25
111  10.44662987 -075.51513062 25
111  10.44658861 -075.51509459 25
111  10.44655851 -075.51507584 25
111  10.44654006 -075.51506991 25
111  10.44648133 -075.51506942 25
111  10.44618116 -075.51508203 25
111  10.44616438 -075.51507776 25
111  10.44614621 -075.51506923 25
111  10.44611965 -075.51504293 25
111  10.44608749 -075.51502019 25
111  10.44605426 -075.51500350 25
111  10.44603504 -075.51499639 25
111  10.44573110 -075.51500269 25
111  10.44568253 -075.51501348 25
111  10.44564758 -075.51503599 25
111  10.44562486 -075.51506027 25
111  10.44558700 -075.51511595 25
111  10.44553283 -075.51518703 25
111  10.44551826 -075.51519651 25
111  10.44549496 -075.51520065 25
111  10.44545069 -075.51520302 25
111  10.44475949 -075.51523006 25
115  10.44473336 -075.51523216
120 Linear Feature 124
111  10.44746603 -075.51366155 24
115  10.44738670 -075.51366518
120 Linear Feature 123
111  10.44460174 -075.51360493 25
111  10.44463528 -075.51448059 25
111  10.44466883 -075.51535017 25
111  10.44469283 -075.51581035 25
111  10.44469909 -075.51582877 25
111  10.44470958 -075.51583595 25
111  10.44472822 -075.51583832 25
111  10.44477074 -075.51583713 25
111  10.44742601 -075.51572286 25
111  10.44745638 -075.51571966 25
111  10.44747191 -075.51571225 25
111  10.44748939 -075.51569399 25
111  10.44749570 -075.51567474 25
111  10.44749715 -075.51563673 25
111  10.44744830 -075.51438704 25
115  10.44742000 -075.51366755
120 Linear Feature 121
111  10.44625758 -075.51457843 2
111  10.44630418 -075.51458386 2
111  10.44635418 -075.51458238 2
111  10.44649814 -075.51456812 2
111  10.44667683 -075.51455352 2
111  10.44670099 -075.51454247 2
111  10.44672515 -075.51451913 2
115  10.44728902 -075.51390509
120 Linear Feature 120
111  10.44717557 -075.51501094 2
111  10.44715344 -075.51511637 2
111  10.44713743 -075.51514373 2
111  10.44709968 -075.51519491 2
111  10.44703761 -075.51524012 2
111  10.44702042 -075.51524481 2
115  10.44703592 -075.51566733
120 Linear Feature 119
111  10.44716276 -075.51494341 2
115  10.44717149 -075.51496770
120 Linear Feature 118
111  10.44634714 -075.51440890 2
111  10.44639258 -075.51453756 2
111  10.44646737 -075.51463138 2
111  10.44657435 -075.51473484 2
111  10.44671225 -075.51483719 2
111  10.44677666 -075.51487404 2
111  10.44689846 -075.51491293 2
111  10.44703233 -075.51494262 2
115  10.44709204 -075.51494360
120 Linear Feature 169
111  10.44729948 -075.51405001 60
115  10.44735982 -075.51404885
120 Linear Feature 168
111  10.44731331 -075.51446889 60
115  10.44737669 -075.51446728
120 Linear Feature 167
111  10.44492316 -075.51566324 60
115  10.44492650 -075.51575329
120 Linear Feature 117
111  10.44501552 -075.51509666 2
115  10.44503849 -075.51574905
120 Linear Feature 116
111  10.44568005 -075.51458554 2
111  10.44550289 -075.51460191 2
111  10.44521487 -075.51462478 2
111  10.44515448 -075.51463214 2
112  10.44510254 -075.51465794  10.44510133 -075.51465917 2
111  10.44506027 -075.51469356 2
111  10.44502765 -075.51475865 2
111  10.44501195 -075.51483971 2
111  10.44501316 -075.51492201 2
111  10.44501361 -075.51500286 2
115  10.44501430 -075.51505835
120 Linear Feature 115
111  10.44496132 -075.51414729 2
111  10.44496384 -075.51425646 2
111  10.44496971 -075.51441767 2
115  10.44498061 -075.51462493
120 Linear Feature 114
111  10.44509583 -075.51374265 2
111  10.44505946 -075.51376944 2
111  10.44502591 -075.51380952 2
111  10.44499403 -075.51386752 2
111  10.44496551 -075.51393490 2
111  10.44495713 -075.51401167 2
115  10.44495880 -075.51410464
120 Linear Feature 110
111  10.44514681 -075.51370560 10
115  10.44512488 -075.51372215
120 Linear Feature 109
111  10.44546099 -075.51351729 11
111  10.44544563 -075.51355703 11
111  10.44541628 -075.51360750 11
111  10.44538364 -075.51363987 11
111  10.44535175 -075.51366640 11
111  10.44532990 -075.51367085 11
111  10.44525536 -075.51368078 11
111  10.44519798 -075.51368794 11
111  10.44516953 -075.51369139 11
115  10.44514681 -075.51370560
120 Linear Feature 108
111  10.44547902 -075.51351706 11
111  10.44550801 -075.51357724 11
111  10.44551525 -075.51363742 11
111  10.44552250 -075.51374919 11
111  10.44552733 -075.51386219 11
115  10.44552979 -075.51394783
120 Linear Feature 107
111  10.44648411 -075.51347734 11
111  10.44647731 -075.51352950 11
111  10.44645110 -075.51361094 11
111  10.44643265 -075.51365438 11
111  10.44641518 -075.51367906 11
111  10.44640013 -075.51370226 11
111  10.44636650 -075.51377713 11
115  10.44635252 -075.51381907
120 Linear Feature 106
111  10.44597597 -075.51456633 10 101
111  10.44604293 -075.51456345 10 101
111  10.44612400 -075.51455999 10 101
111  10.44615992 -075.51456246 10 101
111  10.44623856 -075.51457381 10 101
111  10.44631174 -075.51459179 10 101
111  10.44635648 -075.51461228 10 101
111  10.44640366 -075.51464664 10 101
111  10.44643395 -075.51467507 10 101
111  10.44644350 -075.51468364 10 101
115  10.44645450 -075.51469412
120 Linear Feature 105
111  10.44555000 -075.51471656 10 101
111  10.44555809 -075.51468817 10 101
111  10.44557386 -075.51464910 10 101
111  10.44559652 -075.51461907 10 101
111  10.44561876 -075.51460138 10 101
111  10.44565517 -075.51459028 10 101
111  10.44569101 -075.51458368 10 101
111  10.44578663 -075.51457727 10 101
111  10.44588517 -075.51457283 10 101
115  10.44592194 -075.51457038
120 Linear Feature 104
111  10.44554335 -075.51425346 10 101
111  10.44554578 -075.51433778 10 101
111  10.44555859 -075.51466395 10 101
111  10.44555439 -075.51468783 10 101
111  10.44554600 -075.51474157 10 101
111  10.44551497 -075.51482259 10 101
111  10.44548729 -075.51486695 10 101
111  10.44543696 -075.51492409 10 101
111  10.44539334 -075.51496077 10 101
111  10.44534218 -075.51499659 10 101
111  10.44530275 -075.51500598 10 101
111  10.44491147 -075.51503639 10 101
115  10.44491280 -075.51506221
120 Linear Feature 103
111  10.44633817 -075.51419089 10 101
111  10.44633429 -075.51423679 10 101
111  10.44632652 -075.51426888 10 101
111  10.44631584 -075.51430442 10 101
111  10.44629105 -075.51436324 10 101
111  10.44625838 -075.51440997 10 101
111  10.44622401 -075.51444729 10 101
111  10.44617741 -075.51448697 10 101
111  10.44614071 -075.51451185 10 101
111  10.44608945 -075.51453944 10 101
111  10.44604048 -075.51455933 10 101
111  10.44600718 -075.51456356 10 101
111  10.44597120 -075.51456694 10 101
111  10.44592194 -075.51457038 10 101
111  10.44588033 -075.51456516 10 101
111  10.44579762 -075.51454206 10 101
111  10.44572572 -075.51450966 10 101
111  10.44565162 -075.51445564 10 101
111  10.44559780 -075.51439025 10 101
111  10.44555027 -075.51429074 10 101
111  10.44554328 -075.51425306 10 101
115  10.44552995 -075.51394787
120 Linear Feature 102
111  10.44635250 -075.51381885 10 101
111  10.44633237 -075.51389459 10 101
111  10.44633036 -075.51396828 10 101
111  10.44634919 -075.51443051 10 101
111  10.44635503 -075.51448784 10 101
111  10.44637113 -075.51455437 10 101
111  10.44640938 -075.51463523 10 101
111  10.44648085 -075.51472837 10 101
111  10.44666950 -075.51490189 10 101
111  10.44672926 -075.51493532 10 101
111  10.44676700 -075.51494669 10 101
111  10.44682152 -075.51495238 10 101
111  10.44723481 -075.51493933 10 101
115  10.44723575 -075.51496585
120 Linear Feature 95
111  10.44547418 -075.51344515 10 105
111  10.44547382 -075.51323593 10 105
111  10.44548774 -075.51314042 10 105
111  10.44555383 -075.51298478 10 105
111  10.44563036 -075.51288397 10 105
112  10.44569460 -075.51282511  10.44570366 -075.51281999 10 105
111  10.44576506 -075.51279850 10 105
111  10.44598147 -075.51277086 10 105
111  10.44611131 -075.51277905 10 105
111  10.44621600 -075.51282102 10 105
111  10.44631967 -075.51290085 10 105
111  10.44638711 -075.51297864 10 105
111  10.44641731 -075.51303493 10 105
111  10.44646160 -075.51313217 10 105
111  10.44647569 -075.51320382 10 105
111  10.44648072 -075.51327546 10 105
115  10.44648192 -075.51340395
120 Linear Feature 75
111  10.44748459 -075.51290042 19
115  10.44748673 -075.51297342
120 Linear Feature 74
111  10.44736761 -075.51290535 19
115  10.44737052 -075.51297643
120 Linear Feature 73
111  10.44725140 -075.51290933 19
115  10.44725423 -075.51298090
120 Linear Feature 72
111  10.44713548 -075.51291509 19
115  10.44713851 -075.51298707
120 Linear Feature 71
111  10.44701897 -075.51291825 19
115  10.44702065 -075.51299109
120 Linear Feature 70
111  10.44687523 -075.51292351 19
115  10.44687669 -075.51299854
120 Linear Feature 69
111  10.44674484 -075.51297730 19
115  10.44678543 -075.51303260
120 Linear Feature 68
111  10.44666569 -075.51309611 19
115  10.44672524 -075.51312490
120 Linear Feature 67
111  10.44663389 -075.51324088 19
115  10.44670631 -075.51323892
120 Linear Feature 66
111  10.44663703 -075.51338586 19
115  10.44670922 -075.51338108
120 Linear Feature 65
111  10.44564464 -075.51341056 19
115  10.44571046 -075.51340700
120 Linear Feature 64
111  10.44584561 -075.51344847 19
115  10.44584327 -075.51337443
120 Linear Feature 63
111  10.44598074 -075.51343840 19
115  10.44597842 -075.51337443
120 Linear Feature 62
111  10.44611372 -075.51342524 19
115  10.44611008 -075.51335531
120 Linear Feature 61
111  10.44631397 -075.51338211 19
115  10.44624601 -075.51338261
120 Linear Feature 60
111  10.44630232 -075.51324588 19
115  10.44624990 -075.51326612
120 Linear Feature 59
111  10.44625329 -075.51307904 19
115  10.44619650 -075.51311113
120 Linear Feature 58
111  10.44615670 -075.51298279 19
115  10.44611495 -075.51303758
120 Linear Feature 57
111  10.44601738 -075.51296699 19
115  10.44601107 -075.51304005
120 Linear Feature 56
111  10.44588001 -075.51297489 19
115  10.44589991 -075.51304153
120 Linear Feature 55
111  10.44575525 -075.51302327 19
115  10.44579312 -075.51308497
120 Linear Feature 54
111  10.44567468 -075.51313679 19
115  10.44573001 -075.51317529
120 Linear Feature 53
111  10.44564081 -075.51326935 19
115  10.44571443 -075.51328539
120 Linear Feature 52
111  10.44469476 -075.51301303 19
115  10.44469686 -075.51306776
120 Linear Feature 51
111  10.44493802 -075.51300308 19
115  10.44494266 -075.51306842
120 Linear Feature 50
111  10.44482198 -075.51300947 19
115  10.44482161 -075.51306404
120 Linear Feature 49
111  10.44505601 -075.51299547 19
115  10.44505971 -075.51306711
120 Linear Feature 48
111  10.44518416 -075.51304216 19
115  10.44514539 -075.51309838
120 Linear Feature 47
111  10.44527214 -075.51315665 19
115  10.44521180 -075.51318716
120 Linear Feature 46
111  10.44531075 -075.51329825 19
115  10.44524731 -075.51330016
120 Linear Feature 45
111  10.44532215 -075.51344127 19
115  10.44525743 -075.51344435
120 Linear Feature 44
111  10.44658024 -075.51192789 12 103
115  10.44677585 -075.51191787
120 Linear Feature 97
111  10.44647929 -075.51323309 10 105
111  10.44648936 -075.51310856 10 105
111  10.44653570 -075.51298113 10 105
111  10.44664006 -075.51284955 10 105
111  10.44681330 -075.51274555 10 105
111  10.44692184 -075.51272433 10 105
115  10.44719109 -075.51270735
120 Linear Feature 96
111  10.44547353 -075.51324821 10 105
111  10.44545839 -075.51320378 10 105
111  10.44539713 -075.51304456 10 105
111  10.44531596 -075.51294434 10 105
111  10.44520581 -075.51286180 10 105
111  10.44507970 -075.51281759 10 105
111  10.44498984 -075.51280137 10 105
115  10.44481155 -075.51281022
120 Linear Feature 42
111  10.44563069 -075.51344813 12 103
115  10.44532782 -075.51345976
120 Linear Feature 41
111  10.44663186 -075.51340642 12 103
115  10.44633208 -075.51341665
120 Linear Feature 38
111  10.44630116 -075.51344822 3 102
111  10.44631601 -075.51344150 3 102
111  10.44632708 -075.51341544 3 102
111  10.44632708 -075.51338760 3 102
111  10.44632475 -075.51333370 3 102
111  10.44631135 -075.51320576 3 102
111  10.44628223 -075.51310743 3 102
111  10.44623679 -075.51303695 3 102
111  10.44617213 -075.51297001 3 102
115  10.44612553 -075.51295224
120 Linear Feature 37
111  10.44582515 -075.51296106 3 102
111  10.44572869 -075.51301650 3 102
111  10.44568591 -075.51307536 3 102
111  10.44564648 -075.51316833 3 102
111  10.44563985 -075.51320244 3 102
111  10.44562694 -075.51328518 3 102
111  10.44562875 -075.51337185 3 102
111  10.44563307 -075.51343530 3 102
111  10.44564900 -075.51346515 3 102
111  10.44566152 -075.51347450 3 102
115  10.44630116 -075.51344822
120 Linear Feature 36
111  10.44463606 -075.51360683 3 102
111  10.44488402 -075.51359900 3 102
111  10.44500005 -075.51350517 3 102
111  10.44530062 -075.51349380 3 102
111  10.44531670 -075.51348243 3 102
111  10.44532509 -075.51346324 3 102
111  10.44531810 -075.51331966 3 102
111  10.44528804 -075.51318674 3 102
111  10.44525239 -075.51311282 3 102
111  10.44517480 -075.51302966 3 102
115  10.44512284 -075.51299649
120 Linear Feature 35
111  10.44683341 -075.51292203 3 102
111  10.44672750 -075.51298467 3 102
111  10.44670594 -075.51301144 3 102
111  10.44664793 -075.51312588 3 102
111  10.44663093 -075.51322065 3 102
111  10.44663535 -075.51340522 3 102
111  10.44664159 -075.51341853 3 102
111  10.44667291 -075.51343962 3 102
111  10.44737777 -075.51341047 3
115  10.44744688 -075.51517849
120 Linear Feature 34
111  10.44469471 -075.51519785 24
115  10.44466314 -075.51519857
120 Linear Feature 33
111  10.44744427 -075.51507352 21
111  10.44742573 -075.51508963 21
111  10.44736160 -075.51509191 21
111  10.44667862 -075.51511750 21
111  10.44666486 -075.51511627 21
111  10.44664302 -075.51510393 21
111  10.44659812 -075.51506567 21
111  10.44657344 -075.51505004 21
111  10.44655039 -075.51504140 21
111  10.44651924 -075.51504058 21
111  10.44617062 -075.51505110 21
111  10.44616363 -075.51504872 21
111  10.44614615 -075.51503155 21
111  10.44610596 -075.51499542 21
111  10.44607684 -075.51497765 21
111  10.44603956 -075.51496699 21
111  10.44600752 -075.51496521 21
111  10.44592073 -075.51496817 21
111  10.44571219 -075.51497528 21
111  10.44568889 -075.51497883 21
111  10.44565977 -075.51499245 21
111  10.44562889 -075.51501319 21
111  10.44559860 -075.51504517 21
111  10.44553278 -075.51514468 21
111  10.44551006 -075.51516423 21
111  10.44549608 -075.51517015 21
111  10.44547686 -075.51516897 21
111  10.44472180 -075.51520143 21
111  10.44470772 -075.51520044 21
115  10.44469656 -075.51519255
120 Linear Feature 32
111  10.44470030 -075.51527611 21
111  10.44473372 -075.51525899 21
111  10.44551028 -075.51522928 21
111  10.44554277 -075.51521587 21
111  10.44556374 -075.51520023 21
111  10.44560142 -075.51514888 21
111  10.44566482 -075.51506357 21
111  10.44571356 -075.51503686 21
111  10.44573985 -075.51503596 21
111  10.44603257 -075.51502783 21
111  10.44606109 -075.51504076 21
111  10.44609045 -075.51506280 21
111  10.44612320 -075.51509602 21
111  10.44614979 -075.51511104 21
111  10.44619156 -075.51511490 21
111  10.44653166 -075.51510158 21
111  10.44655547 -075.51511087 21
111  10.44657793 -075.51512825 21
111  10.44659745 -075.51514459 21
111  10.44663204 -075.51517041 21
111  10.44665819 -075.51518004 21
111  10.44668236 -075.51517965 21
111  10.44742398 -075.51515169 21
111  10.44744146 -075.51515702 21
115  10.44744417 -075.51516159
120 Linear Feature 29
111  10.44465388 -075.51578507 24
111  10.44465757 -075.51580877 24
111  10.44466597 -075.51584624 24
111  10.44468763 -075.51586634 24
115  10.44476475 -075.51586504
120 Linear Feature 28
111  10.44457075 -075.51360535 24
115  10.44465396 -075.51578583
120 Linear Feature 27
111  10.44469820 -075.51527814 20
115  10.44463450 -075.51360592
120 Linear Feature 26
111  10.44738949 -075.51366516 20
111  10.44746789 -075.51567020 20
111  10.44746396 -075.51568163 20
111  10.44745357 -075.51568991 20
111  10.44744289 -075.51569334 20
111  10.44543941 -075.51577810 20
111  10.44473893 -075.51580468 20
111  10.44473383 -075.51580469 20
111  10.44472127 -075.51579688 20
111  10.44471917 -075.51577527 20
115  10.44469820 -075.51527814
120 Linear Feature 25
111  10.44745258 -075.51366266 24
111  10.44752893 -075.51565368 24
111  10.44753014 -075.51568444 24
111  10.44752528 -075.51570377 24
111  10.44751276 -075.51572509 24
111  10.44749431 -075.51573959 24
111  10.44748287 -075.51574596 24
111  10.44746332 -075.51575144 24
111  10.44744295 -075.51575393 24
111  10.44476345 -075.51586531 24
115  10.44476320 -075.51583624
120 Linear Feature 24
111  10.44469713 -075.51518890 3
115  10.44463606 -075.51360683
120 Linear Feature 23
111  10.44470077 -075.51527874 3
111  10.44472298 -075.51577993 3
111  10.44472467 -075.51579501 3
111  10.44473546 -075.51580118 3
111  10.44476142 -075.51580118 3
111  10.44478501 -075.51580084 3
111  10.44744417 -075.51568806 3
111  10.44745383 -075.51568367 3
111  10.44746326 -075.51567283 3
111  10.44746269 -075.51563865 3
115  10.44744554 -075.51517807
120 Linear Feature 148
111  10.44628770 -075.51552879 32
111  10.44626676 -075.51511795 32
111  10.44625605 -075.51511837 32
115  10.44628158 -075.51553479
120 Linear Feature 149
111  10.44744378 -075.51516598 32
111  10.44742971 -075.51515834 32
111  10.44739152 -075.51515745 32
111  10.44665802 -075.51518401 32
111  10.44663373 -075.51517600 32
111  10.44661477 -075.51516273 32
111  10.44656454 -075.51512336 32
111  10.44655342 -075.51511488 32
111  10.44653853 -075.51510824 32
111  10.44652926 -075.51510685 32
111  10.44649364 -075.51510762 32
111  10.44618283 -075.51511933 32
111  10.44616556 -075.51511810 32
111  10.44614310 -075.51511342 32
111  10.44612430 -075.51510247 32
111  10.44610974 -075.51509013 32
111  10.44608951 -075.51506709 32
111  10.44607171 -075.51505311 32
111  10.44604461 -075.51503706 32
111  10.44602641 -075.51503213 32
111  10.44599566 -075.51503377 32
111  10.44571704 -075.51504220 32
111  10.44570666 -075.51504507 32
111  10.44566666 -075.51506926 32
111  10.44565132 -075.51509008 32
111  10.44563210 -075.51511378 32
111  10.44561229 -075.51514181 32
111  10.44558841 -075.51517597 32
111  10.44556354 -075.51520497 32
111  10.44554601 -075.51521903 32
111  10.44551972 -075.51523022 32
111  10.44550388 -075.51523468 32
111  10.44548061 -075.51523514 32
115  10.44473187 -075.51526352
120 Linear Feature 147
111  10.44611457 -075.51509580 32
111  10.44613671 -075.51544506 32
111  10.44634676 -075.51563520 32
115  10.44634917 -075.51573356
120 Linear Feature 146
111  10.44735629 -075.51569031 32
111  10.44735388 -075.51558180 32
115  10.44745534 -075.51546758
120 Linear Feature 145
111  10.44696657 -075.51570751 32
111  10.44696442 -075.51560430 32
111  10.44706738 -075.51548807 32
111  10.44705603 -075.51517101 32
111  10.44704083 -075.51517180 32
111  10.44704950 -075.51548846 32
111  10.44718357 -075.51561251 32
115  10.44718689 -075.51569789
120 Linear Feature 144
111  10.44657923 -075.51572351 32
111  10.44657682 -075.51561929 32
111  10.44669036 -075.51549646 32
111  10.44667968 -075.51518497 32
111  10.44665465 -075.51518588 32
111  10.44666606 -075.51550675 32
111  10.44679611 -075.51561763 32
115  10.44679916 -075.51571348
120 Linear Feature 143
111  10.44617475 -075.51574092 32
111  10.44617185 -075.51564512 32
111  10.44628781 -075.51552869 31
111  10.44639814 -075.51563124 31
115  10.44640020 -075.51569260
120 Linear Feature 142
111  10.44578993 -075.51575308 32
111  10.44578912 -075.51565096 32
111  10.44589156 -075.51554265 32
111  10.44600365 -075.51562888 32
115  10.44600831 -075.51574710
120 Linear Feature 141
111  10.44540213 -075.51577347 32
111  10.44540067 -075.51567159 32
111  10.44551200 -075.51554608 32
111  10.44550121 -075.51523670 32
111  10.44548443 -075.51523670 32
111  10.44549654 -075.51554502 32
111  10.44562865 -075.51566514 32
115  10.44563212 -075.51576347
120 Linear Feature 140
111  10.44501214 -075.51578968 32
111  10.44501153 -075.51568228 32
111  10.44512190 -075.51556526 32
111  10.44511443 -075.51525100 32
111  10.44509917 -075.51525183 32
111  10.44510688 -075.51556728 32
111  10.44523116 -075.51568036 32
115  10.44523525 -075.51578026
120 Linear Feature 139
111  10.44471607 -075.51558454 32
111  10.44484286 -075.51569922 32
115  10.44484485 -075.51579717
120 Linear Feature 138
111  10.44734994 -075.51378272 2
115  10.44673312 -075.51380608
120 Linear Feature 137
111  10.44736718 -075.51421956 2
115  10.44672230 -075.51424697
120 Linear Feature 136
111  10.44668485 -075.51438699 2
115  10.44737132 -075.51436313
120 Linear Feature 158
111  10.44639384 -075.51511432 2
115  10.44641430 -075.51569188
120 Linear Feature 197
111  10.44663743 -075.51091323 2
115  10.44663419 -075.51083938
120 Linear Feature 183
111  10.44624337 -075.51274009 10 105
111  10.44655442 -075.51272457 10 105
111  10.44658824 -075.51270737 10 105
111  10.44664984 -075.51264473 10 105
111  10.44669091 -075.51253788 10 105
111  10.44670782 -075.51246787 10 105
115  10.44668445 -075.51193054
120 Linear Feature 184
111  10.44716405 -075.51269768 10 105
111  10.44697203 -075.51271041 10 105
111  10.44686766 -075.51270192 10 105
111  10.44681616 -075.51267907 10 105
111  10.44677389 -075.51263199 10 105
111  10.44672759 -075.51254192 10 105
111  10.44671014 -075.51248628 10 105
115  10.44670771 -075.51246406
120 Linear Feature 51
111  10.44677357 -075.51017316 25
111  10.44697645 -075.51017282 25
111  10.44704396 -075.51017644 25
111  10.44706113 -075.51018306 25
111  10.44708067 -075.51019571 25
111  10.44710910 -075.51022762 25
111  10.44720799 -075.51037515 25
115  10.44727846 -075.51048776
120 Linear Feature 73
111  10.44426736 -075.51372092 10
111  10.44399022 -075.51372352 10
111  10.44394673 -075.51372266 10
115  10.44388034 -075.51371602
120 Linear Feature 74
111  10.44387385 -075.51373130 4
115  10.44387599 -075.51370105
120 Linear Feature 77
111  10.44442237 -075.51310768 24
111  10.44443857 -075.51367002 24
111  10.44452541 -075.51367186 24
111  10.44454237 -075.51403219 24
115  10.44451271 -075.51403508
120 Linear Feature 76
111  10.44428422 -075.51369163 24
111  10.44431129 -075.51368884 24
111  10.44433048 -075.51367908 24
115  10.44431095 -075.51311139
120 Linear Feature 75
111  10.44427418 -075.51404192 24
115  10.44425954 -075.51374111
120 Linear Feature 92
111  10.44645167 -075.51477315 1
115  10.44645270 -075.51481560
120 Linear Feature 91
111  10.44644936 -075.51469092 1
115  10.44645111 -075.51473089
120 Linear Feature 90
111  10.44605691 -075.51463313 1
115  10.44605900 -075.51467990
120 Linear Feature 89
111  10.44605465 -075.51456364 1
115  10.44605535 -075.51459102
120 Linear Feature 88
111  10.44566340 -075.51466624 1
115  10.44566446 -075.51471193
120 Linear Feature 87
111  10.44565979 -075.51458946 1
115  10.44566146 -075.51462645
120 Linear Feature 158
111  10.44358509 -075.51366033 24
111  10.44372863 -075.51367698 24
111  10.44387821 -075.51368947 24
115  10.44391578 -075.51369315
120 Linear Feature 50
111  10.44644052 -075.51408772 1
111  10.44644040 -075.51408011 1
113  10.44644705 -075.51408373 1
120 Linear Feature 108
111  10.44777866 -075.51621996 25
111  10.44780285 -075.51632134 25
111  10.44784135 -075.51643840 25
111  10.44789074 -075.51648025 25
111  10.44794653 -075.51649246 25
111  10.44796811 -075.51667108 25
111  10.44807759 -075.51665937 25
116  10.44809652 -075.51679161  10.44809652 -075.51678659
21  10.44869255 -075.51217194 2 182.1 3.00 New Light Fixture 24
21  10.44872717 -075.51314046 3 183.6 3.00 New Light Fixture 23
21  10.43422925 -075.51276273 3 1.2 3.00 New Light Fixture 22
21  10.43426702 -075.51371607 2 4.4 3.00 New Light Fixture 21
14  10.44580659 -075.51613140 82 0 rafael nuñez
1300  10.44392814 -075.51357189 93.5 tie_down jets|turboprops|props Ga 1
1301 A military 
1300  10.44654461 -075.51030569 93.3 tie_down heavy|jets|turboprops Ga 49
1301 C airline 
1300  10.44582016 -075.51559911 -88.2 tie_down heavy|jets|turboprops G 03B
1301 D airline 
1300  10.44623782 -075.51028138 92.7 tie_down jets|turboprops Ga 48
1301 B airline 
1300  10.44599377 -075.51028773 92.9 tie_down jets|turboprops Ga 47
1301 B airline 
1300  10.44575188 -075.51030534 92.1 tie_down jets|turboprops Ga 46
1301 B airline 
1300  10.44550782 -075.51031515 92.6 tie_down jets|turboprops Ga 45
1301 B airline 
1300  10.44526401 -075.51032416 92.7 tie_down jets|turboprops Ga 44
1301 B airline 
1300  10.44628825 -075.51097190 272.5 tie_down heavy|jets|turboprops Ga 39
1301 A general_aviation 
1300  10.44608148 -075.51101214 -87.2 tie_down jets|turboprops Ga 38
1301 B airline 
1300  10.44582648 -075.51102011 -86.8 tie_down jets|turboprops Ga 37
1301 B airline 
1300  10.44557042 -075.51099989 -87.8 tie_down jets|turboprops Ga 36
1301 B airline 
1300  10.44535133 -075.51101409 -87.5 tie_down jets|turboprops Ga 35
1301 B airline 
1300  10.44634580 -075.51104457 91.8 tie_down heavy|jets|turboprops Ga 29
1301 A general_aviation 
1300  10.44620175 -075.51111912 90.7 tie_down heavy|jets|turboprops Ga 28
1301 A general_aviation 
1300  10.44606907 -075.51111613 91.9 tie_down heavy|jets|turboprops Ga 27
1301 A general_aviation 
1300  10.44593015 -075.51113291 92.8 tie_down heavy|jets|turboprops Ga 26
1301 A general_aviation 
1300  10.44579527 -075.51113961 94.0 tie_down heavy|jets|turboprops Ga 25
1301 A general_aviation 
1300  10.44564975 -075.51108222 91.3 tie_down heavy|jets|turboprops Ga 24
1301 A general_aviation 
1300  10.44551634 -075.51109489 92.0 tie_down heavy|jets|turboprops Ga 23
1301 A general_aviation 
1300  10.44537999 -075.51109974 91.2 tie_down heavy|jets|turboprops Ga 22
1301 A general_aviation 
1300  10.44524533 -075.51108661 90.0 tie_down heavy|jets|turboprops Ga 21
1301 A general_aviation 
1300  10.44640970 -075.51557514 -88.1 tie_down heavy|jets|turboprops G 04A
1301 D airline 
1300  10.44703226 -075.51555153 -88.1 tie_down heavy|jets|turboprops G 06A
1301 E airline 
1300  10.44726133 -075.51422363 2.5 tie_down heavy|jets|turboprops RS 08A
1301 E airline 
1300  10.44483098 -075.51455920 -177.5 tie_down jets|turboprops RS 11
1301 C airline 
1300  10.44481357 -075.51404571 -177.6 tie_down jets|turboprops RS 10
1301 C airline 
1300  10.44726283 -075.51378664 2.1 tie_down jets|turboprops RS 09D
1301 C cargo 
1300  10.44726891 -075.51405115 2.1 tie_down heavy|jets|turboprops RS 09
1301 C airline 
1300  10.44727877 -075.51446998 2.5 tie_down heavy|jets|turboprops RS 08
1301 C cargo 
1300  10.44726077 -075.51554559 -87.6 tie_down heavy|jets|turboprops G 07
1301 C airline 
1300  10.44687404 -075.51556504 -87.3 tie_down heavy|jets|turboprops|props G 06
1301 C airline 
1300  10.44648672 -075.51557033 -87.7 tie_down heavy|jets|turboprops G 05
1301 C airline 
1300  10.44609817 -075.51557751 -87.6 tie_down heavy|jets|turboprops G 04
1301 C airline 
1300  10.44570466 -075.51559168 -88.8 tie_down heavy|jets|turboprops G 03
1301 C airline 
1300  10.44531139 -075.51561799 -88.4 tie_down heavy|jets|turboprops G 02
1301 C airline 
1300  10.44492162 -075.51562748 -88.7 tie_down heavy|jets G 01
1301 C airline 
19  10.43164906 -075.51387728 0 New Windsock 20
19  10.45029214 -075.51205852 0 New Windsock 19
1200 
1201  10.44393377 -075.51368047 both 0 N_stop
1201  10.44393225 -075.51372825 both 1 N_stop
1201  10.44439075 -075.51377973 both 2 N_stop
1201  10.44624936 -075.51054644 both 3 N_stop
1201  10.44600870 -075.51055512 both 4 N_stop
1201  10.44575951 -075.51057595 both 5 N_stop
1201  10.44551511 -075.51058248 both 6 N_stop
1201  10.44527253 -075.51057593 both 7 N_stop
1201  10.44534196 -075.51074273 both 8 N_stop
1201  10.44555887 -075.51073550 both 9 N_stop
1201  10.44581489 -075.51074755 both 10 N_stop
1201  10.44606973 -075.51073791 both 11 N_stop
1201  10.44628377 -075.51085593 both 12 N_stop
1201  10.44702057 -075.51508044 both 13 N_stop
1201  10.44724212 -075.51511883 both 14 N_stop
1201  10.44686116 -075.51515132 both 15 N_stop
1201  10.44648638 -075.51513909 both 16 N_stop
1201  10.44639060 -075.51506939 both 17 N_stop
1201  10.44607995 -075.51515345 both 18 N_stop
1201  10.44580000 -075.51493791 both 19 N_stop
1201  10.44568230 -075.51516836 both 20 N_stop
1201  10.44656201 -075.51070243 both 21 N_stop
1201  10.44524591 -075.51119767 both 22 N_stop
1201  10.44538495 -075.51121035 both 23 N_stop
1201  10.44551929 -075.51120695 both 24 N_stop
1201  10.44565186 -075.51119781 both 25 N_stop
1201  10.44580129 -075.51124900 both 26 N_stop
1201  10.44593462 -075.51124470 both 27 N_stop
1201  10.44607170 -075.51122738 both 28 N_stop
1201  10.44620437 -075.51122685 both 29 N_stop
1201  10.44635181 -075.51115931 both 30 N_stop
1201  10.44685804 -075.51448682 both 31 N_stop
1201  10.44664456 -075.51425408 both 32 N_stop
1201  10.44685890 -075.51380281 both 33 N_stop
1201  10.44685952 -075.51406349 both 34 N_stop
1201  10.44521526 -075.51402819 both 35 N_stop
1201  10.44523165 -075.51454262 both 36 N_stop
1201  10.44530251 -075.51520825 both 37 N_stop
1201  10.44490944 -075.51525107 both 38 N_stop
1201  10.44566537 -075.51458297 both 39 N_stop
1201  10.44578752 -075.51457290 both 40 N_split
1201  10.44626797 -075.51458088 both 41 N_stop
1201  10.44571916 -075.51450630 both 42 N_stop
1201  10.44590987 -075.51457013 both 43 N_stop
1201  10.44586207 -075.51456676 both 44 N_split
1201  10.44609119 -075.51455604 both 45 N_stop
1201  10.44605338 -075.51455897 both 46 N_split
1201  10.44622975 -075.51445024 both 47 N_stop
1201  10.44630030 -075.51434249 both 48 N_stop
1201  10.44481839 -075.51503782 both 49 N_stop
1201  10.44532907 -075.51500739 both 50 N_stop
1201  10.44529875 -075.51500920 both 51 N_split
1201  10.44490023 -075.51503294 both 52 N_split
1201  10.44549208 -075.51487820 both 53 N_stop
1201  10.44556160 -075.51468808 both 54 N_stop
1201  10.44555412 -075.51470852 both 55 N_split
1201  10.44555920 -075.51443701 both 56 N_stop
1201  10.44556005 -075.51452601 both 57 N_split
1201  10.44553763 -075.51401532 both 58 N_stop
1201  10.44555063 -075.51426953 both 59 N_split
1201  10.44552324 -075.51364725 both 60 N_stop
1201  10.44548351 -075.51352336 both 61 N_stop
1201  10.44724668 -075.51493468 both 62 N_stop
1201  10.44676965 -075.51495418 both 63 N_stop
1201  10.44684691 -075.51495102 both 64 N_split
1201  10.44701066 -075.51494433 both 65 N_split
1201  10.44667136 -075.51490543 both 66 N_stop
1201  10.44643165 -075.51467874 both 67 N_stop
1201  10.44645695 -075.51470266 both 68 N_split
1201  10.44635254 -075.51446667 both 69 N_stop
1201  10.44636482 -075.51449958 both 70 N_split
1201  10.44642808 -075.51466917 both 71 N_split
1201  10.44635800 -075.51463053 both 72 N_split
1201  10.44633337 -075.51391823 both 73 N_stop
1201  10.44633931 -075.51408824 both 74 N_split
1201  10.44634348 -075.51420728 both 75 N_split
1201  10.44634552 -075.51426580 both 76 N_split
1201  10.44636704 -075.51377847 both 77 N_stop
1201  10.44635683 -075.51382084 both 78 N_split
1201  10.44645490 -075.51360215 both 79 N_stop
1201  10.44648495 -075.51349870 both 80 N_stop
1201  10.44523658 -075.51067677 both 81 N_stop
1201  10.44603367 -075.51064015 both 82 N_stop
1201  10.44601014 -075.51064123 both 83 N_split
1201  10.44580808 -075.51065051 both 84 N_split
1201  10.44576182 -075.51065264 both 85 N_split
1201  10.44555925 -075.51066194 both 86 N_split
1201  10.44551756 -075.51066386 both 87 N_split
1201  10.44533504 -075.51067224 both 88 N_split
1201  10.44527262 -075.51067511 both 89 N_split
1201  10.44621013 -075.51063676 both 90 N_stop
1201  10.44606514 -075.51063955 both 91 N_split
1201  10.44630501 -075.51068416 both 92 N_stop
1201  10.44624230 -075.51065284 both 93 N_split
1201  10.44651643 -075.51084497 both 94 N_stop
1201  10.44665376 -075.51099694 both 95 N_stop
1201  10.44661527 -075.51093962 both 96 N_split
1201  10.44524464 -075.51131436 both 97 N_stop
1201  10.44568665 -075.51129736 both 98 N_stop
1201  10.44565930 -075.51129842 both 99 N_split
1201  10.44552069 -075.51130380 both 100 N_split
1201  10.44538558 -075.51130904 both 101 N_split
1201  10.44629663 -075.51133524 both 102 N_stop
1201  10.44620987 -075.51132985 both 103 N_split
1201  10.44607718 -075.51132161 both 104 N_split
1201  10.44593586 -075.51131283 both 105 N_split
1201  10.44580206 -075.51130452 both 106 N_split
1201  10.44652398 -075.51134994 both 107 N_stop
1201  10.44635815 -075.51133718 both 108 N_split
1201  10.44662481 -075.51137421 both 109 N_stop
1201  10.44667062 -075.51143886 both 110 N_stop
1201  10.44668492 -075.51192501 both 111 N_stop
1201  10.44648351 -075.51340719 both 112 N_start
1201  10.44547487 -075.51344789 both 113 N_start
1201  10.43088602 -075.51337476 both 114 N_stop
1201  10.45246410 -075.51248949 both 115 N_start
1201  10.44673328 -075.51272461 both 116 01/19_split
1201  10.44647113 -075.51273536 both 117 01/19_split
1201  10.44546012 -075.51277684 both 118 01/19_split
1201  10.44436470 -075.51282178 both 119 01/19_split
1201  10.44438168 -075.51344631 both 120 N_split
1202 1 0 twoway taxiway_A N
1202 2 1 twoway taxiway_A N
1202 119 120 twoway taxiway_A N
1204 departure 01,19
1204 arrival 01,19
1202 120 2 twoway taxiway_A N
1202 93 3 twoway taxiway_B N
1202 83 4 twoway taxiway_B N
1202 85 5 twoway taxiway_B N
1202 87 6 twoway taxiway_B N
1202 89 7 twoway taxiway_B N
1202 88 8 twoway taxiway_B N
1202 86 9 twoway taxiway_B N
1202 84 10 twoway taxiway_B N
1202 91 11 twoway taxiway_B N
1202 92 12 twoway taxiway_A N
1202 65 13 twoway taxiway_E N
1202 62 14 twoway taxiway_C N
1202 64 15 twoway taxiway_C N
1202 68 16 twoway taxiway_C N
1202 72 17 twoway taxiway_D N
1202 46 18 twoway taxiway_C N
1202 40 19 twoway taxiway_E N
1202 39 20 twoway taxiway_C N
1202 96 21 twoway taxiway_C N
1202 97 22 twoway taxiway_A N
1202 101 23 twoway taxiway_A N
1202 100 24 twoway taxiway_A N
1202 99 25 twoway taxiway_A N
1202 106 26 twoway taxiway_A N
1202 105 27 twoway taxiway_A N
1202 104 28 twoway taxiway_A N
1202 103 29 twoway taxiway_A N
1202 108 30 twoway taxiway_A N
1202 70 31 twoway taxiway_C N
1202 76 32 twoway taxiway_E N
1202 78 33 twoway taxiway_C N
1202 74 34 twoway taxiway_C N
1202 58 35 twoway taxiway_E N
1202 57 36 twoway taxiway_C N
1202 51 37 twoway taxiway_C N
1202 52 38 twoway taxiway_E N
1202 39 40 twoway taxiway_E N
1202 40 44 twoway taxiway_E N
1202 55 39 twoway taxiway_E N
1202 41 45 twoway taxiway_E N
1202 71 72 twoway taxiway_E N
1202 72 41 twoway taxiway_E N
1202 42 59 twoway taxiway_E N
1202 43 44 twoway taxiway_E N
1202 44 42 twoway taxiway_E N
1202 45 46 twoway taxiway_E N
1202 46 43 twoway taxiway_E N
1202 47 45 twoway taxiway_E N
1202 48 47 twoway taxiway_E N
1202 75 48 twoway taxiway_E N
1202 50 51 twoway taxiway_C N
1202 51 52 twoway taxiway_C N
1202 52 49 twoway taxiway_C N
1202 53 50 twoway taxiway_C N
1202 54 55 twoway taxiway_E N
1202 55 53 twoway taxiway_C N
1202 56 57 twoway taxiway_C N
1202 57 54 twoway taxiway_C N
1202 58 59 twoway taxiway_C N
1202 59 56 twoway taxiway_C N
1202 60 58 twoway taxiway_C N
1202 61 60 twoway taxiway_C N
1202 113 61 twoway taxiway_C N
1202 63 64 twoway taxiway_E N
1202 64 65 twoway taxiway_E N
1202 65 62 twoway taxiway_E N
1202 66 63 twoway taxiway_E N
1202 67 68 twoway taxiway_E N
1202 68 66 twoway taxiway_E N
1202 69 70 twoway taxiway_E N
1202 70 71 twoway taxiway_E N
1202 71 67 twoway taxiway_E N
1202 73 74 twoway taxiway_E N
1202 74 75 twoway taxiway_E N
1202 75 76 twoway taxiway_E N
1202 76 69 twoway taxiway_E N
1202 77 78 twoway taxiway_E N
1202 78 73 twoway taxiway_E N
1202 79 77 twoway taxiway_E N
1202 80 79 twoway taxiway_E N
1202 112 80 twoway taxiway_E N
1202 82 83 twoway taxiway_B N
1202 83 84 twoway taxiway_B N
1202 84 85 twoway taxiway_B N
1202 85 86 twoway taxiway_B N
1202 86 87 twoway taxiway_B N
1202 87 88 twoway taxiway_B N
1202 88 89 twoway taxiway_B N
1202 89 81 twoway taxiway_B N
1202 90 91 twoway taxiway_B N
1202 91 82 twoway taxiway_B N
1202 92 93 twoway taxiway_B N
1202 93 90 twoway taxiway_B N
1202 94 92 twoway taxiway_B N
1202 95 96 twoway taxiway_B N
1202 96 94 twoway taxiway_B N
1202 110 95 twoway taxiway_C N
1202 98 99 twoway taxiway_B N
1202 99 100 twoway taxiway_B N
1202 100 101 twoway taxiway_B N
1202 101 97 twoway taxiway_B N
1202 102 103 twoway taxiway_B N
1202 103 104 twoway taxiway_B N
1202 104 105 twoway taxiway_B N
1202 105 106 twoway taxiway_B N
1202 106 98 twoway taxiway_B N
1202 107 108 twoway taxiway_B N
1202 108 102 twoway taxiway_B N
1202 109 107 twoway taxiway_B N
1202 110 109 twoway taxiway_B N
1202 111 110 twoway taxiway_C N
1202 116 111 twoway taxiway_C N
1204 departure 01,19
1204 arrival 01,19
1202 112 117 twoway taxiway_E N
1204 departure 01,19
1204 arrival 01,19
1202 113 118 twoway taxiway_C N
1204 departure 01,19
1204 arrival 01,19
1202 115 116 twoway runway 01/19
1204 departure 01,19
1204 arrival 01,19
1204 ils 01,19
1202 116 117 twoway runway 01/19
1204 departure 01,19
1204 arrival 01,19
1204 ils 01,19
1202 117 118 twoway runway 01/19
1204 departure 01,19
1204 arrival 01,19
1204 ils 01,19
1202 118 119 twoway runway 01/19
1204 departure 01,19
1204 arrival 01,19
1204 ils 01,19
1202 119 114 twoway runway 01/19
1204 departure 01,19
1204 arrival 01,19
1204 ils 01,19
99
