I
1130 Generated by WorldEditor 2.4.0r2

1    642 0 0 RJFT Kumamoto
1302 city Kumamoto
1302 country Japan
1302 datum_lat 32.837222222
1302 datum_lon 130.855277778
1302 faa_code 
1302 gui_label 3D
1302 iata_code KMJ
1302 icao_code RJFT
1302 region_code RJ
1302 state Kumamoto Prefecture
1302 transition_alt 14000
1302 transition_level 14000
1302 flatten 1
1302 drive_on_left 1
100 45.72 1 1 0.60 1 3 0  07  32.83151400  130.84058100 0 61 3 2 1 0 25  32.84312200  130.86952200 0 61 2 7 0 0
102 H57  32.83994770  130.86946998 64.2 28.00 29.20 2 0 0 0.00 1
110 2 0.00 333.0 New Taxiway 11
111  32.83949226  130.86955123
111  32.83961247  130.86984111
111  32.83998988  130.86963238
113  32.83987177  130.86934212
110 1 0.00 157.0 New Taxiway 1
111  32.83121160  130.84067775
111  32.83044493  130.84110314
112  32.83011747  130.84215210  32.83032980  130.84288357
111  32.83011747  130.84215210
112  32.83011747  130.84215210  32.83019753  130.84241108
112  32.83385357  130.85148493  32.83524041  130.85495019
111  32.83385357  130.85148493
112  32.83385357  130.85148493  32.83383364  130.85159302
112  32.83377336  130.85163822  32.83373766  130.85166932
111  32.83377336  130.85163822
112  32.83377336  130.85163822  32.83370073  130.85165416
112  32.83349101  130.85150081  32.83337084  130.85134822
111  32.83349101  130.85150081
112  32.83349101  130.85150081  32.83352023  130.85158292
112  32.83379995  130.85226141  32.83388635  130.85247529
111  32.83379995  130.85226141
112  32.83379995  130.85226141  32.83374627  130.85202245
112  32.83386978  130.85190307  32.83388866  130.85188402
111  32.83386978  130.85190307
112  32.83386978  130.85190307  32.83390083  130.85186771
112  32.83402543  130.85191031  32.83402846  130.85191789
111  32.83402543  130.85191031
112  32.83402543  130.85191031  32.83436222  130.85275157
112  32.83489661  130.85408149  32.83505494  130.85450788
111  32.83489661  130.85408149
112  32.83489661  130.85408149  32.83494404  130.85420151
112  32.83490886  130.85423347  32.83487911  130.85430211
111  32.83490886  130.85423347
112  32.83490886  130.85423347  32.83489404  130.85428211
112  32.83471467  130.85430209  32.83467201  130.85419687
111  32.83471467  130.85430209
112  32.83471467  130.85430209  32.83474080  130.85437692
112  32.83483026  130.85458795  32.83484880  130.85464294
111  32.83483026  130.85458795
112  32.83483026  130.85458795  32.83494910  130.85450363
112  32.83508466  130.85454894  32.83509712  130.85457983
111  32.83508466  130.85454894
112  32.83508466  130.85454894  32.83517623  130.85477594
111  32.83522180  130.85488932
112  32.83518848  130.85521595  32.83504969  130.85533596
111  32.83518848  130.85521595
112  32.83518848  130.85521595  32.83513940  130.85525839
112  32.83412724  130.85584736  32.83375626  130.85606025
111  32.83412724  130.85584736
112  32.83412724  130.85584736  32.83409299  130.85586701
112  32.83403209  130.85590175  32.83400313  130.85591823
111  32.83403209  130.85590175
112  32.83403209  130.85590175  32.83404985  130.85594646
111  32.83413098  130.85614649
111  32.83436439  130.85671955
111  32.83565678  130.85599499
111  32.83542458  130.85541752
111  32.83568051  130.85527040
111  32.83646974  130.85724465
111  32.83750136  130.85982209
111  32.83750932  130.85981701
111  32.83783449  130.86062632
111  32.83761375  130.86075344
112  32.83777327  130.86115769  32.83783925  130.86132750
111  32.83777327  130.86115769
112  32.83777327  130.86115769  32.83775790  130.86116611
112  32.83774135  130.86117568  32.83773039  130.86118193
111  32.83774135  130.86117568
112  32.83774135  130.86117568  32.83803522  130.86193312
112  32.83890253  130.86405785  32.83913133  130.86463197
111  32.83890253  130.86405785
112  32.83890253  130.86405785  32.83890715  130.86406944
112  32.83887451  130.86436713  32.83875870  130.86449589
111  32.83887451  130.86436713
112  32.83887451  130.86436713  32.83877989  130.86442478
112  32.83867153  130.86448876  32.83862538  130.86451729
111  32.83867153  130.86448876
112  32.83867153  130.86448876  32.83861570  130.86434751
111  32.83849876  130.86404780
111  32.83740916  130.86466346
111  32.83788997  130.86583048
111  32.83832320  130.86558493
111  32.83833162  130.86555966
111  32.83895197  130.86520365
112  32.83878517  130.86477214  32.83872575  130.86461488
111  32.83878517  130.86477214
112  32.83878517  130.86477214  32.83888732  130.86471662
112  32.83898283  130.86466597  32.83906414  130.86462314
111  32.83898283  130.86466597
112  32.83898283  130.86466597  32.83915592  130.86464405
112  32.83920190  130.86480834  32.83920932  130.86482905
111  32.83920190  130.86480834
112  32.83920190  130.86480834  32.83938407  130.86526415
112  32.83974631  130.86616060  32.83992581  130.86660853
111  32.83974631  130.86616060
112  32.83974631  130.86616060  32.83976373  130.86621184
112  32.83969895  130.86638591  32.83961342  130.86646618
111  32.83969895  130.86638591
112  32.83969895  130.86638591  32.83932360  130.86663339
112  32.83749117  130.86766891  32.83676452  130.86808047
111  32.83749117  130.86766891
112  32.83749117  130.86766891  32.83738150  130.86767390
112  32.83711162  130.86763134  32.83701994  130.86761544
111  32.83711162  130.86763134
112  32.83711162  130.86763134  32.83688016  130.86776213
112  32.83673038  130.86784700  32.83673198  130.86785100
111  32.83673038  130.86784700
112  32.83673038  130.86784700  32.83678698  130.86798824
112  32.83690000  130.86826695  32.83695532  130.86840491
111  32.83690000  130.86826695
112  32.83690000  130.86826695  32.83690122  130.86827001
112  32.83691288  130.86821897  32.83692015  130.86819102
111  32.83691288  130.86821897
112  32.83691288  130.86821897  32.83703809  130.86814468
112  32.83707387  130.86812613  32.83717945  130.86807275
111  32.83707387  130.86812613
112  32.83707387  130.86812613  32.83710870  130.86810574
112  32.83760773  130.86781464  32.83764732  130.86779711
111  32.83760773  130.86781464
112  32.83760773  130.86781464  32.83764738  130.86781434
112  32.83772485  130.86789548  32.83774185  130.86795360
111  32.83772485  130.86789548
112  32.83772485  130.86789548  32.83777488  130.86787175
112  32.83784861  130.86782417  32.83789928  130.86779231
111  32.83784861  130.86782417
112  32.83784861  130.86782417  32.83782184  130.86770882
112  32.83791650  130.86763916  32.83795359  130.86761825
111  32.83791650  130.86763916
112  32.83791650  130.86763916  32.83794378  130.86762378
112  32.83805793  130.86771111  32.83807546  130.86779156
111  32.83805793  130.86771111
112  32.83805793  130.86771111  32.83804306  130.86771973
112  32.83795603  130.86777149  32.83793250  130.86778609
111  32.83795603  130.86777149
112  32.83795603  130.86777149  32.83798111  130.86782639
112  32.83805974  130.86801334  32.83808717  130.86807918
111  32.83805974  130.86801334
112  32.83805974  130.86801334  32.83812370  130.86798198
112  32.83821137  130.86792293  32.83825290  130.86789888
111  32.83821137  130.86792293
112  32.83821137  130.86792293  32.83824460  130.86799997
112  32.83830499  130.86815845  32.83833584  130.86824000
111  32.83830499  130.86815845
112  32.83830499  130.86815845  32.83836566  130.86812668
112  32.83844122  130.86808002  32.83848645  130.86805298
111  32.83844122  130.86808002
112  32.83844122  130.86808002  32.83845500  130.86810791
111  32.83849710  130.86821371
111  32.83975024  130.86748935
111  32.83950571  130.86685667
112  32.83952185  130.86676893  32.83957917  130.86674129
111  32.83952185  130.86676893
112  32.83952185  130.86676893  32.83957683  130.86673763
112  32.83975491  130.86663128  32.83982969  130.86658875
111  32.83975491  130.86663128
112  32.83975491  130.86663128  32.83989221  130.86658075
112  32.83996250  130.86669657  32.83998726  130.86671893
111  32.83996250  130.86669657
112  32.83996250  130.86669657  32.84000462  130.86680161
112  32.84009999  130.86704451  32.84014096  130.86714690
111  32.84009999  130.86704451
112  32.84009999  130.86704451  32.84011900  130.86709463
112  32.84007436  130.86735391  32.83994642  130.86744723
111  32.84007436  130.86735391
112  32.84007436  130.86735391  32.83964333  130.86763163
111  32.83822182  130.86845149
111  32.83858151  130.86932147
111  32.83923744  130.86893713
112  32.83905865  130.86847385  32.83897831  130.86827042
111  32.83905865  130.86847385
112  32.83905865  130.86847385  32.83902253  130.86836616
112  32.83911022  130.86818686  32.83922118  130.86806680
111  32.83911022  130.86818686
112  32.83911022  130.86818686  32.83910724  130.86817838
112  32.83910028  130.86815454  32.83909764  130.86814346
111  32.83910028  130.86815454
112  32.83910028  130.86815454  32.83920786  130.86808764
112  32.83993221  130.86768658  32.84021465  130.86754198
111  32.83993221  130.86768658
112  32.83993221  130.86768658  32.83996242  130.86766911
112  32.83998100  130.86769406  32.83999429  130.86770574
111  32.83998100  130.86769406
112  32.83998100  130.86769406  32.84002666  130.86768049
112  32.84014429  130.86761136  32.84016687  130.86759874
111  32.84014429  130.86761136
112  32.84014429  130.86761136  32.84030930  130.86750658
112  32.84041134  130.86782737  32.84041293  130.86783137
111  32.84041134  130.86782737
112  32.84041134  130.86782737  32.84044761  130.86791860
112  32.84056220  130.86820421  32.84059662  130.86829097
111  32.84056220  130.86820421
112  32.84056220  130.86820421  32.84056582  130.86821335
112  32.84052043  130.86853313  32.84037457  130.86866234
111  32.84052043  130.86853313
112  32.84052043  130.86853313  32.84004835  130.86882180
111  32.83934989  130.86919832
111  32.83930470  130.86908554
111  32.83885479  130.86934382
111  32.83928607  130.87033242
111  32.83978790  130.87005219
111  32.84002719  130.87064806
111  32.84068395  130.87026831
111  32.84033709  130.86941074
112  32.84030124  130.86915595  32.84033946  130.86905009
111  32.84030124  130.86915595
112  32.84030124  130.86915595  32.84032086  130.86901309
112  32.84065627  130.86886876  32.84079730  130.86880241
111  32.84065627  130.86886876
112  32.84065627  130.86886876  32.84081927  130.86881095
111  32.84087442  130.86897362
112  32.84122317  130.86984653  32.84127973  130.86996619
112  32.84203598  130.87021892  32.84251132  130.87005442
111  32.84203598  130.87021892
112  32.84203598  130.87021892  32.84242626  130.87001135
111  32.84287563  130.86975772
111  32.84261917  130.86912021
112  32.84248430  130.86945471  32.84232308  130.86956624
111  32.84248430  130.86945471
112  32.84248430  130.86945471  32.84223259  130.86962762
112  32.84190756  130.86975503  32.84181458  130.86976704
111  32.84190756  130.86975503
112  32.84190756  130.86975503  32.84181154  130.86976528
112  32.84158397  130.86961764  32.84143930  130.86949205
111  32.84158397  130.86961764
112  32.84158397  130.86961764  32.84151720  130.86952512
112  32.84137038  130.86921597  32.84129205  130.86903412
111  32.84137038  130.86921597
112  32.84137038  130.86921597  32.84131361  130.86910102
112  32.84014182  130.86614150  32.83939262  130.86427698
111  32.84014182  130.86614150
112  32.84014182  130.86614150  32.84012583  130.86610170
112  32.84016998  130.86547624  32.84035916  130.86522151
111  32.84016998  130.86547624
112  32.84016998  130.86547624  32.84034858  130.86532229
112  32.84074987  130.86511680  32.84096570  130.86502898
111  32.84074987  130.86511680
112  32.84074987  130.86511680  32.84087024  130.86506373
111  32.84103729  130.86517480
111  32.84069094  130.86430702
112  32.84059348  130.86459398  32.84048691  130.86467650
111  32.84059348  130.86459398
112  32.84059348  130.86459398  32.84038005  130.86473839
112  32.83999859  130.86492088  32.83966296  130.86505819
111  32.83999859  130.86492088
112  32.83999859  130.86492088  32.83960226  130.86497989
112  32.83939240  130.86429193  32.83927457  130.86411285
111  32.83939240  130.86429193
112  32.83939240  130.86429193  32.83934751  130.86417992
112  32.83922749  130.86393809  32.83917414  130.86380431
111  32.83922749  130.86393809
112  32.83922749  130.86393809  32.83897437  130.86330337
112  32.83843289  130.86194566  32.83821772  130.86138467
111  32.83843289  130.86194566
112  32.83843289  130.86194566  32.83829996  130.86157759
111  32.83820189  130.86129224
112  32.83833340  130.86055620  32.83867209  130.86029607
111  32.83833340  130.86055620
112  32.83833340  130.86055620  32.83856096  130.86043361
112  32.83884532  130.86028195  32.83906661  130.86019489
111  32.83884532  130.86028195
112  32.83884532  130.86028195  32.83897297  130.86024166
111  32.83912154  130.86039734
111  32.83875217  130.85947724
112  32.83866329  130.85977130  32.83855512  130.85988925
111  32.83866329  130.85977130
112  32.83866329  130.85977130  32.83863344  130.85979704
112  32.83843558  130.85992563  32.83827500  130.86001384
111  32.83843558  130.85992563
112  32.83843558  130.85992563  32.83835793  130.85996829
112  32.83810337  130.86009146  32.83795139  130.86015495
111  32.83810337  130.86009146
112  32.83810337  130.86009146  32.83805053  130.86012055
112  32.83765576  130.85988672  32.83747497  130.85962715
111  32.83765576  130.85988672
112  32.83765576  130.85988672  32.83747217  130.85950130
111  32.83726787  130.85906486
111  32.83653772  130.85724268
111  32.83651295  130.85712808
111  32.83631866  130.85660122
112  32.83629629  130.85601848  32.83640884  130.85575374
111  32.83629629  130.85601848
112  32.83629629  130.85601848  32.83649021  130.85576396
112  32.83689240  130.85559055  32.83720431  130.85540714
111  32.83689240  130.85559055
112  32.83689240  130.85559055  32.83712007  130.85553044
111  32.83723651  130.85569730
111  32.83685394  130.85474747
112  32.83678723  130.85504008  32.83671785  130.85510677
111  32.83678723  130.85504008
112  32.83678723  130.85504008  32.83673925  130.85509219
112  32.83648202  130.85524426  32.83635267  130.85532198
111  32.83648202  130.85524426
112  32.83648202  130.85524426  32.83632254  130.85534009
112  32.83598662  130.85537812  32.83582361  130.85532469
111  32.83598662  130.85537812
112  32.83598662  130.85537812  32.83573920  130.85530297
111  32.83554512  130.85468523
111  32.83540343  130.85439154
111  32.83463695  130.85248313
111  32.83441476  130.85183878
112  32.83432586  130.85132877  32.83437965  130.85112723
111  32.83432586  130.85132877
112  32.83432586  130.85132877  32.83436335  130.85113324
112  32.83456409  130.85098988  32.83464766  130.85092288
111  32.83456409  130.85098988
112  32.83456409  130.85098988  32.83473711  130.85087328
112  32.83500545  130.85074700  32.83510228  130.85069475
111  32.83500545  130.85074700
112  32.83500545  130.85074700  32.83518366  130.85070457
111  32.83528795  130.85084198
111  32.83492729  130.84994287
112  32.83480206  130.85026647  32.83464991  130.85040199
111  32.83480206  130.85026647
112  32.83480206  130.85026647  32.83461165  130.85038696
112  32.83416050  130.85056452  32.83402160  130.85052349
111  32.83416050  130.85056452
112  32.83416050  130.85056452  32.83390466  130.85060338
111  32.83369029  130.85006492
111  32.83247550  130.84703254
112  32.83239877  130.84644796  32.83248988  130.84622792
111  32.83239877  130.84644796
112  32.83239877  130.84644796  32.83249713  130.84615670
112  32.83306414  130.84592666  32.83326435  130.84579930
111  32.83306414  130.84592666
112  32.83306414  130.84592666  32.83310975  130.84591577
112  32.83330028  130.84596691  32.83339187  130.84602765
111  32.83330028  130.84596691
112  32.83330028  130.84596691  32.83332618  130.84598004
111  32.83334839  130.84600718
112  32.83299692  130.84513026  32.83294195  130.84498975
111  32.83299692  130.84513026
112  32.83299692  130.84513026  32.83301172  130.84543312
112  32.83257406  130.84562443  32.83242901  130.84569832
111  32.83257406  130.84562443
112  32.83257406  130.84562443  32.83235201  130.84575570
112  32.83215547  130.84573830  32.83201588  130.84569989
111  32.83215547  130.84573830
112  32.83215547  130.84573830  32.83198320  130.84569385
111  32.83189870  130.84553608
111  32.83165145  130.84501321
111  32.83144678  130.84452839
111  32.83089510  130.84316037
111  32.83074341  130.84275212
111  32.83059353  130.84231410
111  32.83054743  130.84219130
112  32.83068142  130.84149186  32.83101042  130.84119331
111  32.83068142  130.84149186
112  32.83068142  130.84149186  32.83100448  130.84129940
112  32.83112928  130.84124146  32.83141395  130.84108217
111  32.83112928  130.84124146
112  32.83112928  130.84124146  32.83117134  130.84121792
112  32.83146423  130.84130803  32.83159687  130.84146457
111  32.83146423  130.84130803
114  32.83146423  130.84130803  32.83141602  130.84118496
110 2 0.00 157.0 New Taxiway 2
112  32.83180858  130.84774902  32.83176182  130.84764227
112  32.83157962  130.84763723  32.83152281  130.84765769
112  32.83143074  130.84784279  32.83141686  130.84796142
112  32.83153992  130.84808653  32.83159384  130.84813297
111  32.83153992  130.84808653
112  32.83153992  130.84808653  32.83155028  130.84809545
112  32.83157827  130.84810452  32.83159345  130.84810802
111  32.83157827  130.84810452
112  32.83157827  130.84810452  32.83160409  130.84811048
112  32.83166568  130.84811105  32.83169571  130.84811160
111  32.83166568  130.84811105
112  32.83166568  130.84811105  32.83170986  130.84811186
112  32.83177269  130.84813745  32.83179337  130.84816110
111  32.83177269  130.84813745
112  32.83177269  130.84813745  32.83181570  130.84818664
111  32.83198808  130.84840382
112  32.83195927  130.84859900  32.83184078  130.84865917
111  32.83160625  130.84880346
111  32.83210306  130.85005425
111  32.83223485  130.85038603
111  32.83213420  130.85044337
111  32.83250425  130.85136950
111  32.83260711  130.85131490
111  32.83272383  130.85159861
111  32.83262627  130.85165753
111  32.83235723  130.85182000
111  32.83348510  130.85474328
111  32.83370376  130.85528449
112  32.83412716  130.85504656  32.83430125  130.85495352
111  32.83412716  130.85504656
112  32.83412716  130.85504656  32.83411748  130.85502007
112  32.83410923  130.85499841  32.83410098  130.85497675
111  32.83410923  130.85499841
112  32.83410923  130.85499841  32.83443075  130.85481381
112  32.83483026  130.85458795  32.83484799  130.85457746
111  32.83483026  130.85458795
112  32.83483026  130.85458795  32.83482193  130.85456593
112  32.83471467  130.85430209  32.83468965  130.85424433
111  32.83471467  130.85430209
112  32.83471467  130.85430209  32.83466488  130.85432729
112  32.83463770  130.85434126  32.83462458  130.85434750
111  32.83463770  130.85434126
112  32.83463770  130.85434126  32.83462018  130.85430026
112  32.83451416  130.85404415  32.83441538  130.85379370
111  32.83451416  130.85404415
112  32.83451416  130.85404415  32.83448418  130.85396815
112  32.83379995  130.85226141  32.83339318  130.85126820
111  32.83379995  130.85226141
112  32.83379995  130.85226141  32.83370905  130.85204560
112  32.83349101  130.85150081  32.83345940  130.85142239
111  32.83349101  130.85150081
112  32.83349101  130.85150081  32.83345456  130.85141183
112  32.83338567  130.85123066  32.83334947  130.85114255
111  32.83338567  130.85123066
112  32.83338567  130.85123066  32.83334919  130.85120678
112  32.83331992  130.85118635  32.83329064  130.85116592
111  32.83331992  130.85118635
112  32.83331992  130.85118635  32.83273976  130.84977624
111  32.83222342  130.84844832
112  32.83205349  130.84834780  32.83193573  130.84819684
114  32.83183086  130.84800834  32.83182362  130.84795954
110 1 0.00 0.0 New Taxiway 1
111  32.83316486  130.84384586
111  32.83414424  130.84329598
111  32.83413538  130.84326511
111  32.83347844  130.84363182
112  32.83344972  130.84362121  32.83343442  130.84361376
111  32.83341455  130.84359509
111  32.83334756  130.84344241
113  32.83306542  130.84359772
110 1 0.00 0.0 New Taxiway 2
111  32.84103589  130.86516818
111  32.84072859  130.86533732
111  32.84082216  130.86558462
113  32.84113065  130.86540580
110 2 0.00 0.0 New Taxiway 23
111  32.83777327  130.86115769
111  32.83761375  130.86075344
111  32.83783449  130.86062632
111  32.83750932  130.85981701
111  32.83750136  130.85982209
111  32.83568051  130.85527040
111  32.83542458  130.85541752
111  32.83565678  130.85599499
111  32.83436439  130.85671955
111  32.83403209  130.85590175
111  32.83395732  130.85594412
111  32.83394308  130.85599497
111  32.83426564  130.85680179
111  32.83420843  130.85684165
111  32.83574571  130.86067645
111  32.83625027  130.86193746
111  32.83640964  130.86185846
111  32.83643378  130.86192031
113  32.83774135  130.86117568
110 1 0.00 0.0 New Taxiway 25
111  32.83157827  130.84810452
112  32.83159294  130.84813310  32.83159485  130.84814336
111  32.83159438  130.84816449
112  32.83155129  130.84878098  32.83155071  130.84879671
112  32.83156462  130.84885610  32.83156922  130.84886705
111  32.83205796  130.85008031
111  32.83210306  130.85005425
111  32.83160625  130.84880346
112  32.83159008  130.84874673  32.83158870  130.84871716
112  32.83163296  130.84814011  32.83164331  130.84812697
113  32.83166568  130.84811105
110 1 0.00 0.0 New Taxiway 28
111  32.83672034  130.85704170
111  32.83688129  130.85743156
111  32.83695227  130.85739292
113  32.83679259  130.85699886
110 1 0.00 0.0 New Taxiway 1
111  32.83412724  130.85584736
111  32.83410317  130.85577553
111  32.83352837  130.85609998
111  32.83481440  130.85938375
111  32.83476633  130.85941211
111  32.83503013  130.86007070
111  32.83507105  130.86005113
111  32.83511113  130.86013873
111  32.83514129  130.86011802
111  32.83542775  130.86083902
111  32.83574571  130.86067645
111  32.83507226  130.85900719
111  32.83420843  130.85684165
111  32.83426564  130.85680179
111  32.83394308  130.85599497
111  32.83395732  130.85594412
113  32.83403209  130.85590175
111  32.83514696  130.85986464
111  32.83516537  130.85985426
111  32.83519057  130.85992115
111  32.83525646  130.85988771
111  32.83528941  130.85996613
113  32.83520220  130.86001457
110 1 0.00 0.0 New Taxiway 24
112  32.83255240  130.85137236  32.83256829  130.85137792
111  32.83258389  130.85141233
111  32.83264742  130.85157348
112  32.83265232  130.85161575  32.83264811  130.85163355
111  32.83262627  130.85165753
111  32.83272383  130.85159861
111  32.83260711  130.85131490
113  32.83250425  130.85136950
110 2 0.00 0.0 New Taxiway 36
111  32.83707387  130.86812613
112  32.83708878  130.86813787  32.83709067  130.86814205
111  32.83726669  130.86857797
111  32.83740113  130.86850155
111  32.83741760  130.86854487
111  32.83760866  130.86843054
112  32.83754416  130.86829426  32.83754093  130.86829138
111  32.83750963  130.86828680
112  32.83740730  130.86805414  32.83740649  130.86804261
112  32.83741812  130.86795991  32.83742862  130.86793012
113  32.83747368  130.86789279
111  32.83718346  130.86824896
111  32.83714066  130.86813843
112  32.83713614  130.86812113  32.83713647  130.86811727
112  32.83713889  130.86810729  32.83713921  130.86810381
111  32.83714824  130.86808277
111  32.83726336  130.86803311
112  32.83727310  130.86805674  32.83727702  130.86806007
112  32.83730943  130.86807788  32.83731336  130.86808455
111  32.83732801  130.86811632
111  32.83742572  130.86835660
111  32.83731186  130.86843060
112  32.83727633  130.86843637  32.83726692  130.86843598
113  32.83724645  130.86840465
110 1 0.00 0.0 New Taxiway 42
111  32.83491137  130.86215650
112  32.83541427  130.86186740  32.83543404  130.86185485
112  32.83549778  130.86167768  32.83550700  130.86165102
112  32.83551296  130.86159185  32.83551559  130.86157617
112  32.83547690  130.86139084  32.83546899  130.86135947
111  32.83387710  130.85740450
112  32.83384674  130.85732093  32.83383356  130.85729584
112  32.83372718  130.85718542  32.83371005  130.85717601
112  32.83361332  130.85715380  32.83359487  130.85715380
112  32.83345581  130.85719671  32.83343472  130.85720769
111  32.83327932  130.85732319
111  32.83331990  130.85742907
111  32.83343115  130.85736530
112  32.83349266  130.85734816  32.83350639  130.85734453
112  32.83358053  130.85734837  32.83359898  130.85735465
112  32.83364916  130.85738787  32.83367816  130.85740669
111  32.83372871  130.85749766
111  32.83384692  130.85779541
111  32.83383101  130.85792389
111  32.83386947  130.85802089
111  32.83394951  130.85797082
111  32.83534975  130.86145633
112  32.83536683  130.86151053  32.83536947  130.86151838
112  32.83537442  130.86161217  32.83536915  130.86164511
112  32.83533457  130.86173413  32.83531744  130.86176393
111  32.83525486  130.86184480
113  32.83488480  130.86205033
130 Airport Boundary 4
111  32.84622512  130.87300769
111  32.83448605  130.84326534
111  32.83388802  130.84005981
111  32.83191191  130.83734308
111  32.83022563  130.83833891
111  32.82867395  130.83940312
111  32.82970576  130.84254374
111  32.83193954  130.85404862
111  32.83366273  130.86050351
111  32.83553094  130.86445365
111  32.83709551  130.86874216
111  32.84024753  130.87160048
113  32.84299735  130.87472862
120 Linear Feature 13
111  32.83479629  130.85630616 1
115  32.83474646  130.85633257
120 Linear Feature 13
111  32.83535552  130.85599763 1
115  32.83532724  130.85601604
120 Linear Feature 12
111  32.83456449  130.85635328 1
115  32.83453564  130.85634162
120 Linear Feature 12
111  32.83453138  130.85636508 1
115  32.83451581  130.85641855
120 Linear Feature 12
111  32.83493811  130.85613579 1
115  32.83492139  130.85619186
120 Linear Feature 12
111  32.83497206  130.85612715 1
115  32.83494558  130.85611181
120 Linear Feature 5
112  32.83460191  130.85601063  32.83434587  130.85615354 2
115  32.83437063  130.85614098
120 Linear Feature 4
112  32.83460191  130.85601063  32.83456633  130.85610109 1
111  32.83465193  130.85614816 1
112  32.83473042  130.85634163  32.83473922  130.85636349 1
116  32.83456449  130.85635328  32.83449095  130.85622220
120 Linear Feature 4
112  32.83500221  130.85578729  32.83498853  130.85590038 1
111  32.83505941  130.85591913 1
112  32.83513667  130.85611333  32.83514547  130.85613518 1
116  32.83497206  130.85612715  32.83489825  130.85599983
120 Linear Feature 58
111  32.83597808  130.85631037 1
116  32.83557458  130.85652359  32.83525338  130.85642462
120 Linear Feature 58
111  32.83624689  130.85698788 1
116  32.83583758  130.85719443  32.83552638  130.85707804
120 Linear Feature 57
111  32.83559887  130.85537310 1
112  32.83556007  130.85546938  32.83551396  130.85550713
111  32.83556007  130.85546938
112  32.83556007  130.85546938  32.83541386  130.85555720 1
112  32.83500221  130.85578729  32.83481014  130.85589466
111  32.83500221  130.85578729
112  32.83500221  130.85578729  32.83478438  130.85590906 1
115  32.83460191  130.85601063
120 Linear Feature 57
111  32.83596311  130.85627464 1
112  32.83557458  130.85652359  32.83546840  130.85685579
111  32.83557458  130.85652359
112  32.83557458  130.85652359  32.83526254  130.85671101 1
115  32.83458206  130.85707903
120 Linear Feature 57
111  32.83623177  130.85694984 1
112  32.83583758  130.85719443  32.83571040  130.85752883
111  32.83583758  130.85719443
112  32.83583758  130.85719443  32.83582720  130.85720021 1
115  32.83486700  130.85773949
120 Linear Feature 66
111  32.83757713  130.86029987 1
116  32.83716429  130.86053346  32.83684292  130.86042615
120 Linear Feature 66
111  32.83728416  130.85958032 1
116  32.83686663  130.85980952  32.83656271  130.85969407
120 Linear Feature 65
111  32.83757713  130.86029987 1
112  32.83716429  130.86053346  32.83703708  130.86090581
111  32.83716429  130.86053346
112  32.83716429  130.86053346  32.83670317  130.86079735 1
115  32.83617673  130.86108806
120 Linear Feature 65
111  32.83728416  130.85958032 1
112  32.83686663  130.85980952  32.83670973  130.86017785
111  32.83686663  130.85980952
112  32.83686663  130.85980952  32.83640494  130.86007784 1
115  32.83588788  130.86035794
120 Linear Feature 64
111  32.83703067  130.85894614 1
116  32.83661969  130.85918314  32.83627147  130.85909347
120 Linear Feature 63
111  32.83703067  130.85894614 1
112  32.83661969  130.85918314  32.83647763  130.85955185
111  32.83661969  130.85918314
112  32.83661969  130.85918314  32.83623159  130.85940129 1
115  32.83563789  130.85973537
120 Linear Feature 62
111  32.83678748  130.85833925 1
116  32.83637300  130.85855331  32.83607191  130.85843853
120 Linear Feature 61
111  32.83678114  130.85831175 1
112  32.83637300  130.85855331  32.83628080  130.85889147
111  32.83637300  130.85855331
112  32.83637300  130.85855331  32.83636578  130.85855801 1
112  32.83633436  130.85857416  32.83632799  130.85857581
111  32.83633436  130.85857416
112  32.83633436  130.85857416  32.83624101  130.85863445 1
112  32.83605517  130.85873003  32.83596782  130.85878145
111  32.83605517  130.85873003
112  32.83605517  130.85873003  32.83568629  130.85894718 1
115  32.83540263  130.85909166
120 Linear Feature 46
111  32.83871496  130.86795264 1
115  32.83875788  130.86805776
120 Linear Feature 45
111  32.83883490  130.86789006 1
115  32.83887650  130.86799381
120 Linear Feature 44
111  32.83895305  130.86782025 1
115  32.83899366  130.86792372
120 Linear Feature 43
111  32.83907282  130.86775725 1
115  32.83911202  130.86785958
120 Linear Feature 42
111  32.83918810  130.86768875 1
115  32.83923075  130.86779109
120 Linear Feature 41
111  32.83930916  130.86762635 1
115  32.83934639  130.86772049
120 Linear Feature 40
111  32.83920740  130.86739458 1
115  32.83925115  130.86749478
120 Linear Feature 39
111  32.83909432  130.86746138 1
115  32.83913559  130.86756355
120 Linear Feature 38
111  32.83897475  130.86752954 1
115  32.83901602  130.86763392
120 Linear Feature 37
111  32.83885496  130.86759977 1
115  32.83890024  130.86770074
120 Linear Feature 36
111  32.83873915  130.86766920 1
115  32.83878100  130.86777017
120 Linear Feature 35
111  32.83862107  130.86773811 1
115  32.83866348  130.86783908
120 Linear Feature 34
111  32.83851556  130.86748110 1
115  32.83855797  130.86758480
120 Linear Feature 33
111  32.83863421  130.86741151 1
115  32.83867663  130.86751316
120 Linear Feature 32
111  32.83874986  130.86734386 1
115  32.83879266  130.86744533
120 Linear Feature 31
111  32.83886975  130.86727393 1
115  32.83891221  130.86737619
120 Linear Feature 30
111  32.83899277  130.86720339 1
115  32.83903404  130.86730458
120 Linear Feature 29
111  32.83910854  130.86713523 1
115  32.83915033  130.86723710
120 Linear Feature 28
111  32.83942710  130.86756098 1
111  32.83859780  130.86802146
111  32.83864001  130.86812369
113  32.83946258  130.86765418 1
120 Linear Feature 28
111  32.83932473  130.86732555 1
111  32.83849460  130.86781107 1
111  32.83853681  130.86791330 1
113  32.83936694  130.86742778 1
120 Linear Feature 28
111  32.83922632  130.86706582 1
111  32.83839618  130.86755134 1
111  32.83843839  130.86765356 1
113  32.83926852  130.86716804 1
120 Linear Feature 26
111  32.83933872  130.86712108 1
112  32.83928681  130.86723854  32.83920489  130.86728514 1
111  32.83850246  130.86767948 1
116  32.83836829  130.86766836  32.83833338  130.86758769
120 Linear Feature 25
111  32.83935730  130.86672344 1
112  32.83930476  130.86703772  32.83938705  130.86723805
111  32.83930476  130.86703772
112  32.83930476  130.86703772  32.83931689  130.86706725 1
112  32.83933872  130.86712108  32.83934923  130.86714707
111  32.83933872  130.86712108
112  32.83933872  130.86712108  32.83939948  130.86727145 1
111  32.83943255  130.86736036 1
112  32.83938524  130.86749286  32.83929344  130.86755151 1
111  32.83863075  130.86791408 1
112  32.83845877  130.86789806  32.83841068  130.86777252
111  32.83845877  130.86789806
112  32.83845877  130.86789806  32.83843245  130.86782934 1
112  32.83836829  130.86766836  32.83834063  130.86759926
111  32.83836829  130.86766836
112  32.83836829  130.86766836  32.83834542  130.86761123 1
111  32.83832861  130.86756968 1
116  32.83838841  130.86726635  32.83852470  130.86712327
120 Linear Feature 23
111  32.84058331  130.86869821 1 101
116  32.84101946  130.86888821  32.84119015  130.86918822
120 Linear Feature 19
111  32.83976196  130.86649668 1 101
116  32.84010708  130.86660976  32.84024523  130.86684528
120 Linear Feature 18
111  32.83890105  130.86452806 1
116  32.83934809  130.86471253  32.83952441  130.86501961
120 Linear Feature 17
111  32.83905577  130.86397867 1
112  32.83890105  130.86452806  32.83862699  130.86473752
111  32.83890105  130.86452806
112  32.83890105  130.86452806  32.83880058  130.86458433 1
112  32.83868088  130.86465645  32.83863813  130.86467866
111  32.83868088  130.86465645
112  32.83868088  130.86465645  32.83861666  130.86468981 1
112  32.83859520  130.86460159  32.83857706  130.86456996
111  32.83859520  130.86460159
112  32.83859520  130.86460159  32.83858282  130.86457777 1
112  32.83848405  130.86458810  32.83838250  130.86465162 1
111  32.83819100  130.86475540 1
112  32.83816898  130.86485157  32.83820287  130.86493607 1
111  32.83824661  130.86503249 1
112  32.83832359  130.86503518  32.83839205  130.86499783 1
111  32.83861298  130.86486909 1
112  32.83866095  130.86476408  32.83861799  130.86469050
111  32.83866095  130.86476408
112  32.83866095  130.86476408  32.83862060  130.86468216 1
116  32.83868088  130.86465645  32.83869656  130.86464797
120 Linear Feature 16
111  32.84009578  130.86518084 1 101
112  32.83987986  130.86604131  32.84011541  130.86660115
111  32.83987986  130.86604131
112  32.83987986  130.86604131  32.83988906  130.86606422 1 101
112  32.83990686  130.86610853  32.83991440  130.86612430
111  32.83990686  130.86610853
112  32.83990686  130.86610853  32.83995313  130.86631127 1 101
112  32.83976196  130.86649668  32.83966569  130.86655922
111  32.83976196  130.86649668
112  32.83976196  130.86649668  32.83974549  130.86651095 1 101
112  32.83935730  130.86672344  32.83909846  130.86687225
111  32.83935730  130.86672344
112  32.83935730  130.86672344  32.83908884  130.86687778 1 101
112  32.83838841  130.86726635  32.83804033  130.86746394
111  32.83838841  130.86726635
112  32.83838841  130.86726635  32.83800298  130.86748515 1 101
112  32.83738041  130.86783714  32.83713557  130.86797548
111  32.83738041  130.86783714
112  32.83738041  130.86783714  32.83721044  130.86793318 1 101
111  32.83710450  130.86799294 1 101
112  32.83697828  130.86797161  32.83694357  130.86788321 1 101
111  32.83693484  130.86786120 1 101
112  32.83695686  130.86776633  32.83700107  130.86772728 1 101
111  32.83710672  130.86768058 1 101
112  32.83720855  130.86769837  32.83721344  130.86771248 1 101
111  32.83726137  130.86782719 1 101
116  32.83738041  130.86783714  32.83746840  130.86778402
120 Linear Feature 15
111  32.84131943  130.86505022 1 105
116  32.84068492  130.86485190  32.84030702  130.86501896
120 Linear Feature 14
111  32.84092808  130.86407562 1 105
112  32.84068492  130.86485190  32.84027942  130.86514723
111  32.84068492  130.86485190
112  32.84068492  130.86485190  32.84068394  130.86485262 1 101
112  32.84068492  130.86485190  32.84067762  130.86485539
111  32.84068492  130.86485190
112  32.84068492  130.86485190  32.84057632  130.86491302 1 105
112  32.84039613  130.86501434  32.84032072  130.86505647
111  32.84039613  130.86501434
112  32.84039613  130.86501434  32.84018314  130.86513333 7 105
111  32.84009578  130.86518084 1 101
116  32.83943412  130.86492979  32.83915174  130.86446912
120 Linear Feature 13
111  32.83815483  130.86036608 1 101
116  32.83792845  130.86117569  32.83810144  130.86172096
120 Linear Feature 12
111  32.83966687  130.86095324 1 101
112  32.83937560  130.86023436  32.83935565  130.86019639
111  32.83937560  130.86023436
112  32.83937560  130.86023436  32.83931826  130.86015404 1 101
116  32.83874613  130.86003435  32.83836359  130.86018810
120 Linear Feature 11
111  32.83886315  130.85894849 1 101
112  32.83899190  130.85926611  32.83899515  130.85927838
111  32.83899190  130.85926611
112  32.83899190  130.85926611  32.83901867  130.85936719 1 101
112  32.83874613  130.86003435  32.83837584  130.86031683
111  32.83874613  130.86003435
112  32.83874613  130.86003435  32.83834117  130.86025767 1 101
112  32.83815483  130.86036608  32.83810356  130.86039588 1 101
116  32.83749599  130.86009509  32.83731853  130.85968957
120 Linear Feature 10
111  32.83627100  130.85564936 1 101
116  32.83603961  130.85647236  32.83621499  130.85701728
120 Linear Feature 9
111  32.83761117  130.85582173 1 105
112  32.83748217  130.85551402  32.83746329  130.85548619
111  32.83748217  130.85551402
112  32.83748217  130.85551402  32.83744174  130.85546064 1 105
116  32.83687679  130.85530751  32.83653157  130.85542803
120 Linear Feature 8
111  32.83707032  130.85445226 1 105
112  32.83687679  130.85530751  32.83644823  130.85565782
111  32.83687679  130.85530751
112  32.83687679  130.85530751  32.83675789  130.85537372 1 105
112  32.83656771  130.85548562  32.83648189  130.85553315
111  32.83656771  130.85548562
112  32.83656771  130.85548562  32.83637604  130.85559178 7 105
111  32.83627100  130.85564936 1 101
116  32.83560038  130.85537687  32.83532840  130.85489950
120 Linear Feature 6
111  32.83559420  130.85078921 1 105
116  32.83492955  130.85048849  32.83445628  130.85066216
120 Linear Feature 5
111  32.83509968  130.84955242 1 105
112  32.83519723  130.84989298  32.83521768  130.85005618
111  32.83519723  130.84989298
112  32.83519723  130.84989298  32.83520934  130.85009956 1 105
112  32.83492955  130.85048849  32.83475510  130.85058328
111  32.83492955  130.85048849
112  32.83492955  130.85048849  32.83481361  130.85055127 1 105
112  32.83463224  130.85065231  32.83454973  130.85069866
111  32.83463224  130.85065231
112  32.83463224  130.85065231  32.83441056  130.85077685 7 105
111  32.83430689  130.85084128 1 101
116  32.83367044  130.85055030  32.83342303  130.85009066
120 Linear Feature 4
111  32.83239644  130.84600227 1 101
116  32.83216383  130.84679252  32.83232175  130.84730568
120 Linear Feature 3
111  32.83366594  130.84598471 1 105
116  32.83299901  130.84566737  32.83250517  130.84583861
120 Linear Feature 2
111  32.83326637  130.84501697 1 105
112  32.83299901  130.84566737  32.83268516  130.84588994
111  32.83299901  130.84566737
112  32.83299901  130.84566737  32.83289292  130.84573037 1 105
112  32.83269832  130.84583552  32.83260652  130.84588657
111  32.83269832  130.84583552
112  32.83269832  130.84583552  32.83252317  130.84593293 57 105
111  32.83239644  130.84600227 1 101
116  32.83173706  130.84573236  32.83147078  130.84525694
120 Linear Feature 16
111  32.83491480  130.85440586 1 101
112  32.83511882  130.85439210  32.83521540  130.85443325 1 101
115  32.83525980  130.85452407
120 Linear Feature 1
111  32.83131647  130.84091666 1 105
112  32.83093504  130.84104757  32.83065691  130.84122102
111  32.83093504  130.84104757
112  32.83093504  130.84104757  32.83088588  130.84107823 1 105
112  32.83081013  130.84112278  32.83077540  130.84114349
111  32.83081013  130.84112278
112  32.83081013  130.84112278  32.83064536  130.84121217 7 105
112  32.83054694  130.84126789  32.83047092  130.84131224
111  32.83054694  130.84126789
112  32.83054694  130.84126789  32.83045460  130.84132176 1 101
112  32.83028417  130.84213082  32.83045978  130.84271583
111  32.83028417  130.84213082
112  32.83028417  130.84213082  32.83032213  130.84223206 1 101
112  32.83173706  130.84573236  32.83259484  130.84787043
111  32.83173706  130.84573236
112  32.83173706  130.84573236  32.83190413  130.84614879 1 101
112  32.83216383  130.84679252  32.83235124  130.84725948
111  32.83216383  130.84679252
112  32.83216383  130.84679252  32.83231291  130.84716397 1 101
112  32.83272652  130.84822580  32.83288648  130.84862427
111  32.83272652  130.84822580
112  32.83272652  130.84822580  32.83281609  130.84844892 1 101
112  32.83300967  130.84889762  32.83310222  130.84912813
111  32.83300967  130.84889762
112  32.83300967  130.84889762  32.83321402  130.84940658 1 101
112  32.83367044  130.85055030  32.83388689  130.85108931
111  32.83367044  130.85055030
112  32.83367044  130.85055030  32.83378520  130.85083608 1 101
112  32.83399047  130.85134995  32.83409885  130.85162054
111  32.83399047  130.85134995
112  32.83399047  130.85134995  32.83402355  130.85143255 1 101
112  32.83409377  130.85160736  32.83412984  130.85169703
111  32.83409377  130.85160736
112  32.83409377  130.85160736  32.83412361  130.85168157 1 101
112  32.83420364  130.85188716  32.83423363  130.85196184
111  32.83420364  130.85188716
112  32.83420364  130.85188716  32.83422206  130.85193303 1 101
112  32.83425799  130.85202259  32.83427646  130.85206858
111  32.83425799  130.85202259
112  32.83425799  130.85202259  32.83426126  130.85203073 1 101
112  32.83503872  130.85397136  32.83544072  130.85497217
111  32.83503872  130.85397136
112  32.83503872  130.85397136  32.83511441  130.85415980 1 101
112  32.83525980  130.85452407  32.83533171  130.85470433
111  32.83525980  130.85452407
112  32.83525980  130.85452407  32.83538350  130.85483413 1 101
112  32.83559887  130.85537310  32.83569749  130.85561868
111  32.83559887  130.85537310
112  32.83559887  130.85537310  32.83560038  130.85537687 1 101
112  32.83560340  130.85538438  32.83560490  130.85538813
111  32.83560340  130.85538438
112  32.83560340  130.85538438  32.83561945  130.85542434 1 101
112  32.83565178  130.85550488  32.83566797  130.85554523
111  32.83565178  130.85550488
112  32.83565178  130.85550488  32.83578021  130.85582494 1 101
112  32.83603961  130.85647236  32.83616687  130.85678911
111  32.83603961  130.85647236
112  32.83603961  130.85647236  32.83654652  130.85773412 1 101
112  32.83749599  130.86009509  32.83797942  130.86129819
111  32.83749599  130.86009509
112  32.83749599  130.86009509  32.83764205  130.86045858 1 101
112  32.83792845  130.86117569  32.83807031  130.86152873
111  32.83792845  130.86117569
112  32.83792845  130.86117569  32.83831196  130.86213010 1 101
112  32.83905577  130.86397867  32.83939572  130.86482457
111  32.83905577  130.86397867
112  32.83905577  130.86397867  32.83915269  130.86421984 1 101
112  32.83934809  130.86471253  32.83944049  130.86494243
111  32.83934809  130.86471253
112  32.83934809  130.86471253  32.83938345  130.86480049 1 101
112  32.83943412  130.86492979  32.83946877  130.86501600
111  32.83943412  130.86492979
112  32.83943412  130.86492979  32.83957471  130.86527962 1 101
112  32.83987986  130.86604131  32.84001267  130.86637206
111  32.83987986  130.86604131
112  32.83987986  130.86604131  32.83988906  130.86606422 1 101
112  32.83990686  130.86610853  32.83991566  130.86613042
111  32.83990686  130.86610853
112  32.83990686  130.86610853  32.83998969  130.86631463 1 101
112  32.84010708  130.86660976  32.84018391  130.86680092
111  32.84010708  130.86660976
112  32.84010708  130.86660976  32.84016574  130.86675573 1 101
112  32.84028459  130.86704870  32.84033952  130.86718537
111  32.84028459  130.86704870
112  32.84028459  130.86704870  32.84036709  130.86725397 1 101
112  32.84049958  130.86758214  32.84057309  130.86776503
111  32.84049958  130.86758214
112  32.84049958  130.86758214  32.84056523  130.86774548 1 101
112  32.84072732  130.86814827  32.84078528  130.86829247
111  32.84072732  130.86814827
112  32.84072732  130.86814827  32.84084725  130.86844665 1 101
112  32.84101946  130.86888821  32.84110327  130.86909671
111  32.84101946  130.86888821
112  32.84101946  130.86888821  32.84118461  130.86929908 1 101
112  32.84127335  130.86951082  32.84134059  130.86966579 1 101
112  32.84191338  130.87004651  32.84237866  130.86998883
111  32.84191338  130.87004651
112  32.84191338  130.87004651  32.84205664  130.87001131 7 105
112  32.84232637  130.86984046  32.84245942  130.86977252
111  32.84232637  130.86984046
112  32.84232637  130.86984046  32.84264369  130.86967467 1 105
116  32.84278090  130.86950527  32.84285689  130.86937973
120 Linear Feature 71
111  32.84058331  130.86869821 1 101
116  32.84072732  130.86814827  32.84061376  130.86778280
120 Linear Feature 70
111  32.84058331  130.86869821 1 101
115  32.84014278  130.86894866
120 Linear Feature 69
111  32.84014278  130.86894866 1
111  32.83991471  130.86907221 1
111  32.83975863  130.86916421 1
112  32.83970090  130.86942480  32.83978125  130.86961605 1
111  32.84002657  130.87023902 1
112  32.84021324  130.87034769  32.84033193  130.87028007 1
112  32.84037251  130.87025109  32.84040617  130.87022906 1
112  32.84039862  130.86996054  32.84030548  130.86973620 1
111  32.84008829  130.86919385 1 101
116  32.84014278  130.86894866  32.84027488  130.86886970
120 Linear Feature 4
111  32.84010828  130.86748197 1 101
116  32.84049958  130.86758214  32.84063527  130.86784699
120 Linear Feature 3
111  32.84028459  130.86704870 1 101
112  32.84010828  130.86748197  32.83981968  130.86764959 1 101
115  32.83983713  130.86763505
120 Linear Feature 28
111  32.83257346  130.85199875 1
111  32.83272407  130.85237529 1
111  32.83292107  130.85286781 1
111  32.83333190  130.85389491 1
111  32.83350559  130.85432915 1
115  32.83368079  130.85476717
120 Linear Feature 27
111  32.83359391  130.85251244 1
116  32.83372495  130.85255592  32.83375843  130.85263445
120 Linear Feature 26
111  32.83378928  130.85306482 1
116  32.83393964  130.85308808  32.83397586  130.85317573
120 Linear Feature 25
111  32.83398638  130.85354388 1
116  32.83413772  130.85358342  32.83418244  130.85369152
120 Linear Feature 24
111  32.83417675  130.85397490 1
116  32.83430692  130.85400804  32.83433765  130.85407685
120 Linear Feature 23
111  32.83430934  130.85439162 1
116  32.83448635  130.85442567  32.83452304  130.85450051
120 Linear Feature 21
111  32.83440598  130.85423270 1
112  32.83430934  130.85439162  32.83418078  130.85446231 1
115  32.83368079  130.85476717
120 Linear Feature 20
111  32.83423180  130.85381924 1
112  32.83417675  130.85397490  32.83407069  130.85403283 1
115  32.83350559  130.85432915
120 Linear Feature 19
111  32.83404971  130.85336319 1
112  32.83398638  130.85354388  32.83386758  130.85361630 1
115  32.83333190  130.85389491
120 Linear Feature 18
111  32.83385137  130.85286824 1
112  32.83378928  130.85306482  32.83368666  130.85312661 1
115  32.83313888  130.85341176
120 Linear Feature 17
111  32.83364318  130.85236016 1
112  32.83359391  130.85251244  32.83348959  130.85257279 1
115  32.83292107  130.85286781
120 Linear Feature 16
111  32.83350243  130.85202421 1
112  32.83334496  130.85204583  32.83321527  130.85212089 1
115  32.83272407  130.85237529
120 Linear Feature 15
111  32.83399047  130.85134995 1 101
112  32.83386575  130.85174671  32.83367052  130.85187883
111  32.83386575  130.85174671
112  32.83386575  130.85174671  32.83384813  130.85175760 1 101
112  32.83380198  130.85177908  32.83377333  130.85179378
111  32.83380198  130.85177908
112  32.83380198  130.85177908  32.83378466  130.85178467 1 101
112  32.83353256  130.85176383  32.83337257  130.85165887
111  32.83353256  130.85176383
112  32.83353256  130.85176383  32.83345606  130.85168674 1 101
112  32.83343065  130.85156879  32.83340167  130.85150474 1 101
112  32.83321744  130.85159258  32.83309126  130.85166765 1 101
115  32.83251078  130.85199136
120 Linear Feature 14
111  32.83430689  130.85084128 1 101
112  32.83409377  130.85160736  32.83423579  130.85208975
111  32.83409377  130.85160736
112  32.83409377  130.85160736  32.83411632  130.85166345 101
112  32.83420364  130.85188716  32.83422049  130.85192754
111  32.83420364  130.85188716
112  32.83420364  130.85188716  32.83410280  130.85168359 1 101
112  32.83386575  130.85174671  32.83380625  130.85178351
111  32.83386575  130.85174671
112  32.83386575  130.85174671  32.83384813  130.85175760 1 101
112  32.83380198  130.85177908  32.83378309  130.85179306
111  32.83380198  130.85177908
112  32.83380198  130.85177908  32.83373162  130.85183118 1 101
112  32.83367727  130.85191455  32.83364866  130.85197415 1 101
112  32.83364318  130.85236016  32.83373459  130.85256339
111  32.83364318  130.85236016
112  32.83364318  130.85236016  32.83365706  130.85239103 1 101
112  32.83372495  130.85255592  32.83376396  130.85265141
111  32.83372495  130.85255592
112  32.83372495  130.85255592  32.83376006  130.85264188 1 101
112  32.83385137  130.85286824  32.83389935  130.85298746
111  32.83385137  130.85286824
112  32.83385137  130.85286824  32.83387943  130.85293798 1 101
112  32.83393964  130.85308808  32.83397018  130.85316429
111  32.83393964  130.85308808
112  32.83393964  130.85308808  32.83397550  130.85317755 1 101
112  32.83404971  130.85336319  32.83408686  130.85345615
111  32.83404971  130.85336319
112  32.83404971  130.85336319  32.83407917  130.85343692 1 101
112  32.83413772  130.85358342  32.83416673  130.85365602
111  32.83413772  130.85358342
112  32.83413772  130.85358342  32.83417003  130.85366430 1 101
112  32.83423180  130.85381924  32.83426192  130.85389489
111  32.83423180  130.85381924
112  32.83423180  130.85381924  32.83425814  130.85388539 1 101
112  32.83430692  130.85400804  32.83433049  130.85406730
111  32.83430692  130.85400804
112  32.83430692  130.85400804  32.83434218  130.85409671 1 101
112  32.83440598  130.85423270  32.83443207  130.85429840
111  32.83440598  130.85423270
112  32.83440598  130.85423270  32.83445385  130.85435324 1 101
111  32.83448635  130.85442567 1 101
112  32.83467812  130.85454150  32.83483692  130.85445012 1 101
111  32.83491480  130.85440586 1 101
116  32.83503872  130.85397136  32.83492547  130.85366900
120 Linear Feature 60
111  32.83651681  130.85765991 1
116  32.83611354  130.85787043  32.83579211  130.85776702
120 Linear Feature 59
111  32.83650570  130.85762866 1
112  32.83611354  130.85787043  32.83598945  130.85820587
111  32.83611354  130.85787043
112  32.83611354  130.85787043  32.83567707  130.85812258 1
115  32.83512990  130.85843203
120 Linear Feature 14
112  32.83565178  130.85550488  32.83564957  130.85550069 1
116  32.83556007  130.85546938  32.83550775  130.85548665
120 Linear Feature 1
111  32.83132882  130.84069827 3 102
112  32.83047628  130.84117636  32.83040911  130.84121172 3 102
112  32.83025403  130.84140652  32.83020107  130.84150644 3 102
112  32.83013655  130.84182969  32.83013268  130.84204337 3 102
111  32.83020074  130.84218113 3 102
115  32.83384511  130.85126862
120 Linear Feature 3
111  32.83457839  130.85706862 1
111  32.83458206  130.85707903 1
115  32.83458556  130.85708904
120 Linear Feature 6
111  32.83302722  130.84492136 3 102
112  32.83306429  130.84508554  32.83306800  130.84517375 3 102
112  32.83304564  130.84528141  32.83303020  130.84535417 3 102
112  32.83287033  130.84553918  32.83279622  130.84558181 3 102
112  32.83244894  130.84577997  32.83239274  130.84580864 3 102
112  32.83225313  130.84582804  32.83218828  130.84582510 3 102
112  32.83204429  130.84577743  32.83197017  130.84573700 3 102
112  32.83183308  130.84556311  32.83179479  130.84548152 3 102
111  32.83148123  130.84481976 3 102
111  32.83070784  130.84289471 3 102
111  32.83050513  130.84228387 3 102
112  32.83042680  130.84203950  32.83041481  130.84197469 3 102
112  32.83043213  130.84176643  32.83045262  130.84167803 3 102
112  32.83060076  130.84145398  32.83068785  130.84138235
111  32.83060076  130.84145398
112  32.83060076  130.84145398  32.83061655  130.84144099 3 102
112  32.83070974  130.84137444  32.83075590  130.84135136
111  32.83070974  130.84137444
112  32.83070974  130.84137444  32.83085637  130.84129316 3 102
111  32.83106287  130.84117202 3 102
112  32.83123790  130.84112553  32.83132243  130.84112705 3 102
112  32.83145455  130.84119488  32.83155701  130.84125584 3 102
115  32.83161357  130.84139937
120 Linear Feature 8
111  32.83120138  130.84037335 10
111  32.83147107  130.84048737 10
115  32.83156211  130.84017140
120 Linear Feature 7
111  32.83111174  130.84015743 10
111  32.83138109  130.84027135 10
115  32.83147566  130.83995421
120 Linear Feature 10
111  32.83160828  130.84053245 1
115  32.83165069  130.84038986
120 Linear Feature 9
111  32.83128783  130.84059054 10
115  32.83141163  130.84064515
120 Linear Feature 11
111  32.83126961  130.84003404 10
111  32.83128981  130.84004171 10
115  32.83129467  130.84002157
120 Linear Feature 12
111  32.84333091  130.87010255 10
111  32.84333623  130.87007994 10
115  32.84335459  130.87008909
120 Linear Feature 13
111  32.84315580  130.87018131 10
111  32.84324962  130.86986396 10
115  32.84351973  130.86997945
120 Linear Feature 14
111  32.84306665  130.86996741 10
111  32.84316359  130.86964773 10
111  32.84343040  130.86975993 10
115  32.84343040  130.86975993
120 Linear Feature 16
111  32.84321740  130.86947956 10
115  32.84334772  130.86954352
120 Linear Feature 15
111  32.84297406  130.86973538 10
115  32.84301791  130.86959277
120 Linear Feature 17
111  32.84095052  130.86898745 3 102
112  32.84128048  130.86980570  32.84136052  130.86996025 3 102
112  32.84152772  130.87008092  32.84165757  130.87017196 3 102
112  32.84187813  130.87016878  32.84196529  130.87016984 3 102
111  32.84210581  130.87009680 3 102
115  32.84293737  130.86962892
120 Linear Feature 23
111  32.84327498  130.86937583 106
115  32.83171059  130.84054748
120 Linear Feature 1
111  32.84266341  130.86894631 3 102
112  32.84268086  130.86925263  32.84264468  130.86937282 3 102
112  32.84260816  130.86943781  32.84257366  130.86950692 3 102
111  32.84249681  130.86954803 3 102
112  32.84204690  130.86980298  32.84202754  130.86981600 3 102
112  32.84174300  130.86981336  32.84162015  130.86975928 3 102
112  32.84154816  130.86969221  32.84145981  130.86960508 3 102
111  32.84140421  130.86945512 3 102
111  32.84111486  130.86883209 3 102
111  32.84074010  130.86790402 3 102
111  32.84026715  130.86672593 3 102
112  32.84001365  130.86595868  32.83999515  130.86587522 3 102
112  32.84001509  130.86564835  32.84003067  130.86559155 3 102
112  32.84013920  130.86540029  32.84022441  130.86530756 3 102
112  32.84029287  130.86526993  32.84033182  130.86524791 3 102
112  32.84066946  130.86505934  32.84069527  130.86504601 3 102
112  32.84088270  130.86502621  32.84099151  130.86504007 3 102
112  32.84106840  130.86511293  32.84110898  130.86514432 3 102
112  32.84115848  130.86521684  32.84116943  130.86523327 3 102
115  32.84119774  130.86529299
120 20_road_edge.lin
112  32.84062725  130.86817692  32.84066343  130.86823701 3 102
112  32.84054247  130.86858187  32.84040003  130.86867771 3 102
111  32.83950005  130.86918115 3 102
111  32.84004908  130.87056824 3 102
111  32.84062218  130.87024225 3 102
112  32.84029822  130.86944106  32.84025530  130.86933090
111  32.84029822  130.86944106
112  32.84029822  130.86944106  32.84026969  130.86936783 3 102
112  32.84025766  130.86912545  32.84029419  130.86898786
111  32.84025766  130.86912545
112  32.84025766  130.86912545  32.84027730  130.86906667 3 102
112  32.84035964  130.86896436  32.84041382  130.86892442
111  32.84035964  130.86896436
112  32.84035964  130.86896436  32.84053130  130.86885420 3 102
112  32.84067485  130.86880032  32.84070030  130.86879888 3 102
116  32.84095052  130.86898745  32.84100970  130.86917963
120 Linear Feature 12
111  32.84002474  130.86763674 3 102
112  32.84016554  130.86755719  32.84018856  130.86754566 3 102
112  32.84030149  130.86756198  32.84033784  130.86758217 3 102
112  32.84041935  130.86766264  32.84043510  130.86769870 3 102
115  32.84062725  130.86817692
120 Linear Feature 13
111  32.83995005  130.86746643 3 102
112  32.84010151  130.86737654  32.84011464  130.86736572 3 102
112  32.84017684  130.86725395  32.84019804  130.86717944 3 102
112  32.84018391  130.86708594  32.84017482  130.86704988 3 102
111  32.84014210  130.86697105 3 102
112  32.84002093  130.86667973  32.84000276  130.86665569 3 102
112  32.83992379  130.86659921  32.83988037  130.86658358 3 102
112  32.83979071  130.86658503  32.83975436  130.86659825 3 102
111  32.83969862  130.86663214 3 102
115  32.83953141  130.86672876
120 Linear Feature 4
111  32.83946322  130.86655794 3 102
112  32.83969673  130.86642920  32.83976588  130.86638663 3 102
112  32.83980146  130.86625959  32.83982173  130.86619999 3 102
112  32.83979116  130.86608998  32.83978162  130.86606301 3 102
112  32.83926234  130.86477804  32.83925757  130.86476668 3 102
112  32.83912498  130.86464725  32.83905701  130.86462738 3 102
112  32.83897560  130.86463090  32.83893148  130.86464225 3 102
115  32.83876956  130.86473512
120 Linear Feature 5
111  32.84072054  130.86410512 3 102
112  32.84076108  130.86427825  32.84076406  130.86431728 3 102
112  32.84073485  130.86448119  32.84072094  130.86452258 3 102
112  32.84063350  130.86465716  32.84057090  130.86472693 3 102
111  32.84049519  130.86476501 3 102
112  32.84009814  130.86498356  32.84007430  130.86499302 3 102
112  32.83990340  130.86500603  32.83984080  130.86500012 3 102
112  32.83974163  130.86496227  32.83967605  130.86492443 3 102
112  32.83961048  130.86485584  32.83959160  130.86483573 3 102
112  32.83951032  130.86472386  32.83949343  130.86469429 3 102
111  32.83920508  130.86406113 3 102
111  32.83916812  130.86398734 3 102
111  32.83907154  130.86375034 3 102
111  32.83834898  130.86194098 3 102
111  32.83830010  130.86179481 3 102
112  32.83809024  130.86116331  32.83807931  130.86112784 3 102
112  32.83807156  130.86090457  32.83809044  130.86080878 3 102
112  32.83813675  130.86068508  32.83818543  130.86060230 3 102
112  32.83822001  130.86055570  32.83827665  130.86049066 3 102
111  32.83839310  130.86042822 3 102
112  32.83875080  130.86022813  32.83877862  130.86021630 3 102
112  32.83892985  130.86019762  32.83899642  130.86020708 3 102
112  32.83904412  130.86023238  32.83909280  130.86025131 3 102
112  32.83917885  130.86033172  32.83922654  130.86038139 3 102
115  32.83926351  130.86047221
120 Linear Feature 6
111  32.83626084  130.86146338 3 102
111  32.83733223  130.86086260 3 102
112  32.83745976  130.86080902  32.83751938  130.86079341 3 102
112  32.83762187  130.86084075  32.83769938  130.86087906 3 102
112  32.83775976  130.86102813  32.83777764  130.86107212 3 102
111  32.83894961  130.86399529 3 102
112  32.83897530  130.86407768  32.83899557  130.86414296 3 102
112  32.83896294  130.86426895  32.83894982  130.86432713 3 102
112  32.83886651  130.86441020  32.83883432  130.86443574 3 102
115  32.83868602  130.86452202
120 Linear Feature 8
111  32.83522197  130.85469623 3 102
111  32.83536147  130.85504957 3 102
112  32.83539009  130.85512762  32.83539340  130.85514339 3 102
112  32.83539843  130.85530926  32.83538022  130.85538218 3 102
112  32.83528754  130.85549515  32.83524035  130.85552275 3 102
115  32.83413098  130.85614649
120 Linear Feature 7
111  32.83730554  130.86087720 30
115  32.83517427  130.85556278
120 Linear Feature 9
111  32.83486468  130.85773378 1
111  32.83486700  130.85773949 1
115  32.83486943  130.85774529
120 Linear Feature 10
111  32.83512776  130.85842713 1
111  32.83512990  130.85843203 1
115  32.83513237  130.85843746
120 Linear Feature 11
111  32.83497246  130.84976769 3 102
112  32.83500038  130.84998225  32.83498846  130.85006740 3 102
112  32.83496044  130.85016208  32.83491970  130.85027560 3 102
112  32.83477528  130.85038341  32.83473553  130.85040824 3 102
111  32.83455008  130.85050537 3 102
112  32.83434920  130.85061948  32.83431244  130.85063958 3 102
112  32.83423073  130.85064808  32.83420788  130.85064808 3 102
112  32.83410539  130.85064432  32.83406068  130.85063249 3 102
112  32.83396116  130.85058915  32.83393036  130.85056313 3 102
112  32.83379290  130.85043181  32.83377204  130.85040461 3 102
111  32.83347526  130.84976362 3 102
111  32.83339628  130.84959606 3 102
111  32.83317823  130.84904639 3 102
111  32.83259961  130.84760990 3 102
111  32.83235938  130.84688780 3 102
112  32.83231989  130.84674664  32.83230677  130.84665582 3 102
112  32.83234550  130.84640023  32.83239915  130.84622427 3 102
112  32.83256355  130.84611007  32.83261840  130.84607744 3 102
111  32.83295502  130.84588939 3 102
112  32.83307693  130.84584239  32.83313535  130.84583530 3 102
112  32.83320570  130.84584239  32.83327128  130.84585800 3 102
112  32.83337754  130.84592663  32.83343477  130.84596920 3 102
115  32.83350617  130.84611008
120 Linear Feature 13
111  32.83350617  130.84611008 106
115  32.83497246  130.84976769
120 Linear Feature 12
111  32.83161357  130.84139937 106
115  32.83302722  130.84492136
120 Linear Feature 14
111  32.83690235  130.85458484 3 102
112  32.83693390  130.85478237  32.83693225  130.85485727 3 102
112  32.83689218  130.85498994  32.83684250  130.85511904 3 102
112  32.83670919  130.85520809  32.83669015  130.85521893 3 102
112  32.83636143  130.85540269  32.83634569  130.85541353 3 102
112  32.83621061  130.85546448  32.83615182  130.85547433 3 102
112  32.83595595  130.85544388  32.83584003  130.85539855 3 102
112  32.83573837  130.85526733  32.83572678  130.85525057 3 102
111  32.83560239  130.85499956 3 102
111  32.83534526  130.85445813 3 102
111  32.83454913  130.85247487 3 102
111  32.83447743  130.85226301 3 102
111  32.83428211  130.85169906 3 102
112  32.83424485  130.85153351  32.83423491  130.85145073 3 102
112  32.83425230  130.85133938  32.83425926  130.85130272 3 102
112  32.83433262  130.85110977  32.83439820  130.85099388 3 102
111  32.83454045  130.85090578 3 102
111  32.83489484  130.85070968 3 102
112  32.83499917  130.85067124  32.83506375  130.85065705 3 102
112  32.83515401  130.85067223  32.83520667  130.85068287 3 102
112  32.83530802  130.85075304  32.83537658  130.85080152 3 102
115  32.83543972  130.85093495
120 Linear Feature 18
111  32.83878671  130.85928061 3 102
112  32.83882182  130.85943161  32.83883838  130.85954888 3 102
112  32.83877215  130.85972474  32.83875145  130.85978190 3 102
112  32.83863047  130.85989662  32.83860977  130.85991140 3 102
111  32.83839181  130.86003550 3 102
112  32.83817719  130.86015403  32.83814407  130.86016881 3 102
112  32.83801922  130.86018672  32.83794470  130.86018771 3 102
112  32.83781071  130.86013698  32.83772873  130.86011333 3 102
112  32.83759170  130.85992311  32.83757348  130.85988566 3 102
111  32.83729982  130.85930802 3 102
111  32.83651688  130.85737899 3 102
111  32.83641043  130.85706429 3 102
111  32.83623701  130.85656773 3 102
112  32.83618035  130.85635726  32.83615803  130.85622239 3 102
112  32.83624560  130.85597513  32.83629024  130.85585252 3 102
112  32.83647608  130.85572935  32.83650012  130.85571504 3 102
111  32.83684207  130.85552827 3 102
112  32.83700518  130.85548536  32.83706013  130.85548536 3 102
112  32.83720917  130.85554783  32.83727785  130.85558869 3 102
116  32.83737435  130.85575794  32.83739367  130.85581707
120 Linear Feature 19
111  32.83737435  130.85575794 106
115  32.83878671  130.85928061
120 Linear Feature 20
111  32.83926351  130.86047221 106
115  32.84072054  130.86410512
120 Linear Feature 21
111  32.84119774  130.86529299 106
115  32.84266341  130.86894631
120 Linear Feature 22
111  32.83153370  130.84064987 103
115  32.84311558  130.86952094
120 Linear Feature 14
111  32.83539998  130.85908552 1
111  32.83540263  130.85909166 1
115  32.83540542  130.85909780
120 Linear Feature 19
111  32.83588531  130.86035149 1
111  32.83588788  130.86035794 1
115  32.83589094  130.86036598
120 Linear Feature 20
111  32.83490968  130.85542617 20
111  32.83496879  130.85557149 20
111  32.83455889  130.85580099 20
111  32.83456538  130.85582290 20
115  32.83448815  130.85586557
120 Linear Feature 17
111  32.83543972  130.85093495 106
115  32.83690235  130.85458484
120 Linear Feature 15
111  32.83416893  130.85207286 3 102
115  32.83491846  130.85394848
21  32.83328877  130.84372576 2 63.4 3.00 New Light Fixture 2
21  32.84088122  130.86530271 2 243.5 3.00 25  PAPI-4L
20  32.84218410  130.86947132 -44.9 0 3 {@L}T7{@R}07-25{@@,safety}
20  32.84025232  130.86463692 315.4 0 3 {@L}T6{@R}07-25{@@,safety}
20  32.83831727  130.85981288 314.5 0 3 {@L}T5{@R}07-25{@@,safety}
20  32.83642897  130.85510250 315.9 0 3 {@L}T4{@R}07-25
20  32.83449261  130.85027825 315.4 0 3 {@L}T3{@R}07-25{@@,safety}
20  32.83255865  130.84545165 319.5 0 3 {@L}T2{@R}07-25{@@,safety}
20  32.83068845  130.84080504 314.8 0 3 {@L}T1{@R}07{@@,safety}
14  32.83389418  130.85684277 82 0 Kumamoto
1300  32.83540263  130.85909166 152.4 gate jets 6
1301 E airline 
1300  32.83512990  130.85843203 151.6 gate jets 5
1301 E airline jal
1300  32.83486700  130.85773949 155.9 gate jets 4
1301 E airline ana
1300  32.83563789  130.85973537 153.4 gate jets|turboprops 7
1301 C airline 
1300  32.83617673  130.86108806 153.4 gate jets|turboprops 9
1301 C airline 
1300  32.83588788  130.86035794 153.4 gate jets|turboprops 8
1301 C airline 
1300  32.83473042  130.85634163 64.3 gate turboprops|props 2
1301 C airline 
1300  32.83513667  130.85611333 64.9 gate turboprops|props 1
1301 C airline 
1300  32.83458206  130.85707903 155.7 gate jets 3
1301 C airline 
18  32.83861838  130.85430908 4 Kumamoto
99
