I
1130 Generated by WorldEditor 2.4.1r2

1     20 0 0 EDHI Hamburg Finkenwerder
1302 city Hamburg
1302 country Germany
1302 datum_lat 53.533797222
1302 datum_lon 9.832286111
1302 faa_code 
1302 gui_label 3D
1302 iata_code XFW
1302 icao_code EDHI
1302 region_code ED
1302 state Hamburg
1302 transition_alt 5000
1302 transition_level 
100 45.30 1 2 0.25 1 3 0  05  53.52490409  009.81346147 657 0 3 1 0 1 23  53.54267148  009.85112334 660 0 3 1 0 1
110 2 0.00 0.0 New Taxiway 101
111  53.52585702  009.81496723
111  53.52596257  009.81477294
111  53.52600907  009.81396135
111  53.52542304  009.81276198
113  53.52505349  009.81325780
110 2 0.00 0.0 New Taxiway 81
111  53.54327926  009.85199321
111  53.54369234  009.85145632
111  53.54268147  009.84932571
113  53.54199301  009.84919007
110 2 0.00 0.0 New Taxiway 51
111  53.54115349  009.84842948
111  53.54097170  009.84870783
111  53.54099791  009.84877397
112  53.54047710  009.84944367  53.54035263  009.84963108
112  53.54017575  009.84966139  53.54007926  009.84965696
111  53.53997449  009.84943712
111  53.53864629  009.84662147
111  53.53823016  009.84718792
111  53.53952863  009.84995426
112  53.54020415  009.84993681  53.54033150  009.84994872
111  53.54040933  009.84986538
113  53.54128900  009.84871053
110 2 0.00 0.0 Apron 1
111  53.53162177  009.83251112
111  53.53157369  009.83261452
111  53.52999725  009.83841096 53
111  53.53150793  009.83961004 53
111  53.53217535  009.84126059
111  53.53254561  009.84083604
111  53.53261400  009.84100269
111  53.53265646  009.84094714
111  53.53284748  009.84143518
111  53.53294418  009.84131217
111  53.53383391  009.84030990
111  53.53255214  009.83721368
111  53.53259474  009.83715060
111  53.53281486  009.83647607
111  53.53266943  009.83635373
111  53.53296619  009.83535848
111  53.53266943  009.83478315
112  53.53271659  009.83449218  53.53285023  009.83443266
111  53.53379358  009.83411191
111  53.53435559  009.83402428
111  53.53399797  009.83325550
111  53.53392329  009.83350350
112  53.53378769  009.83369197  53.53369728  009.83373496
111  53.53330619  009.83392675
111  53.53297601  009.83402925
112  53.53273035  009.83358618  53.53284237  009.83316294
111  53.53305659  009.83248510
112  53.53320595  009.83217098  53.53325705  009.83212468
111  53.53342804  009.83204202
111  53.53300744  009.83117716
111  53.53299174  009.83150306
111  53.53275394  009.83267026
111  53.53260457  009.83320592
111  53.53255347  009.83323898
111  53.53241983  009.83312986
113  53.53240902  009.83315901 53
111  53.53216567  009.83740905
111  53.53153240  009.83818515
111  53.53183811  009.83709219
111  53.53175896  009.83701641
111  53.53180536  009.83685798
113  53.53197459  009.83699345
110 2 0.00 0.0 New Taxiway 50
111  53.52960291  009.82159516
111  53.52902567  009.82038511
111  53.52864009  009.82085547
113  53.52951722  009.82274452
110 2 0.00 0.0 New Taxiway 9
111  53.54327926  009.85199321
111  53.54280150  009.85094659
111  53.54243048  009.85144052
113  53.54291466  009.85248149
110 1 0.00 0.0 New Taxiway 67
111  53.53950622  009.84348807
111  53.53981394  009.84302704
111  53.53990437  009.84322009
111  53.53996915  009.84309063
111  53.54050642  009.84257072
111  53.54021490  009.84193935
111  53.53971002  009.84276587
111  53.53928488  009.84342902
113  53.53944009  009.84375833
110 2 0.00 0.0 APRON 2/3
111  53.53360231  009.83139375
111  53.53370888  009.83121852
111  53.53390749  009.83085176
111  53.53445972  009.83147118
111  53.53449847  009.83138967
111  53.53474768  009.83166093
111  53.53713182  009.83517770
112  53.53751446  009.83578129  53.53781264  009.83630147
111  53.53734512  009.83667590
111  53.53661114  009.83714796
111  53.53635164  009.83720551
111  53.53657124  009.83767027
111  53.53674767  009.83745023
111  53.53712524  009.83719810
112  53.53831419  009.83643744  53.53842318  009.83638038
112  53.53855882  009.83659231  53.53859515  009.83674718
111  53.53853101  009.83685281
111  53.53822409  009.83722841
111  53.53898791  009.83888340
111  53.53900253  009.83898056
111  53.53966792  009.84038451
111  53.54000587  009.83995508
111  53.54022956  009.84036823
111  53.54037983  009.84040110
111  53.54059037  009.83838358
111  53.54028885  009.83827889
111  53.54031130  009.83810220
111  53.54022267  009.83771368
111  53.53968198  009.83754528
111  53.53958832  009.83732124
111  53.53944946  009.83692682
111  53.53964537  009.83697292
111  53.53980228  009.83548957
111  53.53847328  009.83515522
111  53.53858725  009.83409365
111  53.53804526  009.83392835
111  53.53725608  009.83352593
111  53.53721677  009.83391755
111  53.53717075  009.83426803
111  53.53705449  009.83437807
111  53.53674689  009.83417430
111  53.53659143  009.83392171
111  53.53529733  009.83200087
111  53.53533918  009.83174854
111  53.53570289  009.83224301 1
111  53.53582183  009.83202326
111  53.53549613  009.83151967
111  53.53548916  009.83130842
111  53.53566354  009.83072745
111  53.53561123  009.83062183
111  53.53565308  009.83058075
111  53.53589323  009.83108689
111  53.53632204  009.83051822
112  53.53546474  009.82928972  53.53524152  009.82893175
111  53.53538103  009.82880264
111  53.53554147  009.82859138
111  53.53600110  009.82957791
111  53.53681054  009.82846176
111  53.53634715  009.82751160
111  53.53678661  009.82691888
111  53.53707261  009.82704212
111  53.53829745  009.82760724
111  53.53823467  009.82802979
111  53.53961996  009.82864525
111  53.53980368  009.82243333
111  53.54027468  009.81946104
112  53.54020415  009.81929121  53.54020996  009.81921785
111  53.54024989  009.81912621
111  53.54085230  009.81929610
111  53.54145167  009.81953971
111  53.54186975  009.81972799
111  53.54230572  009.81991140
112  53.54260041  009.82032239  53.54274573  009.82066884
111  53.54250543  009.82087679
111  53.54227571  009.82063118
111  53.54185690  009.82323970
111  53.54192223  009.82324346
111  53.54195856  009.82300910
111  53.54206150  009.82294456
112  53.54220884  009.82314156  53.54226334  009.82327743
111  53.54221086  009.82351179
111  53.54204346  009.82453725
111  53.54199744  009.82453725
111  53.54194657  009.82491223
111  53.54188590  009.82488777
111  53.54184969  009.82513232
111  53.54163171  009.82504673
111  53.54161960  009.82513232
111  53.54158084  009.82542171
111  53.54179641  009.82582115
111  53.54174516  009.82617855
111  53.54258619  009.82654505
111  53.54304646  009.82370300
111  53.54403305  009.82413453
111  53.54423446  009.82289211
111  53.54406346  009.82281427
111  53.54411183  009.82248639
111  53.54428143  009.82255480
111  53.54441880  009.82174335
111  53.54424359  009.82165607
111  53.54429984  009.82123506
111  53.54385393  009.82104513
111  53.54352454  009.82134706
111  53.54320075  009.82122440
112  53.54303536  009.82069367  53.54309283  009.82028796
111  53.54336839  009.82039076
111  53.54493460  009.82108785
111  53.54524597  009.82123407
112  53.54612206  009.82162707  53.54624081  009.82168604
111  53.54621259  009.82193668
111  53.54616294  009.82229708
111  53.54601970  009.82223015
111  53.54514427  009.82778279
111  53.54528819  009.82784704
111  53.54464845  009.83193839
111  53.54497593  009.83209075
112  53.54512266  009.83109955  53.54513668  009.83102878
111  53.54519135  009.83105001
111  53.54558206  009.83122626
111  53.54551093  009.83163456
111  53.54571867  009.83171540
111  53.54582040  009.83125302
111  53.54590178  009.83007908
111  53.54561694  009.82995938
111  53.54575936  009.82855554
111  53.54600641  009.82707831
111  53.54622730  009.82714679
111  53.54669992  009.82725225
111  53.54672534  009.82712924
111  53.54681602  009.82656574
111  53.54684506  009.82635953
111  53.54674750  009.82631358
111  53.54709279  009.82408891
111  53.54701954  009.82323778
111  53.54708232  009.82290321
112  53.54689747  009.82194643  53.54677540  009.82128902
111  53.54659404  009.82088988
111  53.54512995  009.82024333
111  53.54460097  009.81999876
111  53.54463032  009.81979678
111  53.54474282  009.81984713
111  53.54473467  009.81989116
111  53.54486837  009.81995474
111  53.54492650  009.81956833
111  53.54488871  009.81954388
111  53.54491294  009.81941181
111  53.54344129  009.81873686
111  53.54336281  009.81927000
111  53.54359823  009.81938738
111  53.54357524  009.81954258
111  53.54319354  009.81937355
111  53.54327364  009.81893845
111  53.54096117  009.81797042
111  53.54089629  009.81834963
111  53.54083962  009.81832538
111  53.54033197  009.81810016
111  53.54001563  009.81797049
111  53.53961681  009.81778281
111  53.53953097  009.81774299
111  53.53922378  009.81761137
111  53.53921697  009.81758189
111  53.53915356  009.81753434
111  53.53942967  009.81578185
111  53.53908816  009.81544358
111  53.53904214  009.81558623
111  53.53873212  009.81520720 3 106
111  53.53759132  009.81800708 3 106
111  53.53750170  009.81840647 3 106
111  53.53624223  009.82149969
111  53.53604604  009.82127147
111  53.53549865  009.82268561
111  53.53559311  009.82323170
111  53.53595447  009.82357364
111  53.53623034  009.82350104
111  53.53676540  009.82225769
111  53.53674602  009.82207022
111  53.53668305  009.82200094
111  53.53697854  009.82128367
112  53.53714566  009.82113288  53.53724981  009.82116956
111  53.53722074  009.82135703
112  53.53702456  009.82260002  53.53691072  009.82334173
111  53.53664429  009.82398156
111  53.53675571  009.82412419
111  53.53662976  009.82487812
111  53.53598186  009.82413574
111  53.53609933  009.82384708
111  53.53543529  009.82313737
111  53.53511515  009.82389507
111  53.53555371  009.82439317
111  53.53551595  009.82449562
111  53.53510628  009.82402639
111  53.53507721  009.82408752
111  53.53528309  009.82433611
111  53.53529278  009.82440946
111  53.53535575  009.82446652
111  53.53538724  009.82447059
111  53.53554288  009.82463553
111  53.53558555  009.82486300
111  53.53570586  009.82497109
111  53.53574441  009.82486890
112  53.53577477  009.82488462  53.53579229  009.82491017
111  53.53581744  009.82484026
111  53.53592365  009.82455611
111  53.53655720  009.82527307
111  53.53656440  009.82531624
112  53.53646998  009.82587473  53.53644954  009.82599266
111  53.53643415  009.82612963
111  53.53641630  009.82611461
111  53.53637574  009.82614873
111  53.53635628  009.82608868
111  53.53625488  009.82618013
112  53.53627192  009.82627020  53.53627273  009.82630296
111  53.53624229  009.82634470
111  53.53603935  009.82666420
111  53.53595739  009.82649224
111  53.53578822  009.82675855
111  53.53587896  009.82693762
111  53.53566340  009.82727179
111  53.53383177  009.82968486
113  53.53314789  009.83041097
111  53.54357494  009.82234217
111  53.54355980  009.82246105
112  53.54332170  009.82268209  53.54331834  009.82268209
112  53.54302325  009.82252049  53.54302157  009.82251766
112  53.54291224  009.82238180  53.54291224  009.82237896
112  53.54285841  009.82216101  53.54285841  009.82215535
111  53.54288701  009.82192325
111  53.54306025  009.82183550
111  53.54342580  009.82193500
113  53.54350822  009.82215295
111  53.54332963  009.82364649
111  53.54300448  009.82349913
111  53.54292455  009.82398380
111  53.54260778  009.82387058
112  53.54268767  009.82346958  53.54275916  009.82323842
111  53.54285727  009.82327616
113  53.54328618  009.82348374
111  53.54274981  009.82506473
111  53.54253788  009.82496567
111  53.54251097  009.82511285
111  53.54235118  009.82503926
112  53.54238987  009.82478734  53.54243360  009.82467129
111  53.54253788  009.82460336
113  53.54279018  009.82487509
111  53.54220574  009.82143516
112  53.54241425  009.82164042  53.54245630  009.82180176
112  53.54241761  009.82214142  53.54237220  009.82226879
111  53.54227801  009.82232823
111  53.54217709  009.82235370
113  53.54208514  009.82218679
112  53.53538318  009.82970265  53.53553577  009.82997161
111  53.53540740  009.83031800
111  53.53533232  009.83021612
111  53.53507315  009.83044433
111  53.53483821  009.83096188
111  53.53472680  009.83103523
112  53.53441920  009.83049324  53.53431989  009.83032208
111  53.53442404  009.83017130
113  53.53505136  009.82923808
111  53.53582724  009.82895429
111  53.53561194  009.82849865
111  53.53566409  009.82842790
113  53.53583397  009.82880147
111  53.53628871  009.82835771
111  53.53615920  009.82828696
111  53.53600950  009.82796150
112  53.53607005  009.82787942  53.53608856  009.82785112
111  53.53611378  009.82788791
113  53.53631730  009.82831526
111  53.53648719  009.82804640
111  53.53649773  009.82808359
111  53.53654437  009.82818224
111  53.53656288  009.82821904
111  53.53664193  009.82840016
111  53.53657633  009.82849073
111  53.53653596  009.82846525
111  53.53645559  009.82832578
111  53.53643168  009.82828130
111  53.53617602  009.82773792
113  53.53628198  009.82760490
111  53.54394594  009.81971040
111  53.54382748  009.81966401
111  53.54384822  009.81950966
113  53.54396614  009.81956019
111  53.54432754  009.81987026
111  53.54420907  009.81982387
111  53.54422982  009.81966952
113  53.54434774  009.81972005
110 2 0.00 0.0 New Taxiway 80
111  53.54299429  009.84793390
111  53.54239106  009.84665334
111  53.54201357  009.84721835
112  53.54196498  009.84738188  53.54192935  009.84743093
111  53.54168803  009.84772801
112  53.54154551  009.84771438  53.54150016  009.84761626
111  53.54147587  009.84758356
111  53.54124913  009.84758083
111  53.54163297  009.84840392
111  53.54170909  009.84817225
111  53.54208969  009.84765714
112  53.54231157  009.84769258  53.54238931  009.84787791
113  53.54266140  009.84839574
110 2 0.00 0.0 New Taxiway 8
111  53.53961996  009.82864526
111  53.54014332  009.82539779
111  53.54027079  009.82545357
111  53.54069330  009.82283005
113  53.53980360  009.82243331
130 Airport Boundary 68
111  53.54388327  009.85265184
111  53.54420185  009.85079644
111  53.54346666  009.84824011
111  53.54728965  009.82354176
111  53.54668275  009.82060320
111  53.54547618  009.81978938
111  53.54280499  009.81550117
111  53.54050385  009.81076357
111  53.53352235  009.82575663
111  53.52551438  009.80977064
111  53.52400862  009.80985523
111  53.52356751  009.81241090
111  53.52456743  009.81597565
111  53.52925745  009.82679923
111  53.53070416  009.83088251
111  53.52913367  009.83876305
111  53.53030675  009.84275092
111  53.53349258  009.84283337
111  53.53655206  009.84231858
111  53.53866740  009.84645850
111  53.53700009  009.84853643
111  53.53845404  009.85103787
111  53.53992061  009.84997323
111  53.54204529  009.85363502
113  53.54287851  009.85380059
120 Linear Feature 50
111  53.53668383  009.83709980 20
115  53.53666634  009.83704028
120 Linear Feature 49
111  53.53678695  009.83703611 20
115  53.53676902  009.83697516
120 Linear Feature 48
111  53.53689937  009.83696545 20
115  53.53688220  009.83690484
120 Linear Feature 47
111  53.53699916  009.83689999 20
115  53.53698360  009.83684045
120 Linear Feature 46
111  53.53683937  009.83738186 20
115  53.53686825  009.83748324
120 Linear Feature 45
111  53.53691966  009.83732383 20
115  53.53694023  009.83742298
120 Linear Feature 44
111  53.53706096  009.83722743 20
115  53.53708206  009.83731218
120 Linear Feature 43
111  53.53673461  009.83746545 20
115  53.53676357  009.83757014
120 Linear Feature 42
111  53.53321879  009.83215473 20
115  53.53296821  009.83162844
120 Linear Feature 99
111  53.53223735  009.83607806 2
111  53.53206390  009.83609719 2
116  53.53204232  009.83651844  53.53220886  009.83693690
120 Linear Feature 38
111  53.53196334  009.83594717 51
112  53.53180687  009.83635123  53.53173141  009.83647269 51
112  53.53162213  009.83669179  53.53157770  009.83684058 51
111  53.53124479  009.83805073 51
112  53.53128685  009.83848255  53.53138315  009.83869416 51
115  53.53215482  009.84061955
120 Linear Feature 83
111  53.53231564  009.83464947 51
112  53.53259615  009.83433442  53.53277357  009.83427127 51
115  53.53296919  009.83421196
120 Linear Feature 37
111  53.53262186  009.83352435 51
111  53.53196334  009.83594717 51
112  53.53204232  009.83651844  53.53220691  009.83687326 51
111  53.53242383  009.83734507 51
112  53.53281150  009.83827853  53.53296432  009.83866420 51
115  53.53368881  009.84044496
120 Linear Feature 36
111  53.53281688  009.83284424 51 101
115  53.53262513  009.83352435
120 Linear Feature 35
111  53.53296706  009.83232493 51 101
111  53.53312077  009.83175785 51 101
116  53.53302054  009.83065016  53.53274147  009.83008804
120 Linear Feature 34
111  53.53360989  009.83194273 51 101
112  53.53311692  009.83196478  53.53294332  009.83229543 51 101
115  53.53281688  009.83284424
120 Linear Feature 78
111  53.53071064  009.83857877 22
116  53.53074223  009.83886180  53.53083464  009.83894418
120 Linear Feature 77
111  53.53068383  009.83854440 20
116  53.53073413  009.83892398  53.53086397  009.83904198
120 Linear Feature 76
111  53.53101887  009.83676518 20
111  53.53097656  009.83694198 20
112  53.53095609  009.83728180  53.53097110  009.83738513 20
112  53.53096088  009.83755824  53.53093111  009.83766216 20
115  53.53068383  009.83854440
120 Linear Feature 75
111  53.53126960  009.83929616 22
115  53.53073910  009.83886262
120 Linear Feature 69
111  53.53375543  009.84012545 20
111  53.53357345  009.84036943 20
112  53.53340759  009.84037421  53.53335452  009.84024664 20
111  53.53274089  009.83871093 20
111  53.53218364  009.83740950 20
111  53.53177585  009.83651874 20
111  53.53153018  009.83600349 20
115  53.53146239  009.83586927
120 Linear Feature 68
111  53.53148626  009.83539937 20
112  53.53150142  009.83574858  53.53155923  009.83587136 20
111  53.53204574  009.83687061 20
111  53.53302986  009.83920934 20
111  53.53343381  009.84020619 20
112  53.53354786  009.84022910  53.53360568  009.84016054 20
115  53.53371657  009.84000586
120 Linear Feature 67
111  53.53125978  009.83934624 20
115  53.53073413  009.83892398
120 Linear Feature 70
111  53.53134948  009.83586638 20
116  53.53146239  009.83586927  53.53153505  009.83601943
120 Linear Feature 74
111  53.53341978  009.84027814 22
111  53.53272171  009.83857198 22
111  53.53194109  009.83677855 22
115  53.53143102  009.83568431
120 Linear Feature 73
111  53.53200334  009.83338020 22
111  53.53110272  009.83660615 22
111  53.53101106  009.83691343 22
112  53.53099381  009.83724414  53.53101086  009.83736086 22
112  53.53097197  009.83763639  53.53091283  009.83783921 22
115  53.53071038  009.83857971
120 Linear Feature 72
111  53.53148570  009.83539692 20
115  53.53203530  009.83341030
120 Linear Feature 71
111  53.53101932  009.83676337 20
115  53.53197676  009.83332885
120 Linear Feature 66
111  53.53134948  009.83586638 20
111  53.53106096  009.83684375 20
112  53.53103365  009.83727026  53.53106907  009.83746395 20
112  53.53100613  009.83766625  53.53096928  009.83779253 20
111  53.53086692  009.83816221 20
111  53.53074469  009.83860426 20
112  53.53076971  009.83879943  53.53082658  009.83885492 20
115  53.53127931  009.83922776
120 Linear Feature 64
111  53.53000045  009.83840748 80
115  53.53157688  009.83261105
120 Linear Feature 95
111  53.53170547  009.83266487 20
115  53.53172786  009.83258866
120 Linear Feature 93
111  53.53156066  009.83318917 20
111  53.53150117  009.83290284 20
111  53.53155326  009.83271073 20
115  53.53170547  009.83266487
120 Linear Feature 92
111  53.53025319  009.83794714 20
111  53.53011482  009.83799753 20
111  53.53007390  009.83814869 20
111  53.53011940  009.83843344 20
115  53.53010349  009.83848761
120 Linear Feature 92
111  53.53040943  009.83738050 20
111  53.53026734  009.83743660 20
111  53.53022531  009.83758993 20
111  53.53028127  009.83784532 20
115  53.53025319  009.83794714
120 Linear Feature 92
111  53.53058301  009.83674609 20
111  53.53056559  009.83680995 20
111  53.53041856  009.83687968 20
111  53.53037693  009.83703361 20
111  53.53044131  009.83726551 20
115  53.53040943  009.83738050
120 Linear Feature 92
111  53.53071618  009.83626175 20
111  53.53057081  009.83632408 20
111  53.53052909  009.83647730 20
115  53.53058301  009.83674609
120 Linear Feature 92
111  53.53089297  009.83562000 20
111  53.53072835  009.83574358 20
111  53.53068609  009.83589910 20
111  53.53074011  009.83617535 20
115  53.53071618  009.83626175
120 Linear Feature 92
111  53.53106791  009.83499636 20
111  53.53091770  009.83504828 20
111  53.53087535  009.83520286 20
111  53.53092574  009.83549860 20
115  53.53089297  009.83562000
120 Linear Feature 92
111  53.53124090  009.83435364 20
111  53.53121024  009.83446286 20
111  53.53106554  009.83450799 20
111  53.53102314  009.83466127 20
111  53.53109212  009.83489249 20
115  53.53106791  009.83499636
120 Linear Feature 92
111  53.53139506  009.83379177 20
111  53.53136455  009.83390398 20
111  53.53121622  009.83395141 20
111  53.53117444  009.83410511 20
115  53.53124090  009.83435364
120 Linear Feature 92
111  53.53156092  009.83318694 20
111  53.53153048  009.83329800 20
111  53.53137372  009.83337282 20
111  53.53133113  009.83352676 20
115  53.53139506  009.83379177
120 Linear Feature 91
111  53.53076188  009.83792083 51
115  53.53062523  009.83781170
120 Linear Feature 90
111  53.53087255  009.83731983 51
115  53.53077625  009.83724610
120 Linear Feature 89
111  53.53096624  009.83674175 51
115  53.53091508  009.83669946
120 Linear Feature 88
111  53.53093837  009.83801712 59
112  53.53108899  009.83798913  53.53116881  009.83803978 59
115  53.53120459  009.83814854
120 Linear Feature 88
111  53.53109187  009.83748128 59
112  53.53126849  009.83742368  53.53134752  009.83747981 59
115  53.53137016  009.83759900
120 Linear Feature 88
111  53.53124929  009.83694509 59
112  53.53141251  009.83688293  53.53149366  009.83695707 59
115  53.53151265  009.83706121
120 Linear Feature 88
111  53.53140396  009.83636265 59
112  53.53158076  009.83629653  53.53166093  009.83635267 59
115  53.53169771  009.83647161
120 Linear Feature 88
111  53.53062424  009.83781162 59
112  53.53077307  009.83775984  53.53082992  009.83779588 59
115  53.53085917  009.83786397
120 Linear Feature 88
111  53.53077625  009.83724610 59
112  53.53092047  009.83722421  53.53097732  009.83726025 59
115  53.53101315  009.83733787
120 Linear Feature 88
111  53.53091508  009.83669946 59
112  53.53106852  009.83665432  53.53112537  009.83669036 59
115  53.53115593  009.83677949
120 Linear Feature 88
111  53.53108609  009.83611877 59
112  53.53123581  009.83605039  53.53129267  009.83608643 59
115  53.53132880  009.83617476
120 Linear Feature 88
111  53.53173363  009.83378110 59
112  53.53188060  009.83373141  53.53193745  009.83376745 59
115  53.53196182  009.83387274
120 Linear Feature 88
111  53.53155894  009.83431610 59
112  53.53174197  009.83429224  53.53181873  009.83436177 59
115  53.53180393  009.83445357
120 Linear Feature 88
111  53.53141018  009.83487636 59
112  53.53157796  009.83483892  53.53165472  009.83490845 59
115  53.53166027  009.83497813
120 Linear Feature 88
111  53.53125323  009.83541135 59
112  53.53142101  009.83537392  53.53149777  009.83544345 59
115  53.53150332  009.83551313
120 Linear Feature 88
111  53.53170556  009.83576251 59
112  53.53189951  009.83567149  53.53197626  009.83574102 59
115  53.53198295  009.83584706
120 Linear Feature 88
111  53.53185871  009.83521063 59
112  53.53203955  009.83513260  53.53211631  009.83520213 59
115  53.53213099  009.83530015
120 Linear Feature 88
111  53.53201179  009.83466707 59
112  53.53217916  009.83459582  53.53225914  009.83465629 59
115  53.53228184  009.83476328
120 Linear Feature 88
111  53.53215680  009.83410942 59
112  53.53233621  009.83404273  53.53241297  009.83410864 59
115  53.53243507  009.83420252
120 Linear Feature 87
111  53.53225861  009.83486062 51
112  53.53210060  009.83491474  53.53201560  009.83485298 51
115  53.53200813  009.83467134
120 Linear Feature 87
111  53.53117792  009.83827407 51
112  53.53101137  009.83827635  53.53094218  009.83823064 51
115  53.53093068  009.83804662
120 Linear Feature 87
111  53.53133746  009.83771414 51
112  53.53119092  009.83771178  53.53113068  009.83766297 51
115  53.53109187  009.83748128
120 Linear Feature 87
111  53.53148683  009.83717021 51
112  53.53133165  009.83716684  53.53127558  009.83711858 51
115  53.53124929  009.83694509
120 Linear Feature 87
111  53.53167175  009.83656729 51
112  53.53151215  009.83658271  53.53145529  009.83654284 51
115  53.53140396  009.83637062
120 Linear Feature 87
111  53.53080638  009.83806612 51
112  53.53069433  009.83802488  53.53063672  009.83797939 51
115  53.53062424  009.83781162
120 Linear Feature 87
111  53.53097115  009.83748666 51
112  53.53085555  009.83747198  53.53079794  009.83742649 51
115  53.53077625  009.83724610
120 Linear Feature 87
111  53.53111599  009.83695751 51
112  53.53097656  009.83694198  53.53091896  009.83689649 51
115  53.53091508  009.83669946
120 Linear Feature 87
111  53.53127863  009.83636852 51
112  53.53116308  009.83636771  53.53109380  009.83632731 51
115  53.53108609  009.83611877
120 Linear Feature 87
111  53.53192729  009.83400607 51
112  53.53179896  009.83400418  53.53174136  009.83395869 51
115  53.53173363  009.83378110
120 Linear Feature 87
111  53.53177277  009.83457214 51
112  53.53165662  009.83454810  53.53159902  009.83450261 51
115  53.53155894  009.83431610
120 Linear Feature 87
111  53.53162065  009.83512675 51
112  53.53150634  009.83512158  53.53144874  009.83507609 51
115  53.53141018  009.83487636
120 Linear Feature 87
111  53.53146748  009.83567991 51
112  53.53133851  009.83567602  53.53128090  009.83563053 51
115  53.53125323  009.83541135
120 Linear Feature 87
111  53.53196334  009.83594717 51
112  53.53180920  009.83601340  53.53175160  009.83596791 51
115  53.53170556  009.83576251
120 Linear Feature 87
111  53.53210858  009.83540766 51
112  53.53195279  009.83545414  53.53188889  009.83540664 51
115  53.53185405  009.83520835
120 Linear Feature 87
111  53.53240904  009.83430724 51
112  53.53225443  009.83433761  53.53217814  009.83427555 51
115  53.53215680  009.83410942
120 Linear Feature 85
111  53.53240338  009.83541942 51
111  53.53230493  009.83542832 51
116  53.53201349  009.83576318  53.53192187  009.83610070
120 Linear Feature 86
111  53.53075739  009.83826588 51
112  53.53080404  009.83857054  53.53091269  009.83866360 51
112  53.53113860  009.83844406  53.53121423  009.83809129 51
115  53.53124479  009.83805073
120 Linear Feature 98
111  53.53234972  009.83542273 2
115  53.53209910  009.83545042
120 Linear Feature 97
111  53.53223829  009.83608072 51
116  53.53180457  009.83635504  53.53166536  009.83657272
120 Linear Feature 84
111  53.53223829  009.83608072 2
116  53.53203244  009.83570191  53.53214712  009.83527935
120 Linear Feature 84
111  53.53240338  009.83541942 2
116  53.53220408  009.83505715  53.53231876  009.83463459
120 Linear Feature 81
111  53.53265559  009.83601514 51
115  53.53223829  009.83608072
120 Linear Feature 80
111  53.53279054  009.83536322 51
115  53.53240338  009.83541942
120 Linear Feature 63
111  53.54000502  009.83901306 51
116  53.53999243  009.83944961  53.53985035  009.83964267
120 Linear Feature 62
111  53.53982352  009.83862389 51
116  53.53976504  009.83896561  53.53962590  009.83914464
120 Linear Feature 61
111  53.53881609  009.83652102 51
116  53.53878987  009.83692452  53.53866750  009.83709182
120 Linear Feature 60
111  53.53904756  009.83697939 51
116  53.53901999  009.83745126  53.53886208  009.83767156
120 Linear Feature 59
111  53.53927701  009.83746544 51
116  53.53922000  009.83796399  53.53907964  009.83814794
120 Linear Feature 58
111  53.53954292  009.83802981 51
116  53.53948642  009.83855356  53.53931798  009.83876886
120 Linear Feature 57
111  53.53910119  009.83862117 20
111  53.53904676  009.83850390 20
111  53.53886168  009.83854477 20
111  53.53880337  009.83842365 20
111  53.53886199  009.83811666 20
111  53.53881756  009.83802613 20
111  53.53863817  009.83806209 20
111  53.53856319  009.83789965 20
111  53.53863592  009.83764037 20
111  53.53856713  009.83749654 20
111  53.53840948  009.83756688 20
111  53.53833825  009.83741232 20
111  53.53840761  009.83714989 20
115  53.53836501  009.83705803
120 Linear Feature 56
111  53.53958737  009.84011238 20
115  53.53977483  009.84009792
120 Linear Feature 55
111  53.53910119  009.83862117 20
111  53.53906219  009.83897971 20
111  53.53911579  009.83909555 20
111  53.53930030  009.83905490 20
111  53.53935504  009.83917621 20
111  53.53930297  009.83949866 20
111  53.53934298  009.83958405 20
111  53.53952730  009.83957492 20
111  53.53958683  009.83970780 20
115  53.53953355  009.83999387
120 Linear Feature 46
111  53.54011526  009.83857925 22
115  53.53909104  009.83641038
120 Linear Feature 45
111  53.54006902  009.83856686 20
115  53.53906431  009.83643515
120 Linear Feature 44
111  53.54014738  009.83854488 20
115  53.53910279  009.83632818
120 Linear Feature 33
111  53.53846919  009.83734911 51
115  53.53878987  009.83692452
120 Linear Feature 32
111  53.53871181  009.83785873 51
115  53.53902309  009.83744776
120 Linear Feature 31
111  53.53893396  009.83834064 51
115  53.53922218  009.83796135
120 Linear Feature 30
111  53.53999243  009.83944961 51
115  53.53965124  009.83989329
120 Linear Feature 29
111  53.53976504  009.83896561 51
115  53.53941246  009.83943244
120 Linear Feature 28
111  53.53948642  009.83855356 51
115  53.53919059  009.83891659
120 Linear Feature 25
111  53.53823838  009.83719991 20
115  53.53969190  009.84033744
120 Linear Feature 22
111  53.53684017  009.82626570 51
115  53.53744487  009.82652848
120 Linear Feature 21
111  53.53692219  009.82498877 51
115  53.53753449  009.82530280
120 Linear Feature 20
111  53.53702518  009.82433606 51
115  53.53765443  009.82464075
120 Linear Feature 19
111  53.53711595  009.82375226 51
115  53.53775254  009.82404257
120 Linear Feature 18
111  53.53722444  009.82308220 51
115  53.53786301  009.82336729
120 Linear Feature 17
111  53.53736707  009.82219790 51
115  53.53800005  009.82248966
120 Linear Feature 16
111  53.53767820  009.82023289 51
115  53.53830945  009.82052319
120 Linear Feature 16
111  53.53757098  009.82090422 51
115  53.53820201  009.82120120
120 Linear Feature 16
111  53.53747338  009.82153763 51
115  53.53810300  009.82182519
120 Linear Feature 12
111  53.53846074  009.81825867 53 102
115  53.53941487  009.81870239
120 Linear Feature 3
111  53.53289865  009.83557092 53 102
111  53.53296257  009.83535757 53 102
112  53.53266970  009.83478762  53.53255633  009.83455601 53 102
111  53.53271694  009.83446745 53 102
111  53.53298396  009.83438153 53 102
111  53.53341450  009.83422712 53 102
111  53.53379665  009.83409051 53 102
112  53.53411247  009.83402011  53.53423259  009.83399286 53 102
115  53.53435905  009.83401992
120 Linear Feature 2
112  53.53394856  009.83318096  53.53406733  009.83340161 53 102
111  53.53384081  009.83367599 53 102
111  53.53337293  009.83390496 53 102
112  53.53300066  009.83403364  53.53292868  009.83405445 53 102
112  53.53277167  009.83395152  53.53266235  009.83386750 53 102
111  53.53272173  009.83358820 53 102
111  53.53290798  009.83292515 53 102
112  53.53317696  009.83216797  53.53326927  009.83196360 53 102
115  53.53347172  009.83214072
120 Linear Feature 1
111  53.53301090  009.83117279 53 102
112  53.53297269  009.83171063  53.53287833  009.83209659 53 102
111  53.53275978  009.83266689 53 102
111  53.53273313  009.83278390 53 102
111  53.53263191  009.83315922 53 102
112  53.53252550  009.83324932  53.53245826  009.83319830 53 102
115  53.53240902  009.83315901
120 Linear Feature 8
111  53.54469231  009.82107467 81
115  53.54486602  009.82005717
120 Linear Feature 6
111  53.53724731  009.83353335 53 102
111  53.53720034  009.83424855 53 102
112  53.53673869  009.83417981  53.53640233  009.83365967 53 102
111  53.53516311  009.83182663 53 102
116  53.53522847  009.83138670  53.53539870  009.83111863
120 Linear Feature 4
111  53.53505176  009.82923859 53 102
112  53.53476578  009.82931931  53.53464159  009.82950353 53 102
111  53.53437359  009.82991183 53 102
112  53.53435561  009.83043835  53.53451086  009.83071330 53 102
111  53.53472983  009.83110098 53 102
116  53.53502027  009.83104817  53.53516953  009.83072923
120 Linear Feature 3
111  53.53678661  009.82691888 53 102
112  53.53647923  009.82702463  53.53632834  009.82723078 53 102
111  53.53605432  009.82762288 53 102
112  53.53601628  009.82803831  53.53611412  009.82826093 53 102
115  53.53614710  009.82830511
120 Linear Feature 1
111  53.53666313  009.83404155 1
115  53.53653450  009.83429661
120 Linear Feature 61
111  53.53660112  009.82508524 1
115  53.53531242  009.82365549
120 Linear Feature 31
111  53.53715488  009.82508901 2
112  53.53705318  009.82490598  53.53699880  009.82488320 2
115  53.53693485  009.82492847
120 Linear Feature 31
111  53.53725259  009.82443065 2
112  53.53715089  009.82424762  53.53709651  009.82422484 2
115  53.53703451  009.82427602
120 Linear Feature 31
111  53.53734784  009.82384475 2
112  53.53724614  009.82366172  53.53719176  009.82363894 2
115  53.53712899  009.82367765
120 Linear Feature 31
111  53.53746391  009.82317418 2
112  53.53736221  009.82299115  53.53730783  009.82296837 2
115  53.53723607  009.82300379
120 Linear Feature 31
111  53.53791585  009.82032713 2
112  53.53781415  009.82014410  53.53775977  009.82012131 2
115  53.53768802  009.82015674
120 Linear Feature 31
111  53.53780818  009.82100242 2
112  53.53770648  009.82081938  53.53765210  009.82079660 2
115  53.53758035  009.82083202
120 Linear Feature 31
111  53.53760682  009.82229416 2
112  53.53750512  009.82211113  53.53745074  009.82208834 2
115  53.53737899  009.82212377
120 Linear Feature 31
111  53.53771030  009.82162829 2
112  53.53760860  009.82144526  53.53755422  009.82142247 2
115  53.53748246  009.82145790
120 Linear Feature 30
111  53.53714999  009.82511808 2
112  53.53700188  009.82519705  53.53693452  009.82516612 2
115  53.53691145  009.82509077
120 Linear Feature 30
111  53.53724771  009.82445973 2
112  53.53709959  009.82453870  53.53703223  009.82450776 2
115  53.53701190  009.82442847
120 Linear Feature 30
111  53.53734296  009.82387383 2
112  53.53719485  009.82395280  53.53712749  009.82392186 2
115  53.53710247  009.82384782
120 Linear Feature 30
111  53.53745902  009.82320326 2
112  53.53731091  009.82328223  53.53724355  009.82325129 2
115  53.53721267  009.82316806
120 Linear Feature 30
111  53.53791097  009.82035620 2
112  53.53776285  009.82043518  53.53769549  009.82040424 2
115  53.53766462  009.82032101
120 Linear Feature 30
111  53.53780330  009.82103149 2
112  53.53765518  009.82111046  53.53758782  009.82107952 2
115  53.53755695  009.82099629
120 Linear Feature 30
111  53.53760193  009.82232323 2
112  53.53745382  009.82240220  53.53738646  009.82237126 2
115  53.53735559  009.82228803
120 Linear Feature 30
111  53.53770541  009.82165736 2
112  53.53755730  009.82173633  53.53748994  009.82170540 2
115  53.53745907  009.82162217
120 Linear Feature 15
111  53.53321725  009.83579718 20
115  53.53307214  009.83601121
120 Linear Feature 14
111  53.53307214  009.83601121 20
115  53.53297705  009.83636839
120 Linear Feature 13
111  53.53322711  009.83644445 20
112  53.53311622  009.83620604  53.53307738  009.83620440 20
112  53.53304863  009.83627211  53.53304474  009.83631133 20
112  53.53309524  009.83638158  53.53311660  009.83640118 20
113  53.53323642  009.83650365 20
120 Linear Feature 10
111  53.53903462  009.84876542 20
111  53.53900428  009.84870490 20
111  53.53896382  009.84876447 20
113  53.53899304  009.84882499 20
120 Linear Feature 7
111  53.53989059  009.84948454 1
112  53.54023874  009.84979722  53.54043685  009.84976051 1
111  53.54072608  009.84930504 1
115  53.54100316  009.84891286
120 Linear Feature 6
111  53.53877679  009.84712326 1
115  53.53989059  009.84948454
120 Linear Feature 5
111  53.54105471  009.84901275 20
115  53.54096011  009.84882513
120 Linear Feature 4
111  53.53965682  009.84324903 20
115  53.53955211  009.84302879
120 Linear Feature 3
111  53.53979576  009.84303557 20
115  53.53969911  009.84280855
120 Linear Feature 76
111  53.53906730  009.82483531 2
115  53.53856517  009.82766423
120 Linear Feature 75
111  53.53887865  009.82795496 51
115  53.53955610  009.82822981
120 Linear Feature 35
111  53.54615510  009.82521123 1
115  53.54577441  009.82756807
120 Linear Feature 34
111  53.54603715  009.82498620 1
115  53.54561874  009.82517700
120 Linear Feature 33
111  53.54630101  009.82368909 1
115  53.54585362  009.82388246
120 Linear Feature 32
111  53.54397785  009.82331564 1
115  53.54280345  009.82277151
120 Linear Feature 31
111  53.54418223  009.82195017 1
115  53.54300173  009.82140604
120 Linear Feature 30
111  53.54403225  009.82121009 20
111  53.54416147  009.82178047 20
111  53.54428009  009.82183395 20
111  53.54423137  009.82215835 20
111  53.54410427  009.82210844 20
111  53.54384160  009.82245780 20
111  53.54382042  009.82260396 20
111  53.54394540  009.82312800 20
111  53.54406614  009.82318504 20
111  53.54401318  009.82350588 20
111  53.54390515  009.82346309 20
115  53.54360223  009.82385879
120 Linear Feature 75
111  53.53898169  009.82740926 51
115  53.53965913  009.82768411
120 Linear Feature 75
111  53.53907933  009.82670666 51
115  53.53975678  009.82698151
120 Linear Feature 75
111  53.53916502  009.82609958 51
115  53.53984246  009.82637443
120 Linear Feature 75
111  53.53926648  009.82548492 51
115  53.53994393  009.82575977
120 Linear Feature 74
111  53.54023388  009.82481828 51
115  53.53954614  009.82451587
120 Linear Feature 74
111  53.54035790  009.82337645 51
115  53.53977164  009.82311718
120 Linear Feature 71
111  53.53797910  009.82679671 51
115  53.53798720  009.82675100
120 Linear Feature 71
111  53.53782440  009.82672435 51
115  53.53783250  009.82667864
120 Linear Feature 71
111  53.53786679  009.82674513 51
115  53.53787489  009.82669942
120 Linear Feature 71
111  53.53789721  009.82676278 51
115  53.53790531  009.82671707
120 Linear Feature 70
111  53.53779168  009.82668886 51
115  53.53803382  009.82680201
120 Linear Feature 69
111  53.54057087  009.82327121 20
111  53.54051484  009.82362557 20
111  53.54037825  009.82357193 20
115  53.54016433  009.82384281
120 Linear Feature 69
111  53.54034088  009.82470089 20
111  53.54028673  009.82503310 20
111  53.54015013  009.82497631 20
115  53.53992622  009.82533622
120 Linear Feature 69
111  53.53807251  009.82665106 20
111  53.53801835  009.82698326 20
111  53.53788176  009.82692646 20
115  53.53764491  009.82730018
120 Linear Feature 68
111  53.54057087  009.82327121 20
111  53.54043181  009.82319898 20
111  53.54033464  009.82274264 20
115  53.53975200  009.82244854
120 Linear Feature 68
111  53.54034088  009.82470089 20
111  53.54020182  009.82462866 20
111  53.54013441  009.82410858 20
115  53.53958153  009.82385545
120 Linear Feature 68
111  53.53807251  009.82665106 20
111  53.53793345  009.82657883 20
111  53.53786604  009.82605878 20
115  53.53761749  009.82593429
120 Linear Feature 67
111  53.53836571  009.82501426 20
111  53.53808642  009.82488724 20
111  53.53807033  009.82497839 20
111  53.53795432  009.82503273 20
111  53.53785698  009.82499145 20
111  53.53781804  009.82521771 20
111  53.53792220  009.82526768 20
111  53.53798819  009.82545715 20
111  53.53797566  009.82555464 20
115  53.53826315  009.82568746
120 Linear Feature 67
111  53.53858368  009.82373691 20
111  53.53831435  009.82362361 20
111  53.53830026  009.82371583 20
111  53.53816586  009.82379136 20
111  53.53806851  009.82375009 20
111  53.53803202  009.82395043 20
111  53.53813618  009.82400039 20
111  53.53821413  009.82418483 20
111  53.53820161  009.82428232 20
115  53.53848112  009.82441011
120 Linear Feature 67
111  53.53883651  009.82214578 20
111  53.53855142  009.82202585 20
111  53.53853733  009.82211807 20
111  53.53840293  009.82219361 20
111  53.53830558  009.82215233 20
111  53.53826909  009.82235267 20
111  53.53837325  009.82240264 20
111  53.53845121  009.82258708 20
111  53.53843868  009.82268457 20
115  53.53871819  009.82281236
120 Linear Feature 67
111  53.53902343  009.82091343 20
111  53.53875410  009.82080013 20
111  53.53874000  009.82089235 20
111  53.53860560  009.82096788 20
111  53.53850826  009.82092660 20
111  53.53847063  009.82113267 20
111  53.53857479  009.82118264 20
111  53.53865388  009.82136135 20
111  53.53864136  009.82145884 20
115  53.53892086  009.82158663
120 Linear Feature 66
111  53.53765792  009.82572775 20
111  53.53740905  009.82561167 20
112  53.53737317  009.82564643  53.53736664  009.82569584 20
112  53.53737099  009.82581843  53.53740035  009.82583306 20
115  53.53761749  009.82593429
120 Linear Feature 65
111  53.53808065  009.82311441 20
115  53.53777945  009.82298255
120 Linear Feature 64
111  53.53810983  009.82290090 20
115  53.53781315  009.82277160
120 Linear Feature 63
111  53.53879441  009.82016753 20
115  53.53826593  009.81993918
120 Linear Feature 62
111  53.53852308  009.82028394 20
115  53.53822933  009.82015053
120 Linear Feature 60
111  53.53808065  009.82311441 20
111  53.53806718  009.82319668 20
111  53.53814847  009.82339527 20
111  53.53824905  009.82344289 20
111  53.53821775  009.82363823 20
111  53.53811580  009.82359419 20
111  53.53798718  009.82369753 20
111  53.53796100  009.82385932 20
111  53.53803910  009.82406903 20
111  53.53814109  009.82411988 20
111  53.53811064  009.82431422 20
111  53.53800590  009.82426944 20
111  53.53788446  009.82436728 20
111  53.53786271  009.82449719 20
111  53.53794078  009.82467737 20
111  53.53804511  009.82472947 20
111  53.53801277  009.82493083 20
111  53.53790730  009.82488403 20
111  53.53778333  009.82499304 20
111  53.53775723  009.82515772 20
111  53.53783291  009.82534957 20
111  53.53793947  009.82540264 20
111  53.53790275  009.82561945 20
111  53.53779761  009.82557549 20
111  53.53766995  009.82565719 20
115  53.53765792  009.82572775
120 Linear Feature 60
111  53.53852316  009.82028158 20
111  53.53850970  009.82036385 20
111  53.53859212  009.82055862 20
111  53.53869176  009.82061261 20
111  53.53866027  009.82080540 20
111  53.53855832  009.82075563 20
111  53.53842970  009.82086470 20
111  53.53840352  009.82102649 20
111  53.53848162  009.82123430 20
111  53.53858360  009.82128515 20
111  53.53855316  009.82148139 20
111  53.53844842  009.82143661 20
111  53.53832698  009.82153445 20
111  53.53830523  009.82166437 20
111  53.53838330  009.82184456 20
111  53.53848763  009.82189665 20
111  53.53845529  009.82209802 20
111  53.53834982  009.82205122 20
111  53.53822585  009.82216023 20
111  53.53819975  009.82232491 20
111  53.53827543  009.82251676 20
111  53.53838187  009.82257385 20
111  53.53834981  009.82277136 20
111  53.53824107  009.82272379 20
111  53.53812363  009.82282077 20
115  53.53810983  009.82290090
120 Linear Feature 32
111  53.53370658  009.83999055 51
115  53.53254901  009.83720987
120 Linear Feature 100
111  53.53802465  009.82740177 22
115  53.53933206  009.81922531
120 Linear Feature 97
111  53.53829745  009.82760724 53
115  53.53961776  009.81927132
120 Linear Feature 96
111  53.53713053  009.82705259 58
115  53.53844762  009.81876317
120 Linear Feature 95
111  53.53924089  009.81904041 20
115  53.53847592  009.81870417
120 Linear Feature 16
111  53.53985159  009.82171849 51
116  53.53939490  009.82203025  53.53931230  009.82248265
120 Linear Feature 16
111  53.54012218  009.82001266 51
116  53.53968682  009.82032988  53.53960864  009.82078414
120 Linear Feature 15
111  53.53955177  009.82111780 51
116  53.53985159  009.82171849  53.54016417  009.82186293
120 Linear Feature 15
111  53.53984037  009.81941854 51
116  53.54012218  009.82001266  53.54043015  009.82016795
120 Linear Feature 14
111  53.54199749  009.82260882 51
115  53.54233922  009.82273964
120 Linear Feature 13
111  53.54224205  009.82113707 51
115  53.54256758  009.82126790
120 Linear Feature 92
111  53.54014017  009.81924371 53
112  53.54035815  009.81902363  53.54054708  009.81908721 53
111  53.54237297  009.81991474 53
116  53.54263486  009.82063146  53.54252742  009.82121447
120 Linear Feature 94
111  53.53798449  009.82744682 20
111  53.53904565  009.82085808 20
115  53.53930490  009.81920727
120 Linear Feature 93
111  53.53805221  009.82749150 20
111  53.53893581  009.82194389 20
111  53.53936437  009.81922230 20
112  53.53942499  009.81879588  53.53943013  009.81876886 20
111  53.53840406  009.81829745 20
112  53.53833694  009.81871812  53.53831942  009.81881246 20
115  53.53703281  009.82684704
120 Linear Feature 91
111  53.54303631  009.82068305 53
112  53.54346458  009.82038841  53.54383397  009.82056791 53
115  53.54493235  009.82104872
120 Linear Feature 90
111  53.54525614  009.82118413 53 102
111  53.54614203  009.82159501 53 102
112  53.54623969  009.82195305  53.54619784  009.82224067 53 102
115  53.54618737  009.82232284
120 Linear Feature 75
111  53.53780252  009.83603197 51
111  53.53775969  009.83548821 51
112  53.53781401  009.83479637  53.53789365  009.83438459 51
112  53.53770870  009.83393374  53.53754796  009.83388199 51
112  53.53736508  009.83411536  53.53733701  009.83436029 51
112  53.53727865  009.83485210  53.53721138  009.83493972 51
116  53.53707087  009.83482915  53.53699873  009.83472617
120 Linear Feature 73
111  53.53347113  009.83161144 51 101
116  53.53349057  009.83074529  53.53372941  009.83045663
120 Linear Feature 72
111  53.53293518  009.83401647 6
115  53.53298396  009.83438153
120 Linear Feature 71
111  53.53272998  009.83359482 6
111  53.53262233  009.83352690 6
111  53.53251300  009.83331466 6
115  53.53252982  009.83321844
120 Linear Feature 70
111  53.53273313  009.83278390 54 104
115  53.53290493  009.83292977
120 Linear Feature 69
111  53.53337293  009.83390496 54 104
115  53.53341450  009.83422712
120 Linear Feature 68
111  53.53522952  009.83234816 54
115  53.53533860  009.83211430
120 Linear Feature 67
111  53.53439893  009.82986810 54 104
115  53.53422003  009.82951006
120 Linear Feature 66
111  53.53768341  009.83683403 56
115  53.53758878  009.83636772
120 Linear Feature 66
111  53.53729323  009.83708013 54 104
115  53.53722570  009.83675618
120 Linear Feature 64
111  53.54091117  009.81841214 53
115  53.54092229  009.81835240
120 Linear Feature 62
111  53.53593079  009.82296639 51
115  53.53736218  009.81938900
120 Linear Feature 2
111  53.53643495  009.82612769 53 102
112  53.53633665  009.82655900  53.53622096  009.82674377 53 102
111  53.53444040  009.82923155 53 102
111  53.53399489  009.82982976 53 102
116  53.53315867  009.83040643  53.53293120  009.83017549
120 Linear Feature 61
111  53.53675571  009.82412419 53 102
112  53.53707756  009.82291553  53.53719815  009.82226901 53 102
111  53.53732341  009.82144363 53 102
112  53.53720540  009.82093566  53.53701763  009.82081173 53 102
112  53.53689543  009.82104055  53.53685776  009.82113914 53
115  53.53658153  009.82182926
120 Linear Feature 60
111  53.53802727  009.81879099 53
115  53.53673975  009.82688952
120 Linear Feature 50
111  53.53665998  009.83756754 53 102
112  53.53674907  009.83744718  53.53685501  009.83735608 53 102
111  53.53718772  009.83714738 53 102
112  53.53828371  009.83645794  53.53848151  009.83633568 53 102
115  53.53854338  009.83651561
120 Linear Feature 48
111  53.53421600  009.83065605 51 101
116  53.53423447  009.82978209  53.53456766  009.82934907
120 Linear Feature 5
111  53.53367027  009.83128130 53 102
112  53.53375849  009.83081223  53.53386986  009.83064551 53 102
112  53.53409653  009.83094401  53.53424361  009.83109908 53 102
111  53.53474954  009.83165667 53 102
111  53.53725698  009.83535304 53 102
112  53.53760358  009.83601923  53.53766759  009.83630107 53 102
112  53.53735438  009.83666769  53.53715283  009.83680976 53 102
111  53.53661923  009.83713960 53 102
115  53.53647364  009.83717435
120 Linear Feature 47
111  53.53421600  009.83065605 51 101
116  53.53371315  009.83046081  53.53347760  009.83077060
120 Linear Feature 46
111  53.53775850  009.83587499 51 101
112  53.53781196  009.83632112  53.53778252  009.83657347 51 101
115  53.53766103  009.83667511
120 Linear Feature 45
111  53.53824089  009.83628594 51 101
112  53.53775850  009.83587499  53.53753244  009.83544028 51 101
111  53.53657031  009.83413601 51 101
115  53.53421600  009.83065605
120 Linear Feature 44
111  53.53613526  009.83727308 51 101
112  53.53658738  009.83737157  53.53691032  009.83717460 51 101
111  53.53824044  009.83629159 51 101
112  53.53890254  009.83667678  53.53921256  009.83732071 51 101
115  53.54014078  009.83930232
120 Linear Feature 43
111  53.53624226  009.82904993 1
115  53.53580595  009.82811393
120 Linear Feature 42
111  53.53638050  009.82746228 22
115  53.53593547  009.82652677
120 Linear Feature 41
111  53.53623442  009.82764516 22
115  53.53579695  009.82674715
120 Linear Feature 40
111  53.54226515  009.82429683 51
115  53.54284354  009.82063420
120 Linear Feature 39
111  53.54317187  009.81986482 51 101
111  53.54611321  009.82115017 51 101
112  53.54661386  009.82271155  53.54641076  009.82401277 51 101
115  53.54626485  009.82495149
120 Linear Feature 37
111  53.53964493  009.81824001 51 101
112  53.53983702  009.81942926  53.53968443  009.82037480 51 101
111  53.53929760  009.82258876 51 101
111  53.53905126  009.82417090 51 101
112  53.53903860  009.82469372  53.53907291  009.82488731 51 101
112  53.53906925  009.82569245  53.53897567  009.82626115 51 101
115  53.53869960  009.82773729
120 Linear Feature 38
111  53.53983702  009.81942926 51 101
116  53.54034350  009.81856059  53.54076820  009.81875635
120 Linear Feature 36
111  53.53302054  009.83065016 51 101
112  53.53348094  009.83076125  53.53375006  009.83040751 51 101
111  53.53423447  009.82978209 51 101
111  53.53639940  009.82684674 51 101
112  53.53686203  009.82536406  53.53702592  009.82431604 51 101
111  53.53723358  009.82302152 51 101
111  53.53801028  009.81814966 51 101
112  53.53869867  009.81779941  53.53931910  009.81806895 51 101
111  53.54085014  009.81879857 51 101
115  53.54317187  009.81986482
120 Linear Feature 83
111  53.54179026  009.84925623 51
112  53.54228002  009.84967813  53.54254239  009.84968794 51
112  53.54281837  009.85007059  53.54293886  009.85043689 51
112  53.54267649  009.85076068  53.54261041  009.85085880 51
112  53.54217896  009.85030607  53.54206958  009.84980349 51
115  53.54184408  009.84938450
120 Linear Feature 82
111  53.54283511  009.85089191 1
115  53.54315902  009.85044447
120 Linear Feature 84
111  53.52944878  009.82308050 51
112  53.52930652  009.82227228  53.52932984  009.82178577 51
112  53.52925055  009.82126396  53.52911994  009.82096578 51
112  53.52874446  009.82133066  53.52863718  009.82155822 51
112  53.52884360  009.82215851  53.52898353  009.82228405 51
116  53.52932869  009.82285295  53.52949428  009.82320606
120 Linear Feature 84
111  53.52585868  009.81546058 51
112  53.52571642  009.81465242  53.52573974  009.81416596 51
112  53.52566044  009.81364419  53.52552984  009.81334604 51
112  53.52515436  009.81371088  53.52504708  009.81393842 51
112  53.52525349  009.81453866  53.52539342  009.81466420 51
116  53.52573859  009.81523305  53.52590418  009.81558613
120 Linear Feature 73
111  53.54016433  009.82384281 20
115  53.53962657  009.82360055
120 Linear Feature 73
111  53.53992622  009.82533622 20
115  53.53943175  009.82513949
120 Linear Feature 60
111  53.53011007  009.83808229 51
115  53.53050524  009.83837851
120 Linear Feature 60
111  53.53026176  009.83752146 51
115  53.53062424  009.83781162
120 Linear Feature 60
111  53.53041066  009.83696638 51
115  53.53077625  009.83724610
120 Linear Feature 60
111  53.53056235  009.83640359 51
115  53.53091508  009.83669946
120 Linear Feature 60
111  53.53156253  009.83282533 51
115  53.53194283  009.83312175
120 Linear Feature 60
111  53.53136316  009.83347819 51
115  53.53177096  009.83380687
120 Linear Feature 60
111  53.53090875  009.83513341 51
115  53.53131161  009.83546240
120 Linear Feature 60
111  53.53074621  009.83586059 51
115  53.53112709  009.83615018
120 Linear Feature 60
111  53.53105771  009.83459206 51
115  53.53145737  009.83491657
120 Linear Feature 60
111  53.53120776  009.83403828 51
115  53.53160968  009.83435661
120 Linear Feature 10
111  53.53910279  009.83632818 20
112  53.53868653  009.83573919  53.53845002  009.83549722 20
111  53.53824756  009.83528391 20
116  53.53813782  009.83497827  53.53814697  009.83480211
120 Linear Feature 9
112  53.53808570  009.83422794  53.53810205  009.83463138 20
111  53.53806118  009.83502106 20
112  53.53817561  009.83536490  53.53830094  009.83548409 20
111  53.53865786  009.83583710 20
116  53.53906928  009.83644686  53.53926545  009.83685948
120 Linear Feature 41
111  53.53408744  009.83293133 51 101
116  53.53391399  009.83387512  53.53351274  009.83417869
120 Linear Feature 40
111  53.53243957  009.83347335 51
112  53.53258932  009.83373932  53.53263140  009.83399573 51
112  53.53296919  009.83421196  53.53322964  009.83411819 51 101
111  53.53418067  009.83377967 51 101
116  53.53458867  009.83400187  53.53474668  009.83434708
120 Linear Feature 39
111  53.53075712  009.83826658 51
111  53.53202474  009.83364754 51
112  53.53230470  009.83341461  53.53249428  009.83350784 51
116  53.53269079  009.83329073  53.53276121  009.83304275
120 Linear Feature 63
111  53.54633281  009.82076931 53
111  53.54626306  009.82080437 53
111  53.54330624  009.81950458 53
111  53.54091117  009.81841214 2
115  53.53914915  009.81761005
120 Linear Feature 25
111  53.53201118  009.83467714 51
115  53.53163973  009.83438473
120 Linear Feature 24
111  53.53185970  009.83521297 51
115  53.53148605  009.83494313
120 Linear Feature 23
111  53.53170675  009.83576455 51
115  53.53133082  009.83548289
120 Linear Feature 22
111  53.53115606  009.83617808 51
115  53.53140396  009.83637062
120 Linear Feature 22
111  53.53099541  009.83676513 51
115  53.53124929  009.83694509
120 Linear Feature 22
111  53.53089532  009.83733547 51
115  53.53109187  009.83748128
120 Linear Feature 22
111  53.53078669  009.83793868 51
115  53.53093068  009.83804662
120 Linear Feature 21
111  53.53178710  009.83381999 51
115  53.53215680  009.83410942
120 Linear Feature 4
111  53.53172286  009.83259291 80
111  53.53170323  009.83265923 80
115  53.53155242  009.83270126
120 Linear Feature 15
111  53.53968380  009.83755107 51 106
111  53.54021890  009.83772346 51 106
111  53.54030401  009.83810141 51 106
115  53.54028588  009.83827248
120 Linear Feature 14
111  53.53571699  009.82845860 53 102
112  53.53559770  009.82836236  53.53553397  009.82843660 53 102
111  53.53533479  009.82871271 53 102
116  53.53535930  009.82910131  53.53548922  009.82933961
120 Linear Feature 2
111  53.53837408  009.81871821 22
115  53.53706119  009.82687837
120 Linear Feature 19
111  53.53927436  009.84910485 2
112  53.53948329  009.84957506  53.53974713  009.84966265 2
116  53.54023874  009.84979722  53.54033534  009.84976576
120 Linear Feature 17
111  53.53845906  009.84737572 1
111  53.53869767  009.84706391 1
116  53.53877679  009.84712326  53.53882268  009.84722086
120 Linear Feature 16
111  53.53845906  009.84737572 2
112  53.53860437  009.84743660  53.53869034  009.84731930 2
111  53.53873769  009.84724771 2
116  53.53882095  009.84722134  53.53884920  009.84728709
120 Linear Feature 16
111  53.53860767  009.84768315 2
112  53.53875601  009.84775645  53.53884198  009.84763914 2
111  53.53888934  009.84756755 2
116  53.53897259  009.84754118  53.53900084  009.84760693
120 Linear Feature 16
111  53.53878688  009.84805903 2
112  53.53893490  009.84813671  53.53902086  009.84801940 2
111  53.53906822  009.84794781 2
116  53.53915147  009.84792144  53.53917973  009.84798719
120 Linear Feature 16
111  53.53927436  009.84910611 2
112  53.53941484  009.84915407  53.53950081  009.84903676 2
111  53.53954817  009.84896517 2
116  53.53963142  009.84893880  53.53965967  009.84900455
120 Linear Feature 16
111  53.53912229  009.84878521 2
112  53.53926278  009.84883317  53.53934875  009.84871587 2
111  53.53939611  009.84864428 2
116  53.53947936  009.84861791  53.53950761  009.84868365
120 Linear Feature 16
111  53.53897065  009.84845838 2
112  53.53911114  009.84850634  53.53919710  009.84838903 2
111  53.53924446  009.84831744 2
116  53.53932771  009.84829107  53.53935596  009.84835682
120 Linear Feature 15
111  53.53881279  009.84741009 1
116  53.53882066  009.84721690  53.53877660  009.84712423
120 Linear Feature 15
111  53.53899339  009.84778937 1
116  53.53900009  009.84759760  53.53895602  009.84750492
120 Linear Feature 15
111  53.53916761  009.84816091 1
116  53.53917498  009.84796801  53.53913092  009.84787533
120 Linear Feature 15
111  53.53932001  009.84848398 1
116  53.53932771  009.84829107  53.53927163  009.84819941
120 Linear Feature 15
111  53.53947178  009.84880496 1
116  53.53947917  009.84861218  53.53943510  009.84851950
120 Linear Feature 14
111  53.53891020  009.84740685 1
112  53.53881279  009.84741009  53.53876335  009.84748244 1
115  53.53860767  009.84768315
120 Linear Feature 14
111  53.53908929  009.84778557 1
112  53.53899339  009.84778937  53.53894395  009.84786173 1
115  53.53878688  009.84805903
120 Linear Feature 14
111  53.53926352  009.84815711 1
112  53.53916761  009.84816091  53.53911817  009.84823327 1
115  53.53897008  009.84846077
120 Linear Feature 14
111  53.53941709  009.84848017 1
112  53.53932001  009.84848398  53.53926516  009.84856746 1
115  53.53912248  009.84878384
120 Linear Feature 14
111  53.53956768  009.84880116 1
112  53.53947178  009.84880496  53.53942234  009.84887732 1
115  53.53927424  009.84910482
120 Linear Feature 13
111  53.52952314  009.82246930 53
111  53.52957987  009.82160649 53
115  53.52901644  009.82040645
120 Linear Feature 12
111  53.52593587  009.81477524 53
111  53.52598282  009.81398107 53
115  53.52540905  009.81279345
120 Linear Feature 11
111  53.54317257  009.85039496 53
111  53.54267679  009.84936719 53
115  53.54218314  009.84928456
120 Linear Feature 10
111  53.54267579  009.84933153 106
115  53.54316685  009.85040581
120 Linear Feature 20
111  53.53326765  009.84003043 2
115  53.53255080  009.84084812
120 Linear Feature 1
111  53.53840815  009.81874712 20
115  53.53707239  009.82704071
21  53.53097423  009.82505541 2 49.5 3.00 PAPI 05
21  53.53669079  009.83970006 2 228.9 3.00 PAPI 23
20  53.53405459  009.83174219 258.5 0 3 {@Y,^l}D|G{^r}
20  53.53330739  009.83016401 234.5 0 3 {@Y,^l}|D|G|{^r,@@,^l}|G|D|{^r}
20  53.53254252  009.83309470 113.5 0 3 {@Y,^r}|L1|L2|{^u}
20  53.53299138  009.83451049 169.9 0 3 {@Y,^l}|L2|L1|{^ru}
20  53.53842869  009.83654257 345.5 0 3 {@Y}APRON3{^r,@@,^ru}C|B{^u}
20  53.53721019  009.83663833 337.7 0 3 {@L}B{@Y,^l}C{^r,@@,@R,^l}23|05{^r}
20  53.53733017  009.83723017 335.5 0 3 {@L}B{@Y,^l}C{^r,@@,@R,^l}23|05{^r}
20  53.53589603  009.83795624 232.5 0 3 {@Y}APRON-3|{^r,@@,^l}|APRON-3|E|{^u}
20  53.53688583  009.83780125 232.5 0 3 {@Y}B|{^r}
20  53.53618068  009.83623147 22.6 0 3 {@Y,^l}|B
20  53.53452010  009.83015843 321.9 0 3 {@L}G{@Y}I{^u,@@,@R,^l}23|05{^r}
20  53.53342463  009.83430781 346.0 0 3 {safety,@@,@L}D
20  53.53267483  009.83272163 290.6 0 3 {safety,@@,@L}D
20  53.53296603  009.83298068 305.7 0 3 {safety,@@,@L}D
20  53.53336608  009.83383797 347.3 0 3 {safety,@@,@L}D
20  53.53293982  009.83393293 348.5 0 3 {@Y}HAVE_A_GREAT_FIGHT{@@}WELCOME_TO_HAMBURG
20  53.53282861  009.83349823 299.9 0 3 {@Y}HAVE_A_GREAT_FIGHT{@@}WELCOME_TO_HAMBURG
20  53.53492826  009.82809407 144.3 0 3 {@Y}HAVE_A_SAFE_FIGHT{@@}WELCOME_TO_HAMBURG
20  53.53410745  009.82919345 321.9 0 3 {@L}G{@Y}I{^u,@@,@R,^l}23|05{^r}
20  53.53469839  009.83081356 45.9 0 3 {@L}C{@@,@R,^l}|05|23{@Y,^l}G{^r}
20  53.53342785  009.83276902 47.9 0 4 {@Y,^l}|APRON-2|APRON-3|{^lu}|APRON-1_{^r,@@,^l}|APRON-2|APRON-1|{^r}
20  53.53437322  009.83148819 35.4 0 3 {@L}C{@@,@R,^l}|05|23{@Y,^l}G{^r}
20  53.53254553  009.83070183 79.4 0 3 {@Y,^l}|G|D|{^r}
20  53.53423394  009.83427554 227.8 0 3 {@Y,^l}|D{@@}D|{^r}
20  53.53361347  009.83434622 350.3 0 3 {@R,^l}|05|23|{^r}
20  53.53355118  009.83363269 345.2 0 3 {@R,^l}|05|23|{^r}
20  53.53322521  009.83241668 316.7 0 3 {@R,^l}|05|23|{^r}
20  53.53285642  009.83174224 293.8 0 3 {@R,^l}|05|23|{^r}
20  53.54469834  009.81997799 15.2 0 3 {no-entry}
20  53.54452648  009.82096906 15.9 0 3 {no-entry}
20  53.54535049  009.82140380 17.1 0 3 {@Y,^r}A1RBUS_HALLE_244A{^r}
20  53.54241401  009.82014842 14.5 0 3 {@Y,^r}A1RBUS_HALLE_214{^r}
20  53.54026370  009.81924613 17.1 0 3 {@Y,^r}A1RBUS_HALLE_211{^r}
1300  53.53158357  009.83284062 -154.8 tie_down heavy|jets D12
1301 C airline 
1300  53.53139721  009.83350363 205.7 tie_down heavy|jets D13
1301 C airline 
1300  53.53014734  009.83810756 205.3 tie_down heavy|jets D20
1301 C airline 
1300  53.53029915  009.83755181 205.5 tie_down heavy|jets D19
1301 C airline 
1300  53.53044864  009.83699838 202.5 tie_down heavy|jets D18
1301 C airline 
1300  53.53060344  009.83643741 205.6 tie_down heavy|jets D17
1301 C airline 
1300  53.53094754  009.83516360 206.1 tie_down heavy|jets D16
1301 C airline 
1300  53.53109512  009.83462194 206.6 tie_down heavy|jets D15
1301 C airline 
1300  53.53124528  009.83406675 206.3 tie_down heavy|jets D14
1301 C airline 
1300  53.53873993  009.83782172 142.8 gate heavy|jets 302
1301 C airline 
1300  53.53941546  009.83942823 142.0 gate heavy|jets 305
1301 C airline 
1300  53.53893702  009.83834273 140.6 gate heavy|jets 303
1301 C airline 
1300  53.53846919  009.83734911 140.8 gate heavy|jets 301
1301 C airline 
1300  53.53809858  009.82388156 194.4 tie_down heavy|jets D5
1301 C airline 
1300  53.53789031  009.82513527 194.8 tie_down heavy|jets D2
1301 C airline 
1300  53.53863107  009.82067882 15.4 tie_down heavy|jets D11
1301 C airline 
1300  53.53841459  009.82196772 14.0 tie_down heavy|jets D9
1301 C airline 
1300  53.53830929  009.82263067 15.3 tie_down heavy|jets D7
1301 C airline 
1300  53.53817177  009.82350417 15.9 tie_down heavy|jets D6
1301 C airline 
1300  53.53807847  009.82418848 15.1 tie_down heavy|jets D4
1301 C airline 
1300  53.53798070  009.82479345 15.9 tie_down heavy|jets D3
1301 C airline 
1300  53.53784421  009.82546147 15.3 tie_down heavy|jets D1
1301 C airline 
1300  53.54034652  009.82337235 15.4 gate heavy|jets C3
1301 E cargo 
1300  53.53790204  009.82674127 14.9 tie_down heavy|jets C5
1301 E cargo 
1300  53.53835055  009.82228904 195.9 tie_down heavy|jets D8
1301 C airline 
1300  53.53853798  009.82105552 195.8 tie_down heavy|jets D10
1301 C airline 
1300  53.54418499  009.82195250 14.3 tie_down heavy|jets C1
1301 E cargo 
1300  53.54397853  009.82331775 15.5 tie_down heavy|jets C2
1301 E cargo 
1300  53.54021979  009.82481248 16.4 gate heavy|jets C4
1301 E cargo 
1200 
1201  53.53929760  009.82258876 both 0 _stop
1201  53.53202474  009.83364754 both 1 _stop
1201  53.53145148  009.83572728 both 2 _stop
1201  53.53100810  009.83733580 both 3 _stop
1201  53.53260843  009.83354954 both 4 _stop
1201  53.53905126  009.82417090 both 5 _stop
1201  53.53222488  009.83340081 both 6 _stop
1201  53.52490245  009.81345872 both 7 05/23_start
1201  53.52872233  009.82157705 both 8 05/23_start
1201  53.52919580  009.82255620 both 9 05/23_start
1201  53.52924823  009.82267168 both 10 05/23_start
1201  53.52942712  009.82307568 both 11 05/23_start
1201  53.53325450  009.83111879 both 12 05/23_start(split)
1201  53.53444758  009.83368841 both 13 05/23_start(split)
1201  53.53627801  009.83759893 both 14 05/23_start(split)
1201  53.54267148  009.85112334 both 15 05/23_start(split)
1201  53.53375017  009.83041868 both 16 05/23_start(split)
1201  53.53281691  009.83285102 both 17 05/23_stop
1201  53.53382054  009.83032443 both 18 05/23_stop
1201  53.53639940  009.82684674 both 19 _stop
1201  53.53673451  009.82615686 both 20 _stop
1201  53.53809943  009.81756739 both 21 _stop
1201  53.54000364  009.81844095 both 22 _stop
1201  53.53176849  009.83640925 both 23 Gnd Route_stop
1201  53.53113450  009.83844511 both 24 Line 2_stop
1201  53.53166709  009.83657005 both 25 Line 2_stop
1201  53.53180332  009.83635403 both 26 Line 2_stop
1201  53.53196147  009.83595096 both 27 Line 2_stop
1201  53.53261913  009.83366162 both 28 Line 2_stop
1201  53.53239351  009.83441749 both 29 Line 2_stop
1201  53.53075262  009.83826219 both 30 Gnd Route_stop
1201  53.53338555  009.83406777 both 31 Line 2_stop
1201  53.53726826  009.83693814 both 32 B_stop
1201  53.54014276  009.83930471 both 33 C_stop
1201  53.53881240  009.83650839 both 34 C_stop
1201  53.53855986  009.83626177 both 35 C_stop
1201  53.53825219  009.83628688 both 36 C_stop
1201  53.53806516  009.83623444 both 37 C_stop
1201  53.53776904  009.83588040 both 38 C_stop
1201  53.53527949  009.83223242 both 39 C_stop
1201  53.53422098  009.83064813 both 40 C_stop
1201  53.52871019  009.82155123 both 41 Line 2_stop
1201  53.53869226  009.82774518 both 42 C_stop
1201  53.53910621  009.82544769 both 43 C_stop
1201  53.53904134  009.82469400 both 44 C_stop
1201  53.54226166  009.82429584 both 45 C_stop
1201  53.54295486  009.81974822 both 46 C_stop
1202 31 29 twoway taxiway_C D North
1202 6 1 twoway taxiway_E 
1202 4 6 twoway taxiway_E 
1202 17 4 twoway taxiway_E D South
1202 0 5 twoway taxiway_E N
1202 22 0 twoway taxiway_E N
1202 7 41 twoway runway 05/23
1204 departure 05,23
1204 arrival 05,23
1204 ils 05,23
1202 41 8 twoway runway 05/23
1204 departure 05,23
1204 arrival 05,23
1204 ils 05,23
1202 8 9 twoway runway 05/23
1204 departure 05,23
1204 arrival 05,23
1204 ils 05,23
1202 9 10 twoway runway 05/23
1204 departure 05,23
1204 arrival 05,23
1204 ils 05,23
1202 10 11 twoway runway 05/23
1204 departure 05,23
1204 arrival 05,23
1204 ils 05,23
1202 11 12 twoway runway 05/23
1204 departure 05,23
1204 arrival 05,23
1204 ils 05,23
1202 12 13 twoway runway 05/23
1204 departure 05,23
1204 arrival 05,23
1204 ils 05,23
1202 13 14 twoway runway 05/23
1204 departure 05,23
1204 arrival 05,23
1204 ils 05,23
1202 14 15 twoway runway 05/23
1204 departure 05,23
1204 arrival 05,23
1204 ils 05,23
1202 12 17 twoway taxiway_E D South
1204 departure 05,23
1204 arrival 05,23
1204 ils 05,23
1202 12 16 twoway taxiway_E G
1204 departure 05,23
1204 arrival 05,23
1204 ils 05,23
1202 16 18 twoway taxiway_E G
1204 departure 05,23
1204 arrival 05,23
1204 ils 05,23
1202 18 19 twoway taxiway_E G
1202 19 20 twoway taxiway_E G
1202 20 21 twoway taxiway_E I
1202 21 22 twoway taxiway_E K
1202 1 2 twoway taxiway_C Line 1
1202 2 3 twoway taxiway_C Line 1
1202 25 24 twoway taxiway_C Line 2
1202 26 23 twoway taxiway_C Line 2
1202 23 25 twoway taxiway_C Line 2
1202 27 26 twoway taxiway_C Line 2
1202 28 29 twoway taxiway_C Line 2
1202 29 27 twoway taxiway_C Line 2
1202 4 28 twoway taxiway_C Line 2
1202 3 30 twoway taxiway_C Line 1
1202 13 31 twoway taxiway_C D North
1204 departure 05,23
1204 arrival 05,23
1204 ils 05,23
1202 32 14 twoway taxiway_C B
1204 departure 05,23
1204 arrival 05,23
1204 ils 05,23
1202 36 32 twoway taxiway_C B
1202 34 33 twoway taxiway_C C
1202 35 34 twoway taxiway_C C
1202 36 35 twoway taxiway_C C
1202 37 36 twoway taxiway_C C
1202 38 37 twoway taxiway_C C
1202 39 38 twoway taxiway_C C
1202 40 39 twoway taxiway_C C
1202 16 40 twoway taxiway_C C
1202 43 42 twoway taxiway_E C
1202 44 43 twoway taxiway_E C
1202 5 44 twoway taxiway_E C
1202 46 45 twoway taxiway_E C
1202 22 46 twoway taxiway_E C
99
